EESchema Schematic File Version 2
LIBS:power
LIBS:device
LIBS:transistors
LIBS:conn
LIBS:linear
LIBS:regul
LIBS:74xx
LIBS:cmos4000
LIBS:adc-dac
LIBS:memory
LIBS:xilinx
LIBS:microcontrollers
LIBS:dsp
LIBS:microchip
LIBS:analog_switches
LIBS:motorola
LIBS:texas
LIBS:intel
LIBS:audio
LIBS:interface
LIBS:digital-audio
LIBS:philips
LIBS:display
LIBS:cypress
LIBS:siliconi
LIBS:opto
LIBS:atmel
LIBS:contrib
LIBS:valves
LIBS:an26018a
LIBS:sma
LIBS:LNA_AN26018_DVB-cache
EELAYER 25 0
EELAYER END
$Descr A4 11693 8268
encoding utf-8
Sheet 1 1
Title ""
Date ""
Rev ""
Comp ""
Comment1 ""
Comment2 ""
Comment3 ""
Comment4 ""
$EndDescr
$Comp
L AN26018A U1
U 1 1 573EB7E4
P 5300 3150
F 0 "U1" H 5450 2900 60  0000 C CNN
F 1 "AN26018A" H 5550 3400 60  0000 C CNN
F 2 "Librairie:SSMINI-5DC" H 5300 3150 60  0001 C CNN
F 3 "" H 5300 3150 60  0000 C CNN
	1    5300 3150
	1    0    0    -1  
$EndComp
$Comp
L SMA J1
U 1 1 573EB849
P 3600 3450
F 0 "J1" H 3725 3765 60  0000 C CNN
F 1 "RFin" H 3790 3690 60  0000 C CNN
F 2 "sma_connectors:SMA" H 3775 3620 50  0000 C CNN
F 3 "" H 3600 3450 60  0000 C CNN
	1    3600 3450
	-1   0    0    -1  
$EndComp
$Comp
L SMA J2
U 1 1 573EB89D
P 6600 3450
F 0 "J2" H 6725 3765 60  0000 C CNN
F 1 "RFout" H 6790 3690 60  0000 C CNN
F 2 "sma_connectors:SMA" H 6775 3620 50  0000 C CNN
F 3 "" H 6600 3450 60  0000 C CNN
	1    6600 3450
	1    0    0    -1  
$EndComp
$Comp
L CONN_01X03 P1
U 1 1 573EB8DD
P 6600 2250
F 0 "P1" H 6600 2450 50  0000 C CNN
F 1 "DC" V 6700 2250 50  0000 C CNN
F 2 "Pin_Headers:Pin_Header_Straight_1x03" H 6600 2250 50  0001 C CNN
F 3 "" H 6600 2250 50  0000 C CNN
	1    6600 2250
	1    0    0    -1  
$EndComp
$Comp
L L_Small L1
U 1 1 573EBA50
P 4000 3150
F 0 "L1" H 4030 3190 50  0000 L CNN
F 1 "6.8nH" H 4030 3110 50  0000 L CNN
F 2 "Resistors_SMD:R_0603_HandSoldering" H 4000 3150 50  0001 C CNN
F 3 "" H 4000 3150 50  0000 C CNN
	1    4000 3150
	0    -1   -1   0   
$EndComp
$Comp
L C_Small C1
U 1 1 573EBBC9
P 4450 3150
F 0 "C1" H 4460 3220 50  0000 L CNN
F 1 "1nF" H 4460 3070 50  0000 L CNN
F 2 "Capacitors_SMD:C_0805_HandSoldering" H 4450 3150 50  0001 C CNN
F 3 "" H 4450 3150 50  0000 C CNN
	1    4450 3150
	0    1    1    0   
$EndComp
$Comp
L C_Small C2
U 1 1 573EBC04
P 6150 3150
F 0 "C2" H 6160 3220 50  0000 L CNN
F 1 "1nF" H 6160 3070 50  0000 L CNN
F 2 "Capacitors_SMD:C_0805_HandSoldering" H 6150 3150 50  0001 C CNN
F 3 "" H 6150 3150 50  0000 C CNN
	1    6150 3150
	0    1    1    0   
$EndComp
$Comp
L GND #PWR01
U 1 1 573EBD6C
P 6600 3500
F 0 "#PWR01" H 6600 3250 50  0001 C CNN
F 1 "GND" H 6600 3350 50  0000 C CNN
F 2 "" H 6600 3500 50  0000 C CNN
F 3 "" H 6600 3500 50  0000 C CNN
	1    6600 3500
	1    0    0    -1  
$EndComp
$Comp
L GND #PWR02
U 1 1 573EBD8E
P 3600 3500
F 0 "#PWR02" H 3600 3250 50  0001 C CNN
F 1 "GND" H 3600 3350 50  0000 C CNN
F 2 "" H 3600 3500 50  0000 C CNN
F 3 "" H 3600 3500 50  0000 C CNN
	1    3600 3500
	1    0    0    -1  
$EndComp
$Comp
L GND #PWR03
U 1 1 573EBDB0
P 6050 2250
F 0 "#PWR03" H 6050 2000 50  0001 C CNN
F 1 "GND" H 6050 2100 50  0000 C CNN
F 2 "" H 6050 2250 50  0000 C CNN
F 3 "" H 6050 2250 50  0000 C CNN
	1    6050 2250
	1    0    0    -1  
$EndComp
$Comp
L GND #PWR04
U 1 1 573EBDD2
P 5300 3700
F 0 "#PWR04" H 5300 3450 50  0001 C CNN
F 1 "GND" H 5300 3550 50  0000 C CNN
F 2 "" H 5300 3700 50  0000 C CNN
F 3 "" H 5300 3700 50  0000 C CNN
	1    5300 3700
	1    0    0    -1  
$EndComp
$Comp
L VCC #PWR05
U 1 1 573EBED7
P 5300 2050
F 0 "#PWR05" H 5300 1900 50  0001 C CNN
F 1 "VCC" H 5300 2200 50  0000 C CNN
F 2 "" H 5300 2050 50  0000 C CNN
F 3 "" H 5300 2050 50  0000 C CNN
	1    5300 2050
	1    0    0    -1  
$EndComp
$Comp
L VCOM #PWR06
U 1 1 573EBF4A
P 5800 2500
F 0 "#PWR06" H 5800 2350 50  0001 C CNN
F 1 "VCOM" H 5800 2650 50  0000 C CNN
F 2 "" H 5800 2500 50  0000 C CNN
F 3 "" H 5800 2500 50  0000 C CNN
	1    5800 2500
	1    0    0    -1  
$EndComp
$Comp
L VCOM #PWR07
U 1 1 573EBF6C
P 4850 3850
F 0 "#PWR07" H 4850 3700 50  0001 C CNN
F 1 "VCOM" H 4850 4000 50  0000 C CNN
F 2 "" H 4850 3850 50  0000 C CNN
F 3 "" H 4850 3850 50  0000 C CNN
	1    4850 3850
	1    0    0    -1  
$EndComp
$Comp
L C C3
U 1 1 573EC1F6
P 4850 2300
F 0 "C3" H 4875 2400 50  0000 L CNN
F 1 "1uF" H 4875 2200 50  0000 L CNN
F 2 "Capacitors_SMD:C_1206_HandSoldering" H 4888 2150 50  0001 C CNN
F 3 "" H 4850 2300 50  0000 C CNN
	1    4850 2300
	1    0    0    -1  
$EndComp
$Comp
L GND #PWR08
U 1 1 573EC239
P 4850 2450
F 0 "#PWR08" H 4850 2200 50  0001 C CNN
F 1 "GND" H 4850 2300 50  0000 C CNN
F 2 "" H 4850 2450 50  0000 C CNN
F 3 "" H 4850 2450 50  0000 C CNN
	1    4850 2450
	1    0    0    -1  
$EndComp
Wire Wire Line
	3750 3150 3900 3150
Wire Wire Line
	4100 3150 4350 3150
Wire Wire Line
	4550 3150 4850 3150
Wire Wire Line
	5900 3150 6050 3150
Wire Wire Line
	6250 3150 6450 3150
Wire Wire Line
	4100 2150 6400 2150
Wire Wire Line
	5300 2050 5300 2750
Wire Wire Line
	6400 2250 6050 2250
Wire Wire Line
	6500 3350 6650 3350
Connection ~ 6600 3350
Connection ~ 6550 3350
Wire Wire Line
	6600 3500 6600 3350
Wire Wire Line
	3550 3350 3700 3350
Connection ~ 3650 3350
Connection ~ 3600 3350
Wire Wire Line
	3600 3500 3600 3350
Wire Wire Line
	5300 3550 5300 3700
Connection ~ 5300 2150
Wire Wire Line
	4850 3850 5150 3850
Wire Wire Line
	5150 3850 5150 3650
Wire Wire Line
	6400 2350 6400 2500
Wire Wire Line
	6400 2500 5800 2500
$Comp
L C C4
U 1 1 573EC46A
P 4500 2300
F 0 "C4" H 4525 2400 50  0000 L CNN
F 1 "10nF" H 4525 2200 50  0000 L CNN
F 2 "Capacitors_SMD:C_1206_HandSoldering" H 4538 2150 50  0001 C CNN
F 3 "" H 4500 2300 50  0000 C CNN
	1    4500 2300
	1    0    0    -1  
$EndComp
$Comp
L GND #PWR09
U 1 1 573EC470
P 4500 2450
F 0 "#PWR09" H 4500 2200 50  0001 C CNN
F 1 "GND" H 4500 2300 50  0000 C CNN
F 2 "" H 4500 2450 50  0000 C CNN
F 3 "" H 4500 2450 50  0000 C CNN
	1    4500 2450
	1    0    0    -1  
$EndComp
$Comp
L C C5
U 1 1 573EC4A4
P 4100 2300
F 0 "C5" H 4125 2400 50  0000 L CNN
F 1 "10 pF" H 4125 2200 50  0000 L CNN
F 2 "Capacitors_SMD:C_1206_HandSoldering" H 4138 2150 50  0001 C CNN
F 3 "" H 4100 2300 50  0000 C CNN
	1    4100 2300
	1    0    0    -1  
$EndComp
$Comp
L GND #PWR010
U 1 1 573EC4AA
P 4100 2450
F 0 "#PWR010" H 4100 2200 50  0001 C CNN
F 1 "GND" H 4100 2300 50  0000 C CNN
F 2 "" H 4100 2450 50  0000 C CNN
F 3 "" H 4100 2450 50  0000 C CNN
	1    4100 2450
	1    0    0    -1  
$EndComp
Connection ~ 4500 2150
Connection ~ 4850 2150
$EndSCHEMATC
