%!PS-Adobe-3.0
%%Creator: PCBNEW
%%CreationDate: Mon May 23 10:33:42 2016
%%Title: /media/c2m/HOG/Projet/LNA_AN26018_DVB/LNA_AN26018_DVB-F.Cu.ps
%%Pages: 1
%%PageOrder: Ascend
%%BoundingBox: 0 0 596 842
%%DocumentMedia: A4 595 842 0 () ()
%%Orientation: Landscape
%%EndComments
%%BeginProlog
/line { newpath moveto lineto stroke } bind def
/cir0 { newpath 0 360 arc stroke } bind def
/cir1 { newpath 0 360 arc gsave fill grestore stroke } bind def
/cir2 { newpath 0 360 arc gsave fill grestore stroke } bind def
/arc0 { newpath arc stroke } bind def
/arc1 { newpath 4 index 4 index moveto arc closepath gsave fill
    grestore stroke } bind def
/arc2 { newpath 4 index 4 index moveto arc closepath gsave fill
    grestore stroke } bind def
/poly0 { stroke } bind def
/poly1 { closepath gsave fill grestore stroke } bind def
/poly2 { closepath gsave fill grestore stroke } bind def
/rect0 { rectstroke } bind def
/rect1 { rectfill } bind def
/rect2 { rectfill } bind def
/linemode0 { 0 setlinecap 0 setlinejoin 0 setlinewidth } bind def
/linemode1 { 1 setlinecap 1 setlinejoin } bind def
/dashedline { [200] 100 setdash } bind def
/solidline { [] 0 setdash } bind def
/phantomshow { moveto
    /KicadFont findfont 0.000001 scalefont setfont
    show } bind def
/textshow { gsave
    findfont exch scalefont setfont concat 1 scale 0 0 moveto show
    } bind def
/reencodefont {
  findfont dup length dict begin
  { 1 index /FID ne
    { def }
    { pop pop } ifelse
  } forall
  /Encoding ISOLatin1Encoding def
  currentdict
  end } bind def
/KicadFont /Helvetica reencodefont definefont pop
/KicadFont-Bold /Helvetica-Bold reencodefont definefont pop
/KicadFont-Oblique /Helvetica-Oblique reencodefont definefont pop
/KicadFont-BoldOblique /Helvetica-BoldOblique reencodefont definefont pop
%%EndProlog
%%Page: 1 1
%%BeginPageSetup
gsave
0.0072 0.0072 scale
linemode1
82680 0 translate 90 rotate
39.3701 setlinewidth
%%EndPageSetup
0 0 0 setrgbcolor
0 0 0 setrgbcolor
98.4252 setlinewidth
newpath
52988.4 32086.6 moveto
52969.6 32067.9 lineto
52913.4 32049.1 lineto
52875.9 32049.1 lineto
52819.6 32067.9 lineto
52782.2 32105.4 lineto
52763.4 32142.9 lineto
52744.7 32217.9 lineto
52744.7 32274.1 lineto
52763.4 32349.1 lineto
52782.2 32386.6 lineto
52819.6 32424.1 lineto
52875.9 32442.8 lineto
52913.4 32442.8 lineto
52969.6 32424.1 lineto
52988.4 32405.3 lineto
stroke
newpath
53157.1 32049.1 moveto
53157.1 32442.8 lineto
stroke
newpath
53344.6 32049.1 moveto
53344.6 32442.8 lineto
53475.8 32161.6 lineto
53607 32442.8 lineto
53607 32049.1 lineto
stroke
newpath
53794.5 32255.4 moveto
53925.8 32255.4 lineto
stroke
newpath
53982 32049.1 moveto
53794.5 32049.1 lineto
53794.5 32442.8 lineto
53982 32442.8 lineto
stroke
newpath
54450.7 32049.1 moveto
54450.7 32442.8 lineto
54675.7 32049.1 lineto
54675.7 32442.8 lineto
stroke
newpath
55031.9 32049.1 moveto
55031.9 32255.4 lineto
55013.1 32292.9 lineto
54975.6 32311.6 lineto
54900.6 32311.6 lineto
54863.1 32292.9 lineto
stroke
newpath
55031.9 32067.9 moveto
54994.4 32049.1 lineto
54900.6 32049.1 lineto
54863.1 32067.9 lineto
54844.4 32105.4 lineto
54844.4 32142.9 lineto
54863.1 32180.4 lineto
54900.6 32199.1 lineto
54994.4 32199.1 lineto
55031.9 32217.9 lineto
stroke
newpath
55219.3 32311.6 moveto
55219.3 32049.1 lineto
stroke
newpath
55219.3 32274.1 moveto
55238.1 32292.9 lineto
55275.6 32311.6 lineto
55331.8 32311.6 lineto
55369.3 32292.9 lineto
55388.1 32255.4 lineto
55388.1 32049.1 lineto
stroke
newpath
55631.8 32049.1 moveto
55594.3 32067.9 lineto
55575.6 32086.6 lineto
55556.8 32124.1 lineto
55556.8 32236.6 lineto
55575.6 32274.1 lineto
55594.3 32292.9 lineto
55631.8 32311.6 lineto
55688 32311.6 lineto
55725.5 32292.9 lineto
55744.3 32274.1 lineto
55763 32236.6 lineto
55763 32124.1 lineto
55744.3 32086.6 lineto
55725.5 32067.9 lineto
55688 32049.1 lineto
55631.8 32049.1 lineto
stroke
newpath
55875.5 32311.6 moveto
56025.5 32311.6 lineto
stroke
newpath
55931.8 32442.8 moveto
55931.8 32105.4 lineto
55950.5 32067.9 lineto
55988 32049.1 lineto
56025.5 32049.1 lineto
stroke
newpath
56306.7 32067.9 moveto
56269.2 32049.1 lineto
56194.2 32049.1 lineto
56156.7 32067.9 lineto
56138 32105.4 lineto
56138 32255.4 lineto
56156.7 32292.9 lineto
56194.2 32311.6 lineto
56269.2 32311.6 lineto
56306.7 32292.9 lineto
56325.5 32255.4 lineto
56325.5 32217.9 lineto
56138 32180.4 lineto
stroke
newpath
56662.9 32067.9 moveto
56625.4 32049.1 lineto
56550.4 32049.1 lineto
56512.9 32067.9 lineto
56494.2 32086.6 lineto
56475.4 32124.1 lineto
56475.4 32236.6 lineto
56494.2 32274.1 lineto
56512.9 32292.9 lineto
56550.4 32311.6 lineto
56625.4 32311.6 lineto
56662.9 32292.9 lineto
stroke
newpath
56831.6 32049.1 moveto
56831.6 32442.8 lineto
stroke
newpath
57000.4 32049.1 moveto
57000.4 32255.4 lineto
56981.6 32292.9 lineto
56944.1 32311.6 lineto
56887.9 32311.6 lineto
56850.4 32292.9 lineto
56831.6 32274.1 lineto
stroke
newpath
53419.6 31755.7 moveto
53438.3 31774.5 lineto
53475.8 31793.2 lineto
53569.6 31793.2 lineto
53607 31774.5 lineto
53625.8 31755.7 lineto
53644.5 31718.2 lineto
53644.5 31680.8 lineto
53625.8 31624.5 lineto
53400.8 31399.5 lineto
53644.5 31399.5 lineto
stroke
newpath
53888.3 31793.2 moveto
53925.8 31793.2 lineto
53963.3 31774.5 lineto
53982 31755.7 lineto
54000.8 31718.2 lineto
54019.5 31643.3 lineto
54019.5 31549.5 lineto
54000.8 31474.5 lineto
53982 31437 lineto
53963.3 31418.3 lineto
53925.8 31399.5 lineto
53888.3 31399.5 lineto
53850.8 31418.3 lineto
53832 31437 lineto
53813.3 31474.5 lineto
53794.5 31549.5 lineto
53794.5 31643.3 lineto
53813.3 31718.2 lineto
53832 31755.7 lineto
53850.8 31774.5 lineto
53888.3 31793.2 lineto
stroke
newpath
54469.4 31812 moveto
54132 31305.8 lineto
stroke
newpath
54675.7 31793.2 moveto
54713.2 31793.2 lineto
54750.7 31774.5 lineto
54769.4 31755.7 lineto
54788.2 31718.2 lineto
54806.9 31643.3 lineto
54806.9 31549.5 lineto
54788.2 31474.5 lineto
54769.4 31437 lineto
54750.7 31418.3 lineto
54713.2 31399.5 lineto
54675.7 31399.5 lineto
54638.2 31418.3 lineto
54619.4 31437 lineto
54600.7 31474.5 lineto
54581.9 31549.5 lineto
54581.9 31643.3 lineto
54600.7 31718.2 lineto
54619.4 31755.7 lineto
54638.2 31774.5 lineto
54675.7 31793.2 lineto
stroke
newpath
55163.1 31793.2 moveto
54975.6 31793.2 lineto
54956.9 31605.8 lineto
54975.6 31624.5 lineto
55013.1 31643.3 lineto
55106.9 31643.3 lineto
55144.4 31624.5 lineto
55163.1 31605.8 lineto
55181.9 31568.3 lineto
55181.9 31474.5 lineto
55163.1 31437 lineto
55144.4 31418.3 lineto
55106.9 31399.5 lineto
55013.1 31399.5 lineto
54975.6 31418.3 lineto
54956.9 31437 lineto
stroke
newpath
55631.8 31812 moveto
55294.3 31305.8 lineto
stroke
newpath
55969.3 31399.5 moveto
55744.3 31399.5 lineto
stroke
newpath
55856.8 31399.5 moveto
55856.8 31793.2 lineto
55819.3 31737 lineto
55781.8 31699.5 lineto
55744.3 31680.8 lineto
stroke
newpath
56306.7 31793.2 moveto
56231.7 31793.2 lineto
56194.2 31774.5 lineto
56175.5 31755.7 lineto
56138 31699.5 lineto
56119.2 31624.5 lineto
56119.2 31474.5 lineto
56138 31437 lineto
56156.7 31418.3 lineto
56194.2 31399.5 lineto
56269.2 31399.5 lineto
56306.7 31418.3 lineto
56325.5 31437 lineto
56344.2 31474.5 lineto
56344.2 31568.3 lineto
56325.5 31605.8 lineto
56306.7 31624.5 lineto
56269.2 31643.3 lineto
56194.2 31643.3 lineto
56156.7 31624.5 lineto
56138 31605.8 lineto
56119.2 31568.3 lineto
stroke
newpath
53475.8 30862.4 moveto
53663.3 30862.4 lineto
stroke
newpath
53438.3 30749.9 moveto
53569.6 31143.6 lineto
53700.8 30749.9 lineto
stroke
newpath
53832 30749.9 moveto
53832 31143.6 lineto
54057 30749.9 lineto
54057 31143.6 lineto
stroke
newpath
54225.7 31106.1 moveto
54244.5 31124.9 lineto
54282 31143.6 lineto
54375.7 31143.6 lineto
54413.2 31124.9 lineto
54431.9 31106.1 lineto
54450.7 31068.6 lineto
54450.7 31031.1 lineto
54431.9 30974.9 lineto
54207 30749.9 lineto
54450.7 30749.9 lineto
stroke
newpath
54788.2 31143.6 moveto
54713.2 31143.6 lineto
54675.7 31124.9 lineto
54656.9 31106.1 lineto
54619.4 31049.9 lineto
54600.7 30974.9 lineto
54600.7 30824.9 lineto
54619.4 30787.4 lineto
54638.2 30768.7 lineto
54675.7 30749.9 lineto
54750.7 30749.9 lineto
54788.2 30768.7 lineto
54806.9 30787.4 lineto
54825.6 30824.9 lineto
54825.6 30918.7 lineto
54806.9 30956.2 lineto
54788.2 30974.9 lineto
54750.7 30993.6 lineto
54675.7 30993.6 lineto
54638.2 30974.9 lineto
54619.4 30956.2 lineto
54600.7 30918.7 lineto
stroke
newpath
55069.4 31143.6 moveto
55106.9 31143.6 lineto
55144.4 31124.9 lineto
55163.1 31106.1 lineto
55181.9 31068.6 lineto
55200.6 30993.6 lineto
55200.6 30899.9 lineto
55181.9 30824.9 lineto
55163.1 30787.4 lineto
55144.4 30768.7 lineto
55106.9 30749.9 lineto
55069.4 30749.9 lineto
55031.9 30768.7 lineto
55013.1 30787.4 lineto
54994.4 30824.9 lineto
54975.6 30899.9 lineto
54975.6 30993.6 lineto
54994.4 31068.6 lineto
55013.1 31106.1 lineto
55031.9 31124.9 lineto
55069.4 31143.6 lineto
stroke
newpath
55575.6 30749.9 moveto
55350.6 30749.9 lineto
stroke
newpath
55463.1 30749.9 moveto
55463.1 31143.6 lineto
55425.6 31087.4 lineto
55388.1 31049.9 lineto
55350.6 31031.1 lineto
stroke
newpath
55800.5 30974.9 moveto
55763 30993.6 lineto
55744.3 31012.4 lineto
55725.5 31049.9 lineto
55725.5 31068.6 lineto
55744.3 31106.1 lineto
55763 31124.9 lineto
55800.5 31143.6 lineto
55875.5 31143.6 lineto
55913 31124.9 lineto
55931.8 31106.1 lineto
55950.5 31068.6 lineto
55950.5 31049.9 lineto
55931.8 31012.4 lineto
55913 30993.6 lineto
55875.5 30974.9 lineto
55800.5 30974.9 lineto
55763 30956.2 lineto
55744.3 30937.4 lineto
55725.5 30899.9 lineto
55725.5 30824.9 lineto
55744.3 30787.4 lineto
55763 30768.7 lineto
55800.5 30749.9 lineto
55875.5 30749.9 lineto
55913 30768.7 lineto
55931.8 30787.4 lineto
55950.5 30824.9 lineto
55950.5 30899.9 lineto
55931.8 30937.4 lineto
55913 30956.2 lineto
55875.5 30974.9 lineto
stroke
newpath
56100.5 30862.4 moveto
56288 30862.4 lineto
stroke
newpath
56063 30749.9 moveto
56194.2 31143.6 lineto
56325.5 30749.9 lineto
stroke
0 0 0 setrgbcolor
0 setlinewidth
newpath
52322.8 37069.8 moveto
52322.8 37266.6 lineto
53110.2 37266.6 lineto
53110.2 37069.8 lineto
52322.8 37069.8 lineto
poly1
0 0 0 setrgbcolor
newpath
52322.8 35298.1 moveto
52322.8 35691.8 lineto
54291.3 35691.8 lineto
54291.3 35298.1 lineto
52322.8 35298.1 lineto
poly1
0 0 0 setrgbcolor
newpath
52322.8 38644.6 moveto
52322.8 39038.3 lineto
54291.3 39038.3 lineto
54291.3 38644.6 lineto
52322.8 38644.6 lineto
poly1
0 0 0 setrgbcolor
newpath
57755.9 37414.3 moveto
57755.9 36922.1 lineto
57165.4 36922.1 lineto
57165.4 37414.3 lineto
57755.9 37414.3 lineto
poly1
0 0 0 setrgbcolor
newpath
56771.7 37414.3 moveto
56771.7 36922.1 lineto
56181.1 36922.1 lineto
56181.1 37414.3 lineto
56771.7 37414.3 lineto
poly1
0 0 0 setrgbcolor
newpath
62992.1 37414.3 moveto
62992.1 36922.1 lineto
62401.6 36922.1 lineto
62401.6 37414.3 lineto
62992.1 37414.3 lineto
poly1
0 0 0 setrgbcolor
newpath
62007.9 37414.3 moveto
62007.9 36922.1 lineto
61417.3 36922.1 lineto
61417.3 37414.3 lineto
62007.9 37414.3 lineto
poly1
0 0 0 setrgbcolor
newpath
59566.9 33546.1 moveto
59566.9 34176.1 lineto
60354.3 34176.1 lineto
60354.3 33546.1 lineto
59566.9 33546.1 lineto
poly1
0 0 0 setrgbcolor
newpath
61141.7 33546.1 moveto
61141.7 34176.1 lineto
61929.1 34176.1 lineto
61929.1 33546.1 lineto
61141.7 33546.1 lineto
poly1
0 0 0 setrgbcolor
newpath
59566.9 32404.4 moveto
59566.9 33034.3 lineto
60354.3 33034.3 lineto
60354.3 32404.4 lineto
59566.9 32404.4 lineto
poly1
0 0 0 setrgbcolor
newpath
61141.7 32404.4 moveto
61141.7 33034.3 lineto
61929.1 33034.3 lineto
61929.1 32404.4 lineto
61141.7 32404.4 lineto
poly1
0 0 0 setrgbcolor
newpath
59566.9 34648.5 moveto
59566.9 35278.4 lineto
60354.3 35278.4 lineto
60354.3 34648.5 lineto
59566.9 34648.5 lineto
poly1
0 0 0 setrgbcolor
newpath
61141.7 34648.5 moveto
61141.7 35278.4 lineto
61929.1 35278.4 lineto
61929.1 34648.5 lineto
61141.7 34648.5 lineto
poly1
0 0 0 setrgbcolor
newpath
54370.1 36991 moveto
54370.1 37345.4 lineto
54842.5 37345.4 lineto
54842.5 36991 lineto
54370.1 36991 lineto
poly1
0 0 0 setrgbcolor
newpath
55236.2 36991 moveto
55236.2 37345.4 lineto
55708.7 37345.4 lineto
55708.7 36991 lineto
55236.2 36991 lineto
poly1
0 0 0 setrgbcolor
newpath
59660 31780.8 moveto
60340 31780.8 lineto
60340 30980.8 lineto
59660 30980.8 lineto
59660 31780.8 lineto
poly1
0 0 0 setrgbcolor
680 setlinewidth
newpath
59000 31440.8 moveto
59000 31320.8 lineto
stroke
0 0 0 setrgbcolor
newpath
58000 31440.8 moveto
58000 31320.8 lineto
stroke
0 0 0 setrgbcolor
0 setlinewidth
newpath
65433.1 37266.6 moveto
65433.1 37069.8 lineto
64645.7 37069.8 lineto
64645.7 37266.6 lineto
65433.1 37266.6 lineto
poly1
0 0 0 setrgbcolor
newpath
65433.1 39038.3 moveto
65433.1 38644.6 lineto
63464.6 38644.6 lineto
63464.6 39038.3 lineto
65433.1 39038.3 lineto
poly1
0 0 0 setrgbcolor
newpath
65433.1 35691.8 moveto
65433.1 35298.1 lineto
63464.6 35298.1 lineto
63464.6 35691.8 lineto
65433.1 35691.8 lineto
poly1
0 0 0 setrgbcolor
newpath
58858.3 37128.8 moveto
58858.3 37207.6 lineto
59330.7 37207.6 lineto
59330.7 37128.8 lineto
58858.3 37128.8 lineto
poly1
0 0 0 setrgbcolor
newpath
58976.4 36932 moveto
58976.4 37010.7 lineto
59330.7 37010.7 lineto
59330.7 36932 lineto
58976.4 36932 lineto
poly1
0 0 0 setrgbcolor
newpath
59094.5 36735.1 moveto
59094.5 36813.9 lineto
59370.1 36813.9 lineto
59370.1 36735.1 lineto
59094.5 36735.1 lineto
poly1
0 0 0 setrgbcolor
newpath
59783.5 36735.1 moveto
59783.5 36813.9 lineto
60059.1 36813.9 lineto
60059.1 36735.1 lineto
59783.5 36735.1 lineto
poly1
0 0 0 setrgbcolor
newpath
59803.1 37128.8 moveto
59803.1 37207.6 lineto
60039.4 37207.6 lineto
60039.4 37128.8 lineto
59803.1 37128.8 lineto
poly1
0 0 0 setrgbcolor
newpath
58090.6 36932 moveto
58090.6 37404.4 lineto
58878 37207.6 lineto
58878 37128.8 lineto
58090.6 36932 lineto
poly1
0 0 0 setrgbcolor
newpath
59370.1 35947.7 moveto
59094.5 35947.7 lineto
59094.5 36735.1 lineto
59370.1 36735.1 lineto
59370.1 35947.7 lineto
poly1
0 0 0 setrgbcolor
newpath
60059.1 35947.7 moveto
59783.5 35947.7 lineto
59783.5 36735.1 lineto
60059.1 36735.1 lineto
60059.1 35947.7 lineto
poly1
0 0 0 setrgbcolor
newpath
60826.8 37404.4 moveto
60826.8 36932 lineto
60039.4 37128.8 lineto
60039.4 37207.6 lineto
60826.8 37404.4 lineto
poly1
0 0 0 setrgbcolor
newpath
60905.5 36932 moveto
60826.8 36932 lineto
60826.8 37404.4 lineto
60905.5 37404.4 lineto
60905.5 36932 lineto
poly1
0 0 0 setrgbcolor
newpath
58090.6 36932 moveto
58011.8 36932 lineto
58011.8 37404.4 lineto
58090.6 37404.4 lineto
58090.6 36932 lineto
poly1
0 0 0 setrgbcolor
newpath
58976.4 36617 moveto
58858.3 36617 lineto
58858.3 37010.7 lineto
58976.4 37010.7 lineto
58976.4 36617 lineto
poly1
0 0 0 setrgbcolor
58700.8 35987.1 157.48 cir1
39.3701 setlinewidth
0 0 0 setrgbcolor
0 setlinewidth
53543.3 36420.2 157.48 cir1
39.3701 setlinewidth
0 0 0 setrgbcolor
0 setlinewidth
55118.1 36420.2 157.48 cir1
39.3701 setlinewidth
0 0 0 setrgbcolor
0 setlinewidth
56692.9 36420.2 157.48 cir1
39.3701 setlinewidth
0 0 0 setrgbcolor
0 setlinewidth
58267.7 36420.2 157.48 cir1
39.3701 setlinewidth
0 0 0 setrgbcolor
0 setlinewidth
57283.5 32680 157.48 cir1
39.3701 setlinewidth
0 0 0 setrgbcolor
0 setlinewidth
57283.5 33467.4 157.48 cir1
39.3701 setlinewidth
0 0 0 setrgbcolor
0 setlinewidth
57283.5 34451.7 157.48 cir1
39.3701 setlinewidth
0 0 0 setrgbcolor
0 setlinewidth
58070.9 35435.9 157.48 cir1
39.3701 setlinewidth
0 0 0 setrgbcolor
0 setlinewidth
61417.3 31695.7 157.48 cir1
39.3701 setlinewidth
0 0 0 setrgbcolor
0 setlinewidth
62204.7 32089.4 157.48 cir1
39.3701 setlinewidth
0 0 0 setrgbcolor
0 setlinewidth
62204.7 33270.6 157.48 cir1
39.3701 setlinewidth
0 0 0 setrgbcolor
0 setlinewidth
62204.7 34451.7 157.48 cir1
39.3701 setlinewidth
0 0 0 setrgbcolor
0 setlinewidth
62204.7 35632.8 157.48 cir1
39.3701 setlinewidth
0 0 0 setrgbcolor
0 setlinewidth
60629.9 36223.3 157.48 cir1
39.3701 setlinewidth
0 0 0 setrgbcolor
0 setlinewidth
61417.3 36223.3 157.48 cir1
39.3701 setlinewidth
0 0 0 setrgbcolor
0 setlinewidth
62992.1 36223.3 157.48 cir1
39.3701 setlinewidth
0 0 0 setrgbcolor
0 setlinewidth
64566.9 36223.3 157.48 cir1
39.3701 setlinewidth
0 0 0 setrgbcolor
0 setlinewidth
64566.9 37995 157.48 cir1
39.3701 setlinewidth
0 0 0 setrgbcolor
0 setlinewidth
62992.1 37995 157.48 cir1
39.3701 setlinewidth
0 0 0 setrgbcolor
0 setlinewidth
61417.3 37995 157.48 cir1
39.3701 setlinewidth
0 0 0 setrgbcolor
0 setlinewidth
59842.5 37995 157.48 cir1
39.3701 setlinewidth
0 0 0 setrgbcolor
0 setlinewidth
58267.7 37995 157.48 cir1
39.3701 setlinewidth
0 0 0 setrgbcolor
0 setlinewidth
56692.9 37995 157.48 cir1
39.3701 setlinewidth
0 0 0 setrgbcolor
0 setlinewidth
55118.1 37995 157.48 cir1
39.3701 setlinewidth
0 0 0 setrgbcolor
0 setlinewidth
53543.3 37995 157.48 cir1
39.3701 setlinewidth
0 0 0 setrgbcolor
0 setlinewidth
59055.1 34550.1 157.48 cir1
39.3701 setlinewidth
0 0 0 setrgbcolor
0 setlinewidth
58858.3 33467.4 157.48 cir1
39.3701 setlinewidth
0 0 0 setrgbcolor
0 setlinewidth
58858.3 32581.6 157.48 cir1
39.3701 setlinewidth
0 0 0 setrgbcolor
275.591 setlinewidth
newpath
57695.3 37176.9 moveto
57692.1 37180 lineto
stroke
0 0 0 setrgbcolor
98.4252 setlinewidth
newpath
57695.3 37176.9 moveto
57692.1 37180 lineto
stroke
0 0 0 setrgbcolor
275.591 setlinewidth
newpath
65039.4 37168.2 moveto
62696.9 37168.2 lineto
stroke
0 0 0 setrgbcolor
newpath
61704.7 37176.9 moveto
61707.9 37180 lineto
stroke
0 0 0 setrgbcolor
newpath
60000 33821.7 moveto
60000 32719.4 lineto
stroke
0 0 0 setrgbcolor
newpath
60000 32719.4 moveto
60000 31380.8 lineto
stroke
0 0 0 setrgbcolor
newpath
59921.3 36341.4 moveto
59921.3 35002.8 lineto
stroke
0 0 0 setrgbcolor
newpath
60050 32742.6 moveto
60137.4 32830 lineto
stroke
0 0 0 setrgbcolor
newpath
60000 34924.1 moveto
60000 33821.7 lineto
stroke
0 0 0 setrgbcolor
newpath
59921.3 35002.8 moveto
60000 34924.1 lineto
stroke
0 0 0 setrgbcolor
newpath
58070.9 35435.9 moveto
58149.6 35435.9 lineto
stroke
0 0 0 setrgbcolor
newpath
58149.6 35435.9 moveto
58700.8 35987.1 lineto
stroke
0 0 0 setrgbcolor
newpath
58267.7 36420.2 moveto
58267.7 35632.8 lineto
stroke
0 0 0 setrgbcolor
newpath
53543.3 36420.2 moveto
55118.1 36420.2 lineto
stroke
0 0 0 setrgbcolor
newpath
56692.9 36420.2 moveto
58267.7 36420.2 lineto
stroke
0 0 0 setrgbcolor
newpath
57283.5 34451.7 moveto
57283.5 33467.4 lineto
stroke
0 0 0 setrgbcolor
newpath
58267.7 35632.8 moveto
58070.9 35435.9 lineto
stroke
0 0 0 setrgbcolor
newpath
64448.8 35495 moveto
64448.8 36105.2 lineto
stroke
0 0 0 setrgbcolor
newpath
61811 31695.7 moveto
61417.3 31695.7 lineto
stroke
0 0 0 setrgbcolor
newpath
62204.7 32089.4 moveto
61811 31695.7 lineto
stroke
0 0 0 setrgbcolor
newpath
62204.7 34451.7 moveto
62204.7 33270.6 lineto
stroke
0 0 0 setrgbcolor
newpath
61220.5 35632.8 moveto
62204.7 35632.8 lineto
stroke
0 0 0 setrgbcolor
newpath
60629.9 36223.3 moveto
61220.5 35632.8 lineto
stroke
0 0 0 setrgbcolor
newpath
62992.1 36223.3 moveto
61417.3 36223.3 lineto
stroke
0 0 0 setrgbcolor
newpath
64448.8 36105.2 moveto
64566.9 36223.3 lineto
stroke
0 0 0 setrgbcolor
newpath
62992.1 37995 moveto
64566.9 37995 lineto
stroke
0 0 0 setrgbcolor
newpath
59842.5 37995 moveto
61417.3 37995 lineto
stroke
0 0 0 setrgbcolor
newpath
56692.9 37995 moveto
58267.7 37995 lineto
stroke
0 0 0 setrgbcolor
newpath
53543.3 37995 moveto
55118.1 37995 lineto
stroke
0 0 0 setrgbcolor
newpath
59000 31380.8 moveto
59000 32439.8 lineto
stroke
0 0 0 setrgbcolor
newpath
59055.1 33861.1 moveto
59055.1 34550.1 lineto
stroke
0 0 0 setrgbcolor
newpath
58858.3 33467.4 moveto
59055.1 33861.1 lineto
stroke
0 0 0 setrgbcolor
newpath
59000 32439.8 moveto
58858.3 32581.6 lineto
stroke
0 0 0 setrgbcolor
newpath
58000 31380.8 moveto
58000 34459.5 lineto
stroke
0 0 0 setrgbcolor
newpath
59232.3 35691.8 moveto
59232.3 36341.4 lineto
stroke
0 0 0 setrgbcolor
newpath
58000 34459.5 moveto
59232.3 35691.8 lineto
stroke
0 0 0 setrgbcolor
newpath
59252 36341.4 moveto
59252 35947.7 lineto
stroke
0 0 0 setrgbcolor
19.685 setlinewidth
newpath
54832.7 36941.8 moveto
52244.1 36941.8 lineto
52244.1 37394.6 lineto
54832.7 37394.6 lineto
54832.7 36941.8 lineto
poly1
0 0 0 setrgbcolor
newpath
56761.8 36941.8 moveto
55246.1 36941.8 lineto
55246.1 37394.6 lineto
56761.8 37394.6 lineto
56761.8 36941.8 lineto
poly1
0 0 0 setrgbcolor
newpath
65393.7 37394.6 moveto
62450.8 37394.6 lineto
stroke
newpath
65393.7 37374.6 moveto
62450.8 37374.6 lineto
stroke
newpath
65393.7 37354.6 moveto
62450.8 37354.6 lineto
stroke
newpath
65393.7 37334.6 moveto
62450.8 37334.6 lineto
stroke
newpath
65393.7 37314.6 moveto
62450.8 37314.6 lineto
stroke
newpath
65393.7 37294.6 moveto
62450.8 37294.6 lineto
stroke
newpath
65393.7 37274.6 moveto
62450.8 37274.6 lineto
stroke
newpath
65393.7 37254.6 moveto
62450.8 37254.6 lineto
stroke
newpath
65393.7 37234.6 moveto
62450.8 37234.6 lineto
stroke
newpath
65393.7 37214.6 moveto
62450.8 37214.6 lineto
stroke
newpath
65393.7 37194.6 moveto
62450.8 37194.6 lineto
stroke
newpath
65393.7 37174.6 moveto
62450.8 37174.6 lineto
stroke
newpath
65393.7 37154.6 moveto
62450.8 37154.6 lineto
stroke
newpath
65393.7 37134.6 moveto
62450.8 37134.6 lineto
stroke
newpath
65393.7 37114.6 moveto
62450.8 37114.6 lineto
stroke
newpath
65393.7 37094.6 moveto
62450.8 37094.6 lineto
stroke
newpath
65393.7 37074.6 moveto
62450.8 37074.6 lineto
stroke
newpath
65393.7 37054.6 moveto
62450.8 37054.6 lineto
stroke
newpath
65393.7 37034.6 moveto
62450.8 37034.6 lineto
stroke
newpath
65393.7 37014.6 moveto
62450.8 37014.6 lineto
stroke
newpath
65393.7 36994.6 moveto
62450.8 36994.6 lineto
stroke
newpath
65393.7 36974.6 moveto
62450.8 36974.6 lineto
stroke
newpath
65393.7 36954.6 moveto
62450.8 36954.6 lineto
stroke
newpath
65393.7 36941.8 moveto
62450.8 36941.8 lineto
62450.8 37394.6 lineto
65393.7 37394.6 lineto
65393.7 36941.8 lineto
poly0
0 0 0 setrgbcolor
newpath
61998 36941.8 moveto
60915.4 36941.8 lineto
60915.4 37394.6 lineto
61998 37394.6 lineto
61998 36941.8 lineto
poly1
0 0 0 setrgbcolor
newpath
65393.7 37611.1 moveto
52244.1 37611.1 lineto
52244.1 39333.5 lineto
65393.7 39333.5 lineto
65393.7 37611.1 lineto
poly1
0 0 0 setrgbcolor
newpath
58964 35947.7 moveto
58966.5 35934.4 lineto
58966.5 35801.9 lineto
57812.1 34647.4 lineto
57754.5 34561.2 lineto
57745.9 34518 lineto
57734.3 34459.5 lineto
57734.3 31825.6 lineto
57669.1 31782 lineto
57567.7 31630.2 lineto
57532 31451.1 lineto
57532 31310.4 lineto
57567.7 31131.4 lineto
57669.1 30979.6 lineto
57820.9 30878.1 lineto
58000 30842.5 lineto
58179.1 30878.1 lineto
58330.9 30979.6 lineto
58432.3 31131.4 lineto
58468 31310.4 lineto
58468 31451.1 lineto
58432.3 31630.2 lineto
58330.9 31782 lineto
58265.7 31825.6 lineto
58265.7 34349.5 lineto
59420.2 35503.9 lineto
59420.8 35504.8 lineto
59655.5 35504.8 lineto
59655.5 35408.9 lineto
59566.9 35408.9 lineto
59519.5 35400 lineto
59476 35371.9 lineto
59446.7 35329.2 lineto
59436.5 35278.4 lineto
59436.5 34648.5 lineto
59445.4 34601.1 lineto
59473.4 34557.5 lineto
59516.2 34528.3 lineto
59566.9 34518 lineto
59734.3 34518 lineto
59734.3 34306.5 lineto
59566.9 34306.5 lineto
59519.5 34297.6 lineto
59476 34269.6 lineto
59446.7 34226.8 lineto
59436.5 34176.1 lineto
59436.5 33546.1 lineto
59445.4 33498.7 lineto
59473.4 33455.2 lineto
59516.2 33426 lineto
59566.9 33415.7 lineto
59734.3 33415.7 lineto
59734.3 33164.8 lineto
59566.9 33164.8 lineto
59519.5 33155.9 lineto
59476 33127.8 lineto
59446.7 33085.1 lineto
59436.5 33034.3 lineto
59436.5 32404.4 lineto
59445.4 32357 lineto
59473.4 32313.4 lineto
59516.2 32284.2 lineto
59566.9 32274 lineto
59734.3 32274 lineto
59734.3 31911.2 lineto
59660 31911.2 lineto
59612.6 31902.3 lineto
59569 31874.3 lineto
59539.8 31831.5 lineto
59529.5 31780.8 lineto
59529.5 30980.8 lineto
59538.5 30933.4 lineto
59566.5 30889.8 lineto
59609.2 30860.6 lineto
59660 30850.3 lineto
60340 30850.3 lineto
60387.4 30859.2 lineto
60431 30887.3 lineto
60460.2 30930 lineto
60470.5 30980.8 lineto
60470.5 31780.8 lineto
60461.5 31828.2 lineto
60433.5 31871.8 lineto
60390.8 31901 lineto
60340 31911.2 lineto
60265.7 31911.2 lineto
60265.7 32274 lineto
60354.3 32274 lineto
60401.7 32282.9 lineto
60445.3 32310.9 lineto
60474.5 32353.7 lineto
60484.8 32404.4 lineto
60484.8 33034.3 lineto
60475.9 33081.7 lineto
60447.8 33125.3 lineto
60405.1 33154.5 lineto
60354.3 33164.8 lineto
60265.7 33164.8 lineto
60265.7 33415.7 lineto
60354.3 33415.7 lineto
60401.7 33424.6 lineto
60445.3 33452.6 lineto
60474.5 33495.4 lineto
60484.8 33546.1 lineto
60484.8 34176.1 lineto
60475.9 34223.5 lineto
60447.8 34267 lineto
60405.1 34296.2 lineto
60354.3 34306.5 lineto
60265.7 34306.5 lineto
60265.7 34518 lineto
60354.3 34518 lineto
60401.7 34527 lineto
60445.3 34555 lineto
60474.5 34597.7 lineto
60484.8 34648.5 lineto
60484.8 35278.4 lineto
60475.9 35325.8 lineto
60447.8 35369.4 lineto
60405.1 35398.6 lineto
60354.3 35408.9 lineto
60187 35408.9 lineto
60187 35935.3 lineto
60189.5 35947.7 lineto
60189.5 36725.3 lineto
65393.7 36725.3 lineto
65393.7 30278.4 lineto
52244.1 30278.4 lineto
52244.1 32660.3 lineto
52610.6 32660.3 lineto
52610.6 30593.4 lineto
57153.2 30593.4 lineto
57153.2 32660.3 lineto
52610.6 32660.3 lineto
52244.1 32660.3 lineto
52244.1 36725.3 lineto
58964 36725.3 lineto
58964 35947.7 lineto
poly1
0 0 0 setrgbcolor
newpath
58021.7 36941.8 moveto
57253.9 36941.8 lineto
57253.9 37394.6 lineto
58021.7 37394.6 lineto
58021.7 36941.8 lineto
poly1
showpage
grestore
%%EOF
