EESchema Schematic File Version 4
EELAYER 30 0
EELAYER END
$Descr A4 11693 8268
encoding utf-8
Sheet 1 1
Title ""
Date ""
Rev ""
Comp ""
Comment1 ""
Comment2 ""
Comment3 ""
Comment4 ""
$EndDescr
$Comp
L Connector:Conn_Coaxial J10
U 1 1 5F6DBFCC
P 4200 3950
F 0 "J10" H 4128 4188 50  0000 C CNN
F 1 "Conn_Coaxial" H 4128 4097 50  0000 C CNN
F 2 "Connector_Coaxial:SMA_Amphenol_132289_EdgeMount" H 4200 3950 50  0001 C CNN
F 3 " ~" H 4200 3950 50  0001 C CNN
	1    4200 3950
	-1   0    0    -1  
$EndComp
$Comp
L era-5sm:ERA-5SM U10
U 1 1 5F6DC39C
P 5850 3950
F 0 "U10" H 6594 4003 60  0000 L CNN
F 1 "ERA-5SM" H 6594 3897 60  0000 L CNN
F 2 "Kicad:WW107" H 5850 3950 60  0001 C CNN
F 3 "" H 5850 3950 60  0001 C CNN
	1    5850 3950
	1    0    0    -1  
$EndComp
$Comp
L Device:C C10
U 1 1 5F6DD9AE
P 4850 3950
F 0 "C10" V 4598 3950 50  0000 C CNN
F 1 "120p" V 4689 3950 50  0000 C CNN
F 2 "Capacitor_SMD:C_0603_1608Metric_Pad1.08x0.95mm_HandSolder" H 4888 3800 50  0001 C CNN
F 3 "~" H 4850 3950 50  0001 C CNN
	1    4850 3950
	0    1    1    0   
$EndComp
Wire Wire Line
	4400 3950 4700 3950
Wire Wire Line
	5000 3950 5200 3950
$Comp
L Device:C C11
U 1 1 5F6DDF15
P 7450 3950
F 0 "C11" V 7198 3950 50  0000 C CNN
F 1 "120pF" V 7289 3950 50  0000 C CNN
F 2 "Capacitor_SMD:C_0603_1608Metric_Pad1.08x0.95mm_HandSolder" H 7488 3800 50  0001 C CNN
F 3 "~" H 7450 3950 50  0001 C CNN
	1    7450 3950
	0    1    1    0   
$EndComp
$Comp
L Connector:Conn_Coaxial J11
U 1 1 5F6E1646
P 8250 3950
F 0 "J11" H 8350 3925 50  0000 L CNN
F 1 "Conn_Coaxial" H 8350 3834 50  0000 L CNN
F 2 "Connector_Coaxial:SMA_Amphenol_132289_EdgeMount" H 8250 3950 50  0001 C CNN
F 3 " ~" H 8250 3950 50  0001 C CNN
	1    8250 3950
	1    0    0    -1  
$EndComp
Wire Wire Line
	8050 3950 7600 3950
$Comp
L power:GND #PWR0101
U 1 1 5F6E20E2
P 8250 4150
F 0 "#PWR0101" H 8250 3900 50  0001 C CNN
F 1 "GND" H 8255 3977 50  0000 C CNN
F 2 "" H 8250 4150 50  0001 C CNN
F 3 "" H 8250 4150 50  0001 C CNN
	1    8250 4150
	1    0    0    -1  
$EndComp
$Comp
L power:GND #PWR0102
U 1 1 5F6E25C6
P 5850 4450
F 0 "#PWR0102" H 5850 4200 50  0001 C CNN
F 1 "GND" H 5855 4277 50  0000 C CNN
F 2 "" H 5850 4450 50  0001 C CNN
F 3 "" H 5850 4450 50  0001 C CNN
	1    5850 4450
	1    0    0    -1  
$EndComp
$Comp
L power:GND #PWR0103
U 1 1 5F6E28D1
P 4200 4150
F 0 "#PWR0103" H 4200 3900 50  0001 C CNN
F 1 "GND" H 4205 3977 50  0000 C CNN
F 2 "" H 4200 4150 50  0001 C CNN
F 3 "" H 4200 4150 50  0001 C CNN
	1    4200 4150
	1    0    0    -1  
$EndComp
$Comp
L power:GND #PWR0104
U 1 1 5F6E2BC5
P 5850 3450
F 0 "#PWR0104" H 5850 3200 50  0001 C CNN
F 1 "GND" H 5855 3277 50  0000 C CNN
F 2 "" H 5850 3450 50  0001 C CNN
F 3 "" H 5850 3450 50  0001 C CNN
	1    5850 3450
	-1   0    0    1   
$EndComp
$Comp
L Device:L L1
U 1 1 5F6E3288
P 7150 2550
F 0 "L1" H 7203 2596 50  0000 L CNN
F 1 "220nH" H 7203 2505 50  0000 L CNN
F 2 "Inductor_SMD:L_0603_1608Metric_Pad1.05x0.95mm_HandSolder" H 7150 2550 50  0001 C CNN
F 3 "~" H 7150 2550 50  0001 C CNN
	1    7150 2550
	1    0    0    -1  
$EndComp
Wire Wire Line
	6550 3950 7150 3950
Connection ~ 7150 3950
$Comp
L Device:R R1
U 1 1 5F6E800B
P 6200 1200
F 0 "R1" H 6270 1246 50  0000 L CNN
F 1 "113R" H 6270 1155 50  0000 L CNN
F 2 "Resistor_SMD:R_1206_3216Metric_Pad1.30x1.75mm_HandSolder" V 6130 1200 50  0001 C CNN
F 3 "~" H 6200 1200 50  0001 C CNN
	1    6200 1200
	0    1    1    0   
$EndComp
$Comp
L Device:CP C1
U 1 1 5F779433
P 3850 1350
F 0 "C1" H 3968 1396 50  0000 L CNN
F 1 "0.33uF" H 3968 1305 50  0000 L CNN
F 2 "Capacitor_SMD:C_1210_3225Metric_Pad1.33x2.70mm_HandSolder" H 3888 1200 50  0001 C CNN
F 3 "~" H 3850 1350 50  0001 C CNN
	1    3850 1350
	1    0    0    -1  
$EndComp
$Comp
L Device:CP C2
U 1 1 5F779B34
P 5350 1350
F 0 "C2" H 5468 1396 50  0000 L CNN
F 1 "0.1uF" H 5468 1305 50  0000 L CNN
F 2 "Capacitor_SMD:C_1206_3216Metric_Pad1.33x1.80mm_HandSolder" H 5388 1200 50  0001 C CNN
F 3 "~" H 5350 1350 50  0001 C CNN
	1    5350 1350
	1    0    0    -1  
$EndComp
$Comp
L power:GND #PWR0106
U 1 1 5F77A40C
P 3850 1500
F 0 "#PWR0106" H 3850 1250 50  0001 C CNN
F 1 "GND" H 3855 1327 50  0000 C CNN
F 2 "" H 3850 1500 50  0001 C CNN
F 3 "" H 3850 1500 50  0001 C CNN
	1    3850 1500
	1    0    0    -1  
$EndComp
Wire Wire Line
	4450 1200 3850 1200
Connection ~ 3850 1200
Wire Wire Line
	3850 1200 3550 1200
Wire Wire Line
	5050 1200 5350 1200
$Comp
L Connector_Generic:Conn_01x01 J1
U 1 1 5F77DD6D
P 3350 1200
F 0 "J1" H 3268 975 50  0000 C CNN
F 1 "Conn_01x01" H 3268 1066 50  0000 C CNN
F 2 "TestPoint:TestPoint_Pad_2.0x2.0mm" H 3350 1200 50  0001 C CNN
F 3 "~" H 3350 1200 50  0001 C CNN
	1    3350 1200
	-1   0    0    1   
$EndComp
$Comp
L Device:C C3
U 1 1 5F786927
P 7800 2300
F 0 "C3" V 8052 2300 50  0000 C CNN
F 1 "1nF" V 7961 2300 50  0000 C CNN
F 2 "Capacitor_SMD:C_0603_1608Metric_Pad1.08x0.95mm_HandSolder" H 7838 2150 50  0001 C CNN
F 3 "~" H 7800 2300 50  0001 C CNN
	1    7800 2300
	0    -1   -1   0   
$EndComp
$Comp
L Device:C C4
U 1 1 5F787F11
P 7800 2800
F 0 "C4" H 7915 2846 50  0000 L CNN
F 1 "100pF" H 7915 2755 50  0000 L CNN
F 2 "Capacitor_SMD:C_0603_1608Metric_Pad1.08x0.95mm_HandSolder" H 7838 2650 50  0001 C CNN
F 3 "~" H 7800 2800 50  0001 C CNN
	1    7800 2800
	0    -1   -1   0   
$EndComp
$Comp
L power:GND #PWR0109
U 1 1 5F78B669
P 7950 2800
F 0 "#PWR0109" H 7950 2550 50  0001 C CNN
F 1 "GND" H 7955 2627 50  0000 C CNN
F 2 "" H 7950 2800 50  0001 C CNN
F 3 "" H 7950 2800 50  0001 C CNN
	1    7950 2800
	0    -1   -1   0   
$EndComp
$Comp
L power:GND #PWR0108
U 1 1 5F78B3FC
P 7950 2300
F 0 "#PWR0108" H 7950 2050 50  0001 C CNN
F 1 "GND" H 7955 2127 50  0000 C CNN
F 2 "" H 7950 2300 50  0001 C CNN
F 3 "" H 7950 2300 50  0001 C CNN
	1    7950 2300
	0    -1   -1   0   
$EndComp
$Comp
L power:GND #PWR0107
U 1 1 5F77B1C5
P 5350 1500
F 0 "#PWR0107" H 5350 1250 50  0001 C CNN
F 1 "GND" H 5355 1327 50  0000 C CNN
F 2 "" H 5350 1500 50  0001 C CNN
F 3 "" H 5350 1500 50  0001 C CNN
	1    5350 1500
	1    0    0    -1  
$EndComp
$Comp
L power:GND #PWR0105
U 1 1 5F6EA566
P 4750 1500
F 0 "#PWR0105" H 4750 1250 50  0001 C CNN
F 1 "GND" H 4755 1327 50  0000 C CNN
F 2 "" H 4750 1500 50  0001 C CNN
F 3 "" H 4750 1500 50  0001 C CNN
	1    4750 1500
	1    0    0    -1  
$EndComp
$Comp
L Device:L L2
U 1 1 5F7A472C
P 7150 3000
F 0 "L2" H 7203 3046 50  0000 L CNN
F 1 "8.2nH" H 7203 2955 50  0000 L CNN
F 2 "Inductor_SMD:L_0603_1608Metric_Pad1.05x0.95mm_HandSolder" H 7150 3000 50  0001 C CNN
F 3 "~" H 7150 3000 50  0001 C CNN
	1    7150 3000
	1    0    0    -1  
$EndComp
$Comp
L Device:L L3
U 1 1 5F7A4B26
P 7150 3500
F 0 "L3" H 7203 3546 50  0000 L CNN
F 1 "2.2nH" H 7203 3455 50  0000 L CNN
F 2 "Inductor_SMD:L_0603_1608Metric_Pad1.05x0.95mm_HandSolder" H 7150 3500 50  0001 C CNN
F 3 "~" H 7150 3500 50  0001 C CNN
	1    7150 3500
	1    0    0    -1  
$EndComp
Wire Wire Line
	7150 3650 7150 3950
Wire Wire Line
	7150 2850 7150 2800
Wire Wire Line
	7150 3150 7150 3250
Wire Wire Line
	7150 1900 7150 2300
$Comp
L power:GND #PWR0110
U 1 1 5F78B971
P 7950 3250
F 0 "#PWR0110" H 7950 3000 50  0001 C CNN
F 1 "GND" H 7955 3077 50  0000 C CNN
F 2 "" H 7950 3250 50  0001 C CNN
F 3 "" H 7950 3250 50  0001 C CNN
	1    7950 3250
	0    -1   -1   0   
$EndComp
$Comp
L Device:C C5
U 1 1 5F7882D2
P 7800 3250
F 0 "C5" H 7915 3296 50  0000 L CNN
F 1 "10pF" H 7915 3205 50  0000 L CNN
F 2 "Capacitor_SMD:C_0603_1608Metric_Pad1.08x0.95mm_HandSolder" H 7838 3100 50  0001 C CNN
F 3 "~" H 7800 3250 50  0001 C CNN
	1    7800 3250
	0    -1   -1   0   
$EndComp
Wire Wire Line
	7150 3250 7650 3250
Connection ~ 7150 3250
Wire Wire Line
	7150 3250 7150 3350
Wire Wire Line
	7650 2300 7150 2300
Connection ~ 7150 2300
Wire Wire Line
	7150 2300 7150 2400
Wire Wire Line
	7650 2800 7150 2800
Connection ~ 7150 2800
Wire Wire Line
	7150 2800 7150 2700
Wire Wire Line
	7150 1200 6350 1200
Connection ~ 5350 1200
$Comp
L Regulator_Linear:L78L08_SO8 U1
U 1 1 5F9C23CC
P 4750 1200
F 0 "U1" H 4750 1442 50  0000 C CNN
F 1 "L78L08_SO8" H 4750 1351 50  0000 C CNN
F 2 "Package_SO:SOIC-8_3.9x4.9mm_P1.27mm" H 4850 1400 50  0001 C CIN
F 3 "http://www.st.com/content/ccc/resource/technical/document/datasheet/15/55/e5/aa/23/5b/43/fd/CD00000446.pdf/files/CD00000446.pdf/jcr:content/translations/en.CD00000446.pdf" H 4950 1200 50  0001 C CNN
	1    4750 1200
	1    0    0    -1  
$EndComp
$Comp
L Device:C C7
U 1 1 5FB6806D
P 4850 4350
F 0 "C7" V 4598 4350 50  0000 C CNN
F 1 "100n" V 4689 4350 50  0000 C CNN
F 2 "Capacitor_SMD:C_0603_1608Metric_Pad1.08x0.95mm_HandSolder" H 4888 4200 50  0001 C CNN
F 3 "~" H 4850 4350 50  0001 C CNN
	1    4850 4350
	0    1    1    0   
$EndComp
$Comp
L Device:C C8
U 1 1 5FB68B00
P 7450 4350
F 0 "C8" V 7198 4350 50  0000 C CNN
F 1 "100n" V 7289 4350 50  0000 C CNN
F 2 "Capacitor_SMD:C_0603_1608Metric_Pad1.08x0.95mm_HandSolder" H 7488 4200 50  0001 C CNN
F 3 "~" H 7450 4350 50  0001 C CNN
	1    7450 4350
	0    1    1    0   
$EndComp
Wire Wire Line
	7300 3950 7300 4350
Connection ~ 7300 3950
Wire Wire Line
	7600 4350 7600 3950
Connection ~ 7600 3950
Wire Wire Line
	5000 4350 5000 3950
Wire Wire Line
	7250 3950 7300 3950
Wire Wire Line
	7150 3950 7300 3950
Connection ~ 5000 3950
Wire Wire Line
	4700 4350 4700 3950
Connection ~ 4700 3950
Wire Wire Line
	6050 1200 5350 1200
$Comp
L Device:L_Core_Ferrite L4
U 1 1 5FB78473
P 7150 1750
F 0 "L4" H 7238 1796 50  0000 L CNN
F 1 "L_Core_Ferrite" H 7238 1705 50  0000 L CNN
F 2 "Inductor_SMD:L_2816_7142Metric_Pad3.20x4.45mm_HandSolder" H 7150 1750 50  0001 C CNN
F 3 "~" H 7150 1750 50  0001 C CNN
	1    7150 1750
	1    0    0    -1  
$EndComp
Wire Wire Line
	7150 1200 7150 1600
$Comp
L Device:C C6
U 1 1 5FB84747
P 7800 1200
F 0 "C6" V 8052 1200 50  0000 C CNN
F 1 "100nF" V 7961 1200 50  0000 C CNN
F 2 "Capacitor_SMD:C_0603_1608Metric_Pad1.08x0.95mm_HandSolder" H 7838 1050 50  0001 C CNN
F 3 "~" H 7800 1200 50  0001 C CNN
	1    7800 1200
	0    -1   -1   0   
$EndComp
$Comp
L power:GND #PWR0111
U 1 1 5FB84947
P 7950 1200
F 0 "#PWR0111" H 7950 950 50  0001 C CNN
F 1 "GND" H 7955 1027 50  0000 C CNN
F 2 "" H 7950 1200 50  0001 C CNN
F 3 "" H 7950 1200 50  0001 C CNN
	1    7950 1200
	0    -1   -1   0   
$EndComp
Wire Wire Line
	7650 1200 7150 1200
Connection ~ 7150 1200
$EndSCHEMATC
