EESchema Schematic File Version 2
LIBS:power
LIBS:device
LIBS:transistors
LIBS:conn
LIBS:linear
LIBS:regul
LIBS:74xx
LIBS:cmos4000
LIBS:adc-dac
LIBS:memory
LIBS:xilinx
LIBS:special
LIBS:microcontrollers
LIBS:dsp
LIBS:microchip
LIBS:analog_switches
LIBS:motorola
LIBS:texas
LIBS:intel
LIBS:audio
LIBS:interface
LIBS:digital-audio
LIBS:philips
LIBS:display
LIBS:cypress
LIBS:siliconi
LIBS:opto
LIBS:atmel
LIBS:contrib
LIBS:valves
LIBS:adl5611
LIBS:sma
LIBS:LNA_ADL5611-cache
EELAYER 25 0
EELAYER END
$Descr A4 11693 8268
encoding utf-8
Sheet 1 1
Title ""
Date ""
Rev ""
Comp ""
Comment1 ""
Comment2 ""
Comment3 ""
Comment4 ""
$EndDescr
$Comp
L ADL5611 U1
U 1 1 56547223
P 5300 2700
F 0 "U1" H 5150 2950 60  0000 C CNN
F 1 "ADL5611" H 5300 2800 60  0000 C CNN
F 2 "Housings_SOT-89:SOT89-3_Housing_Handsoldering" H 5300 2700 60  0001 C CNN
F 3 "" H 5300 2700 60  0000 C CNN
	1    5300 2700
	1    0    0    -1  
$EndComp
$Comp
L C C3
U 1 1 56547296
P 6650 1350
F 0 "C3" H 6675 1450 50  0000 L CNN
F 1 "22uF" H 6675 1250 50  0000 L CNN
F 2 "Capacitors_SMD:C_0603_HandSoldering" H 6688 1200 30  0001 C CNN
F 3 "" H 6650 1350 60  0000 C CNN
	1    6650 1350
	0    1    1    0   
$EndComp
$Comp
L C C1
U 1 1 56547323
P 4300 2700
F 0 "C1" H 4325 2800 50  0000 L CNN
F 1 "100nF" H 4325 2600 50  0000 L CNN
F 2 "Capacitors_SMD:C_0603_HandSoldering" H 4338 2550 30  0001 C CNN
F 3 "" H 4300 2700 60  0000 C CNN
	1    4300 2700
	0    1    1    0   
$EndComp
$Comp
L C C2
U 1 1 56547337
P 6450 2700
F 0 "C2" H 6475 2800 50  0000 L CNN
F 1 "100nF" H 6475 2600 50  0000 L CNN
F 2 "Capacitors_SMD:C_0603_HandSoldering" H 6488 2550 30  0001 C CNN
F 3 "" H 6450 2700 60  0000 C CNN
	1    6450 2700
	0    1    1    0   
$EndComp
$Comp
L C C4
U 1 1 5654746B
P 6650 1600
F 0 "C4" H 6675 1700 50  0000 L CNN
F 1 "1.2nF" H 6675 1500 50  0000 L CNN
F 2 "Capacitors_SMD:C_0603_HandSoldering" H 6688 1450 30  0001 C CNN
F 3 "" H 6650 1600 60  0000 C CNN
	1    6650 1600
	0    1    1    0   
$EndComp
$Comp
L C C5
U 1 1 56547497
P 6650 1850
F 0 "C5" H 6675 1950 50  0000 L CNN
F 1 "68pF" H 6675 1750 50  0000 L CNN
F 2 "Capacitors_SMD:C_0603_HandSoldering" H 6688 1700 30  0001 C CNN
F 3 "" H 6650 1850 60  0000 C CNN
	1    6650 1850
	0    1    1    0   
$EndComp
$Comp
L INDUCTOR_SMALL L1
U 1 1 56547523
P 6150 2300
F 0 "L1" H 6150 2400 50  0000 C CNN
F 1 "43nH" H 6150 2250 50  0000 C CNN
F 2 "Inductors_NEOSID:Neosid_Inductor_SMs42" H 6150 2300 60  0001 C CNN
F 3 "" H 6150 2300 60  0000 C CNN
	1    6150 2300
	0    1    1    0   
$EndComp
Wire Wire Line
	4450 2700 4850 2700
Wire Wire Line
	5950 2700 6300 2700
Wire Wire Line
	6150 2550 6150 2700
Connection ~ 6150 2700
Wire Wire Line
	6150 2050 6150 1150
Wire Wire Line
	6500 1350 6150 1350
Connection ~ 6150 1350
Wire Wire Line
	6500 1600 6150 1600
Connection ~ 6150 1600
Wire Wire Line
	6500 1850 6150 1850
Connection ~ 6150 1850
$Comp
L CONN_01X02 P1
U 1 1 5654770C
P 6100 950
F 0 "P1" H 6100 1100 50  0000 C CNN
F 1 "CONN_01X02" V 6200 950 50  0000 C CNN
F 2 "Socket_Strips:Socket_Strip_Straight_1x02" H 6100 950 60  0001 C CNN
F 3 "" H 6100 950 60  0000 C CNN
	1    6100 950 
	0    1    -1   0   
$EndComp
$Comp
L GND #PWR01
U 1 1 565477F6
P 5300 3250
F 0 "#PWR01" H 5300 3000 50  0001 C CNN
F 1 "GND" H 5300 3100 50  0000 C CNN
F 2 "" H 5300 3250 60  0000 C CNN
F 3 "" H 5300 3250 60  0000 C CNN
	1    5300 3250
	1    0    0    -1  
$EndComp
$Comp
L GND #PWR02
U 1 1 5654782A
P 6800 2050
F 0 "#PWR02" H 6800 1800 50  0001 C CNN
F 1 "GND" H 6800 1900 50  0000 C CNN
F 2 "" H 6800 2050 60  0000 C CNN
F 3 "" H 6800 2050 60  0000 C CNN
	1    6800 2050
	1    0    0    -1  
$EndComp
$Comp
L GND #PWR03
U 1 1 56547846
P 6000 1250
F 0 "#PWR03" H 6000 1000 50  0001 C CNN
F 1 "GND" H 6000 1100 50  0000 C CNN
F 2 "" H 6000 1250 60  0000 C CNN
F 3 "" H 6000 1250 60  0000 C CNN
	1    6000 1250
	1    0    0    -1  
$EndComp
Wire Wire Line
	6050 1150 6050 1250
Wire Wire Line
	6050 1250 6000 1250
Wire Wire Line
	6800 1350 6800 2050
Connection ~ 6800 1600
Connection ~ 6800 1850
Wire Wire Line
	5300 3250 5300 3150
$Comp
L SMA J1
U 1 1 56547971
P 3850 3000
F 0 "J1" H 3975 3315 60  0000 C CNN
F 1 "SMA" H 4040 3240 60  0000 C CNN
F 2 "modules:SMA" H 4025 3170 50  0000 C CNN
F 3 "" H 3850 3000 60  0000 C CNN
	1    3850 3000
	-1   0    0    -1  
$EndComp
$Comp
L SMA J2
U 1 1 56547A00
P 6900 3000
F 0 "J2" H 7025 3315 60  0000 C CNN
F 1 "SMA" H 7090 3240 60  0000 C CNN
F 2 "modules:SMA" H 7075 3170 50  0000 C CNN
F 3 "" H 6900 3000 60  0000 C CNN
	1    6900 3000
	1    0    0    -1  
$EndComp
Wire Wire Line
	6750 2700 6600 2700
Wire Wire Line
	4000 2700 4150 2700
Wire Wire Line
	3800 2900 3950 2900
Connection ~ 3850 2900
Connection ~ 3900 2900
$Comp
L GND #PWR04
U 1 1 56547C36
P 3950 2950
F 0 "#PWR04" H 3950 2700 50  0001 C CNN
F 1 "GND" H 3950 2800 50  0000 C CNN
F 2 "" H 3950 2950 60  0000 C CNN
F 3 "" H 3950 2950 60  0000 C CNN
	1    3950 2950
	1    0    0    -1  
$EndComp
Wire Wire Line
	3950 2900 3950 2950
$Comp
L GND #PWR05
U 1 1 56547C77
P 6950 3000
F 0 "#PWR05" H 6950 2750 50  0001 C CNN
F 1 "GND" H 6950 2850 50  0000 C CNN
F 2 "" H 6950 3000 60  0000 C CNN
F 3 "" H 6950 3000 60  0000 C CNN
	1    6950 3000
	1    0    0    -1  
$EndComp
Wire Wire Line
	6800 2900 6950 2900
Connection ~ 6850 2900
Connection ~ 6900 2900
Wire Wire Line
	6950 2900 6950 3000
$Comp
L AP1117Y50 U2
U 1 1 56557B0C
P 4650 1550
F 0 "U2" H 4750 1300 50  0000 C CNN
F 1 "AP1117Y50" H 4650 1800 50  0000 C CNN
F 2 "Housings_SOT-89:SOT89-3_Housing_Handsoldering" H 4650 1550 60  0001 C CNN
F 3 "" H 4650 1550 60  0000 C CNN
	1    4650 1550
	1    0    0    -1  
$EndComp
$Comp
L CONN_01X02 P2
U 1 1 56557CE7
P 3850 1600
F 0 "P2" H 3850 1750 50  0000 C CNN
F 1 "CONN_01X02" V 3950 1600 50  0000 C CNN
F 2 "Socket_Strips:Socket_Strip_Straight_1x02" H 3850 1600 60  0001 C CNN
F 3 "" H 3850 1600 60  0000 C CNN
	1    3850 1600
	-1   0    0    -1  
$EndComp
Wire Wire Line
	4050 1550 4350 1550
$Comp
L GND #PWR06
U 1 1 56557DE0
P 4200 2100
F 0 "#PWR06" H 4200 1850 50  0001 C CNN
F 1 "GND" H 4200 1950 50  0000 C CNN
F 2 "" H 4200 2100 60  0000 C CNN
F 3 "" H 4200 2100 60  0000 C CNN
	1    4200 2100
	1    0    0    -1  
$EndComp
Wire Wire Line
	4950 1550 6150 1550
Connection ~ 6150 1550
$Comp
L C C6
U 1 1 56558079
P 4200 1750
F 0 "C6" H 4225 1850 50  0000 L CNN
F 1 "10uF" H 4225 1650 50  0000 L CNN
F 2 "Capacitors_SMD:C_0603_HandSoldering" H 4238 1600 30  0001 C CNN
F 3 "" H 4200 1750 60  0000 C CNN
	1    4200 1750
	1    0    0    -1  
$EndComp
Wire Wire Line
	4050 1650 4050 1900
Wire Wire Line
	4200 1600 4200 1550
Connection ~ 4200 1550
Wire Wire Line
	4050 1900 4650 1900
Wire Wire Line
	4650 1900 4650 1850
Wire Wire Line
	4200 1900 4200 2100
Connection ~ 4200 1900
$EndSCHEMATC
