EESchema Schematic File Version 2
LIBS:power
LIBS:device
LIBS:switches
LIBS:relays
LIBS:motors
LIBS:transistors
LIBS:conn
LIBS:linear
LIBS:regul
LIBS:74xx
LIBS:cmos4000
LIBS:adc-dac
LIBS:memory
LIBS:xilinx
LIBS:microcontrollers
LIBS:dsp
LIBS:microchip
LIBS:analog_switches
LIBS:motorola
LIBS:texas
LIBS:intel
LIBS:audio
LIBS:interface
LIBS:digital-audio
LIBS:philips
LIBS:display
LIBS:cypress
LIBS:siliconi
LIBS:opto
LIBS:atmel
LIBS:contrib
LIBS:valves
LIBS:max2671eut-t
LIBS:max2680eut-t
LIBS:sma
LIBS:Mixer_max2671-max2680-cache
EELAYER 25 0
EELAYER END
$Descr A4 11693 8268
encoding utf-8
Sheet 1 1
Title ""
Date ""
Rev ""
Comp ""
Comment1 ""
Comment2 ""
Comment3 ""
Comment4 ""
$EndDescr
$Comp
L MAX2671EUT-T U1
U 1 1 5A328378
P 5250 2150
F 0 "U1" H 5250 2150 60  0000 C CNN
F 1 "MAX2671EUT-T" H 5250 2250 60  0000 C CNN
F 2 "TO_SOT_Packages_SMD:SOT-23-6_Handsoldering" H 5250 2150 60  0001 C CNN
F 3 "" H 5250 2150 60  0001 C CNN
	1    5250 2150
	1    0    0    -1  
$EndComp
$Comp
L MAX2680EUT-T U2
U 1 1 5A3283AB
P 5250 4600
F 0 "U2" H 5250 4600 60  0000 C CNN
F 1 "MAX2680EUT-T" H 5250 4700 60  0000 C CNN
F 2 "TO_SOT_Packages_SMD:SOT-23-6_Handsoldering" H 5250 4600 60  0001 C CNN
F 3 "" H 5250 4600 60  0001 C CNN
	1    5250 4600
	1    0    0    -1  
$EndComp
$Comp
L C C21
U 1 1 5A328481
P 5250 5250
F 0 "C21" H 5275 5350 50  0000 L CNN
F 1 "220p" H 5275 5150 50  0000 L CNN
F 2 "Capacitors_SMD:C_0603_HandSoldering" H 5288 5100 50  0001 C CNN
F 3 "" H 5250 5250 50  0001 C CNN
	1    5250 5250
	1    0    0    -1  
$EndComp
$Comp
L C C11
U 1 1 5A32850D
P 5250 2800
F 0 "C11" H 5275 2900 50  0000 L CNN
F 1 "220p" H 5275 2700 50  0000 L CNN
F 2 "Capacitors_SMD:C_0603_HandSoldering" H 5288 2650 50  0001 C CNN
F 3 "" H 5250 2800 50  0001 C CNN
	1    5250 2800
	1    0    0    -1  
$EndComp
$Comp
L C C23
U 1 1 5A32857B
P 4400 4400
F 0 "C23" H 4425 4500 50  0000 L CNN
F 1 "100p" H 4425 4300 50  0000 L CNN
F 2 "Capacitors_SMD:C_0603_HandSoldering" H 4438 4250 50  0001 C CNN
F 3 "" H 4400 4400 50  0001 C CNN
	1    4400 4400
	1    0    0    -1  
$EndComp
$Comp
L R R22
U 1 1 5A3285CE
P 4100 4250
F 0 "R22" V 4180 4250 50  0000 C CNN
F 1 "100R" V 4100 4250 50  0000 C CNN
F 2 "Resistors_SMD:R_1206_HandSoldering" V 4030 4250 50  0001 C CNN
F 3 "" H 4100 4250 50  0001 C CNN
	1    4100 4250
	0    1    1    0   
$EndComp
$Comp
L C C18
U 1 1 5A328725
P 4200 1950
F 0 "C18" H 4225 2050 50  0000 L CNN
F 1 "100p" H 4225 1850 50  0000 L CNN
F 2 "Capacitors_SMD:C_0603_HandSoldering" H 4238 1800 50  0001 C CNN
F 3 "" H 4200 1950 50  0001 C CNN
	1    4200 1950
	1    0    0    -1  
$EndComp
$Comp
L R R11
U 1 1 5A328794
P 3700 1800
F 0 "R11" V 3780 1800 50  0000 C CNN
F 1 "100R" V 3700 1800 50  0000 C CNN
F 2 "Resistors_SMD:R_1206_HandSoldering" V 3630 1800 50  0001 C CNN
F 3 "" H 3700 1800 50  0001 C CNN
	1    3700 1800
	0    1    1    0   
$EndComp
$Comp
L GND #PWR01
U 1 1 5A328BBC
P 5900 4200
F 0 "#PWR01" H 5900 3950 50  0001 C CNN
F 1 "GND" H 5900 4050 50  0000 C CNN
F 2 "" H 5900 4200 50  0001 C CNN
F 3 "" H 5900 4200 50  0001 C CNN
	1    5900 4200
	1    0    0    -1  
$EndComp
$Comp
L GND #PWR02
U 1 1 5A328BE6
P 4400 4550
F 0 "#PWR02" H 4400 4300 50  0001 C CNN
F 1 "GND" H 4400 4400 50  0000 C CNN
F 2 "" H 4400 4550 50  0001 C CNN
F 3 "" H 4400 4550 50  0001 C CNN
	1    4400 4550
	1    0    0    -1  
$EndComp
$Comp
L GND #PWR03
U 1 1 5A328C09
P 4200 2100
F 0 "#PWR03" H 4200 1850 50  0001 C CNN
F 1 "GND" H 4200 1950 50  0000 C CNN
F 2 "" H 4200 2100 50  0001 C CNN
F 3 "" H 4200 2100 50  0001 C CNN
	1    4200 2100
	1    0    0    -1  
$EndComp
$Comp
L GND #PWR04
U 1 1 5A328C2C
P 5900 1750
F 0 "#PWR04" H 5900 1500 50  0001 C CNN
F 1 "GND" H 5900 1600 50  0000 C CNN
F 2 "" H 5900 1750 50  0001 C CNN
F 3 "" H 5900 1750 50  0001 C CNN
	1    5900 1750
	1    0    0    -1  
$EndComp
$Comp
L C C12
U 1 1 5A328D69
P 3250 2300
F 0 "C12" H 3275 2400 50  0000 L CNN
F 1 "220p" H 3275 2200 50  0000 L CNN
F 2 "Capacitors_SMD:C_0603_HandSoldering" H 3288 2150 50  0001 C CNN
F 3 "" H 3250 2300 50  0001 C CNN
	1    3250 2300
	0    -1   -1   0   
$EndComp
$Comp
L L L11
U 1 1 5A328F15
P 6100 2300
F 0 "L11" V 6050 2300 50  0000 C CNN
F 1 "3.3nH" V 6175 2300 50  0000 C CNN
F 2 "Inductors_SMD:L_0603_HandSoldering" H 6100 2300 50  0001 C CNN
F 3 "" H 6100 2300 50  0001 C CNN
	1    6100 2300
	0    -1   -1   0   
$EndComp
$Comp
L L L12
U 1 1 5A328FE7
P 6500 2150
F 0 "L12" H 6450 2150 50  0000 C CNN
F 1 "1.8nH" V 6575 2150 50  0000 C CNN
F 2 "Inductors_SMD:L_0603_HandSoldering" H 6500 2150 50  0001 C CNN
F 3 "" H 6500 2150 50  0001 C CNN
	1    6500 2150
	-1   0    0    1   
$EndComp
$Comp
L C C16
U 1 1 5A329053
P 6800 1700
F 0 "C16" H 6825 1800 50  0000 L CNN
F 1 "47p" H 6825 1600 50  0000 L CNN
F 2 "Capacitors_SMD:C_0603_HandSoldering" H 6838 1550 50  0001 C CNN
F 3 "" H 6800 1700 50  0001 C CNN
	1    6800 1700
	1    0    0    -1  
$EndComp
$Comp
L C C19
U 1 1 5A3290D5
P 7250 1700
F 0 "C19" H 7275 1800 50  0000 L CNN
F 1 "10u" H 7275 1600 50  0000 L CNN
F 2 "Capacitors_SMD:C_1210_HandSoldering" H 7288 1550 50  0001 C CNN
F 3 "" H 7250 1700 50  0001 C CNN
	1    7250 1700
	1    0    0    -1  
$EndComp
$Comp
L C C15
U 1 1 5A32911A
P 7750 2550
F 0 "C15" H 7775 2650 50  0000 L CNN
F 1 "open" H 7775 2450 50  0000 L CNN
F 2 "Capacitors_SMD:C_0603_HandSoldering" H 7788 2400 50  0001 C CNN
F 3 "" H 7750 2550 50  0001 C CNN
	1    7750 2550
	1    0    0    -1  
$EndComp
$Comp
L C C14
U 1 1 5A32917A
P 7150 2300
F 0 "C14" H 7175 2400 50  0000 L CNN
F 1 "220p" H 7175 2200 50  0000 L CNN
F 2 "Capacitors_SMD:C_0603_HandSoldering" H 7188 2150 50  0001 C CNN
F 3 "" H 7150 2300 50  0001 C CNN
	1    7150 2300
	0    1    1    0   
$EndComp
Wire Wire Line
	3850 1800 4700 1800
Connection ~ 4200 1800
Wire Wire Line
	4700 1700 3400 1700
Wire Wire Line
	3400 1550 3400 1800
Wire Wire Line
	3400 1800 3550 1800
Connection ~ 3400 1700
Wire Wire Line
	4250 4250 4700 4250
Connection ~ 4400 4250
Wire Wire Line
	3500 4250 3950 4250
Wire Wire Line
	3500 4000 3500 4250
Wire Wire Line
	4700 4150 3500 4150
Connection ~ 3500 4150
Wire Wire Line
	5800 1750 5900 1750
Wire Wire Line
	5800 4200 5900 4200
Wire Wire Line
	4700 2300 3400 2300
Wire Wire Line
	5800 2300 5950 2300
Wire Wire Line
	6250 2300 7000 2300
Connection ~ 6500 2300
Wire Wire Line
	7300 2300 8500 2300
Wire Wire Line
	7750 2400 7750 2300
Connection ~ 7750 2300
Wire Wire Line
	6500 2000 6500 1550
Wire Wire Line
	6250 1550 7250 1550
Connection ~ 6800 1550
$Comp
L GND #PWR05
U 1 1 5A3297AA
P 6800 1850
F 0 "#PWR05" H 6800 1600 50  0001 C CNN
F 1 "GND" H 6800 1700 50  0000 C CNN
F 2 "" H 6800 1850 50  0001 C CNN
F 3 "" H 6800 1850 50  0001 C CNN
	1    6800 1850
	1    0    0    -1  
$EndComp
$Comp
L GND #PWR06
U 1 1 5A3297E2
P 7250 1850
F 0 "#PWR06" H 7250 1600 50  0001 C CNN
F 1 "GND" H 7250 1700 50  0000 C CNN
F 2 "" H 7250 1850 50  0001 C CNN
F 3 "" H 7250 1850 50  0001 C CNN
	1    7250 1850
	1    0    0    -1  
$EndComp
$Comp
L GND #PWR07
U 1 1 5A32981A
P 7750 2700
F 0 "#PWR07" H 7750 2450 50  0001 C CNN
F 1 "GND" H 7750 2550 50  0000 C CNN
F 2 "" H 7750 2700 50  0001 C CNN
F 3 "" H 7750 2700 50  0001 C CNN
	1    7750 2700
	1    0    0    -1  
$EndComp
$Comp
L C C13
U 1 1 5A3298F3
P 6250 1700
F 0 "C13" H 6275 1800 50  0000 L CNN
F 1 "47p" H 6275 1600 50  0000 L CNN
F 2 "Capacitors_SMD:C_0603_HandSoldering" H 6288 1550 50  0001 C CNN
F 3 "" H 6250 1700 50  0001 C CNN
	1    6250 1700
	1    0    0    -1  
$EndComp
$Comp
L GND #PWR08
U 1 1 5A32994D
P 6250 1850
F 0 "#PWR08" H 6250 1600 50  0001 C CNN
F 1 "GND" H 6250 1700 50  0000 C CNN
F 2 "" H 6250 1850 50  0001 C CNN
F 3 "" H 6250 1850 50  0001 C CNN
	1    6250 1850
	1    0    0    -1  
$EndComp
Connection ~ 6500 1550
Wire Wire Line
	4700 4750 3300 4750
$Comp
L L Z23
U 1 1 5A32A1BD
P 2800 4900
F 0 "Z23" V 2750 4900 50  0000 C CNN
F 1 "1.8nH" V 2875 4900 50  0000 C CNN
F 2 "Inductors_SMD:L_0603_HandSoldering" H 2800 4900 50  0001 C CNN
F 3 "" H 2800 4900 50  0001 C CNN
	1    2800 4900
	1    0    0    -1  
$EndComp
$Comp
L C Z22
U 1 1 5A32A21A
P 3150 4750
F 0 "Z22" H 3175 4850 50  0000 L CNN
F 1 "270p" H 3175 4650 50  0000 L CNN
F 2 "Capacitors_SMD:C_0603_HandSoldering" H 3188 4600 50  0001 C CNN
F 3 "" H 3150 4750 50  0001 C CNN
	1    3150 4750
	0    1    1    0   
$EndComp
Wire Wire Line
	2200 4750 3000 4750
Connection ~ 2800 4750
$Comp
L GND #PWR09
U 1 1 5A32A32A
P 2800 5050
F 0 "#PWR09" H 2800 4800 50  0001 C CNN
F 1 "GND" H 2800 4900 50  0000 C CNN
F 2 "" H 2800 5050 50  0001 C CNN
F 3 "" H 2800 5050 50  0001 C CNN
	1    2800 5050
	1    0    0    -1  
$EndComp
$Comp
L L L21
U 1 1 5A32A61F
P 6050 4600
F 0 "L21" V 6000 4600 50  0000 C CNN
F 1 "390nH" V 6125 4600 50  0000 C CNN
F 2 "Inductors_SMD:L_0603_HandSoldering" H 6050 4600 50  0001 C CNN
F 3 "" H 6050 4600 50  0001 C CNN
	1    6050 4600
	1    0    0    -1  
$EndComp
$Comp
L R R21
U 1 1 5A32A6BE
P 6400 4600
F 0 "R21" V 6480 4600 50  0000 C CNN
F 1 "250R" V 6400 4600 50  0000 C CNN
F 2 "Resistors_SMD:R_0805_HandSoldering" V 6330 4600 50  0001 C CNN
F 3 "" H 6400 4600 50  0001 C CNN
	1    6400 4600
	-1   0    0    1   
$EndComp
$Comp
L C C22
U 1 1 5A32A774
P 6750 5050
F 0 "C22" H 6775 5150 50  0000 L CNN
F 1 "39p" H 6775 4950 50  0000 L CNN
F 2 "Capacitors_SMD:C_0603_HandSoldering" H 6788 4900 50  0001 C CNN
F 3 "" H 6750 5050 50  0001 C CNN
	1    6750 5050
	0    1    1    0   
$EndComp
$Comp
L C C1
U 1 1 5A32A841
P 6950 4400
F 0 "C1" H 6975 4500 50  0000 L CNN
F 1 "1000p" H 6975 4300 50  0000 L CNN
F 2 "Capacitors_SMD:C_0603_HandSoldering" H 6988 4250 50  0001 C CNN
F 3 "" H 6950 4400 50  0001 C CNN
	1    6950 4400
	1    0    0    -1  
$EndComp
$Comp
L C C2
U 1 1 5A32A8C9
P 7400 4400
F 0 "C2" H 7425 4500 50  0000 L CNN
F 1 "10u" H 7425 4300 50  0000 L CNN
F 2 "Capacitors_SMD:C_1206_HandSoldering" H 7438 4250 50  0001 C CNN
F 3 "" H 7400 4400 50  0001 C CNN
	1    7400 4400
	1    0    0    -1  
$EndComp
$Comp
L GND #PWR010
U 1 1 5A32A95E
P 6950 4550
F 0 "#PWR010" H 6950 4300 50  0001 C CNN
F 1 "GND" H 6950 4400 50  0000 C CNN
F 2 "" H 6950 4550 50  0001 C CNN
F 3 "" H 6950 4550 50  0001 C CNN
	1    6950 4550
	1    0    0    -1  
$EndComp
$Comp
L GND #PWR011
U 1 1 5A32A9AE
P 7400 4550
F 0 "#PWR011" H 7400 4300 50  0001 C CNN
F 1 "GND" H 7400 4400 50  0000 C CNN
F 2 "" H 7400 4550 50  0001 C CNN
F 3 "" H 7400 4550 50  0001 C CNN
	1    7400 4550
	1    0    0    -1  
$EndComp
Wire Wire Line
	5800 4750 6400 4750
Connection ~ 6050 4750
Wire Wire Line
	6050 4250 7400 4250
Connection ~ 6950 4250
Wire Wire Line
	6600 5050 6400 5050
Wire Wire Line
	6050 4450 6050 4250
Connection ~ 6400 4250
Wire Wire Line
	6400 4450 6400 4250
Wire Wire Line
	6400 5050 6400 4750
$Comp
L SMA IFout1
U 1 1 5A32B3FF
P 7250 5350
F 0 "IFout1" H 7375 5665 60  0000 C CNN
F 1 "SMA" H 7440 5590 60  0000 C CNN
F 2 "sma_connectors:SMA" H 7425 5520 50  0000 C CNN
F 3 "" H 7250 5350 60  0001 C CNN
	1    7250 5350
	1    0    0    -1  
$EndComp
$Comp
L SMA LO_down1
U 1 1 5A32B4F0
P 4750 5800
F 0 "LO_down1" H 4875 6115 60  0000 C CNN
F 1 "SMA" H 4940 6040 60  0000 C CNN
F 2 "sma_connectors:SMA" H 4925 5970 50  0000 C CNN
F 3 "" H 4750 5800 60  0001 C CNN
	1    4750 5800
	-1   0    0    -1  
$EndComp
$Comp
L SMA RFin1
U 1 1 5A32B5B7
P 2050 5050
F 0 "RFin1" H 2175 5365 60  0000 C CNN
F 1 "SMA" H 2240 5290 60  0000 C CNN
F 2 "sma_connectors:SMA" H 2225 5220 50  0000 C CNN
F 3 "" H 2050 5050 60  0001 C CNN
	1    2050 5050
	-1   0    0    -1  
$EndComp
$Comp
L SMA RFout1
U 1 1 5A32B7F4
P 8650 2600
F 0 "RFout1" H 8775 2915 60  0000 C CNN
F 1 "SMA" H 8840 2840 60  0000 C CNN
F 2 "sma_connectors:SMA" H 8825 2770 50  0000 C CNN
F 3 "" H 8650 2600 60  0001 C CNN
	1    8650 2600
	1    0    0    -1  
$EndComp
$Comp
L SMA LO_up1
U 1 1 5A32B8A1
P 4350 3250
F 0 "LO_up1" H 4475 3565 60  0000 C CNN
F 1 "SMA" H 4540 3490 60  0000 C CNN
F 2 "sma_connectors:SMA" H 4525 3420 50  0000 C CNN
F 3 "" H 4350 3250 60  0001 C CNN
	1    4350 3250
	-1   0    0    -1  
$EndComp
$Comp
L SMA IFin1
U 1 1 5A32B9E3
P 2700 2600
F 0 "IFin1" H 2825 2915 60  0000 C CNN
F 1 "SMA" H 2890 2840 60  0000 C CNN
F 2 "sma_connectors:SMA" H 2875 2770 50  0000 C CNN
F 3 "" H 2700 2600 60  0001 C CNN
	1    2700 2600
	-1   0    0    -1  
$EndComp
Wire Wire Line
	2850 2300 3100 2300
Wire Wire Line
	4500 2950 5250 2950
Wire Wire Line
	6900 5050 7100 5050
Wire Wire Line
	4900 5500 5250 5500
Wire Wire Line
	5250 5500 5250 5400
Wire Wire Line
	2000 4950 2150 4950
Connection ~ 2050 4950
Connection ~ 2100 4950
Wire Wire Line
	4700 5700 4850 5700
Connection ~ 4750 5700
Connection ~ 4800 5700
Wire Wire Line
	7150 5250 7300 5250
Connection ~ 7200 5250
Connection ~ 7250 5250
Wire Wire Line
	8550 2500 8700 2500
Connection ~ 8600 2500
Connection ~ 8650 2500
Wire Wire Line
	2650 2500 2800 2500
Connection ~ 2700 2500
Connection ~ 2750 2500
Wire Wire Line
	4300 3150 4450 3150
Connection ~ 4350 3150
Connection ~ 4400 3150
$Comp
L GND #PWR012
U 1 1 5A32C3F2
P 2150 4950
F 0 "#PWR012" H 2150 4700 50  0001 C CNN
F 1 "GND" H 2150 4800 50  0000 C CNN
F 2 "" H 2150 4950 50  0001 C CNN
F 3 "" H 2150 4950 50  0001 C CNN
	1    2150 4950
	1    0    0    -1  
$EndComp
$Comp
L GND #PWR013
U 1 1 5A32C454
P 4850 5700
F 0 "#PWR013" H 4850 5450 50  0001 C CNN
F 1 "GND" H 4850 5550 50  0000 C CNN
F 2 "" H 4850 5700 50  0001 C CNN
F 3 "" H 4850 5700 50  0001 C CNN
	1    4850 5700
	1    0    0    -1  
$EndComp
$Comp
L GND #PWR014
U 1 1 5A32C4B6
P 7300 5250
F 0 "#PWR014" H 7300 5000 50  0001 C CNN
F 1 "GND" H 7300 5100 50  0000 C CNN
F 2 "" H 7300 5250 50  0001 C CNN
F 3 "" H 7300 5250 50  0001 C CNN
	1    7300 5250
	1    0    0    -1  
$EndComp
$Comp
L GND #PWR015
U 1 1 5A32C518
P 8700 2500
F 0 "#PWR015" H 8700 2250 50  0001 C CNN
F 1 "GND" H 8700 2350 50  0000 C CNN
F 2 "" H 8700 2500 50  0001 C CNN
F 3 "" H 8700 2500 50  0001 C CNN
	1    8700 2500
	1    0    0    -1  
$EndComp
$Comp
L GND #PWR016
U 1 1 5A32C57A
P 4450 3150
F 0 "#PWR016" H 4450 2900 50  0001 C CNN
F 1 "GND" H 4450 3000 50  0000 C CNN
F 2 "" H 4450 3150 50  0001 C CNN
F 3 "" H 4450 3150 50  0001 C CNN
	1    4450 3150
	1    0    0    -1  
$EndComp
$Comp
L GND #PWR017
U 1 1 5A32C5DC
P 2800 2500
F 0 "#PWR017" H 2800 2250 50  0001 C CNN
F 1 "GND" H 2800 2350 50  0000 C CNN
F 2 "" H 2800 2500 50  0001 C CNN
F 3 "" H 2800 2500 50  0001 C CNN
	1    2800 2500
	1    0    0    -1  
$EndComp
$Comp
L +3.3V #PWR018
U 1 1 5A32C731
P 6050 4250
F 0 "#PWR018" H 6050 4100 50  0001 C CNN
F 1 "+3.3V" H 6050 4390 50  0000 C CNN
F 2 "" H 6050 4250 50  0001 C CNN
F 3 "" H 6050 4250 50  0001 C CNN
	1    6050 4250
	1    0    0    -1  
$EndComp
$Comp
L +3.3V #PWR019
U 1 1 5A32C819
P 6250 1550
F 0 "#PWR019" H 6250 1400 50  0001 C CNN
F 1 "+3.3V" H 6250 1690 50  0000 C CNN
F 2 "" H 6250 1550 50  0001 C CNN
F 3 "" H 6250 1550 50  0001 C CNN
	1    6250 1550
	1    0    0    -1  
$EndComp
$Comp
L +3.3V #PWR020
U 1 1 5A32C87B
P 3400 1550
F 0 "#PWR020" H 3400 1400 50  0001 C CNN
F 1 "+3.3V" H 3400 1690 50  0000 C CNN
F 2 "" H 3400 1550 50  0001 C CNN
F 3 "" H 3400 1550 50  0001 C CNN
	1    3400 1550
	1    0    0    -1  
$EndComp
$Comp
L +3.3V #PWR021
U 1 1 5A32C998
P 3500 4000
F 0 "#PWR021" H 3500 3850 50  0001 C CNN
F 1 "+3.3V" H 3500 4140 50  0000 C CNN
F 2 "" H 3500 4000 50  0001 C CNN
F 3 "" H 3500 4000 50  0001 C CNN
	1    3500 4000
	1    0    0    -1  
$EndComp
$Comp
L +3.3V #PWR022
U 1 1 5A37692F
P 9400 3600
F 0 "#PWR022" H 9400 3450 50  0001 C CNN
F 1 "+3.3V" H 9400 3740 50  0000 C CNN
F 2 "" H 9400 3600 50  0001 C CNN
F 3 "" H 9400 3600 50  0001 C CNN
	1    9400 3600
	1    0    0    -1  
$EndComp
Wire Wire Line
	9400 3600 9400 3650
Wire Wire Line
	9400 3650 9450 3650
$Comp
L Conn_01x02 J33
U 1 1 5A376DB1
P 9650 3650
F 0 "J33" H 9650 3750 50  0000 C CNN
F 1 "Conn_01x02" H 9650 3450 50  0000 C CNN
F 2 "Resistors_SMD:R_2010_HandSoldering" H 9650 3650 50  0001 C CNN
F 3 "" H 9650 3650 50  0001 C CNN
	1    9650 3650
	1    0    0    -1  
$EndComp
$Comp
L GND #PWR023
U 1 1 5A376E26
P 9400 3950
F 0 "#PWR023" H 9400 3700 50  0001 C CNN
F 1 "GND" H 9400 3800 50  0000 C CNN
F 2 "" H 9400 3950 50  0001 C CNN
F 3 "" H 9400 3950 50  0001 C CNN
	1    9400 3950
	1    0    0    -1  
$EndComp
Wire Wire Line
	9400 3950 9400 3750
Wire Wire Line
	9400 3750 9450 3750
$Comp
L +3.3V #PWR024
U 1 1 5A376FFF
P 8600 3550
F 0 "#PWR024" H 8600 3400 50  0001 C CNN
F 1 "+3.3V" H 8600 3690 50  0000 C CNN
F 2 "" H 8600 3550 50  0001 C CNN
F 3 "" H 8600 3550 50  0001 C CNN
	1    8600 3550
	1    0    0    -1  
$EndComp
Wire Wire Line
	8600 3550 8600 3600
Wire Wire Line
	8600 3600 8650 3600
$Comp
L Conn_01x02 J332
U 1 1 5A377007
P 8850 3600
F 0 "J332" H 8850 3700 50  0000 C CNN
F 1 "Conn_01x02" H 8850 3400 50  0000 C CNN
F 2 "Resistors_SMD:R_2010_HandSoldering" H 8850 3600 50  0001 C CNN
F 3 "" H 8850 3600 50  0001 C CNN
	1    8850 3600
	1    0    0    -1  
$EndComp
$Comp
L GND #PWR025
U 1 1 5A37700D
P 8600 3900
F 0 "#PWR025" H 8600 3650 50  0001 C CNN
F 1 "GND" H 8600 3750 50  0000 C CNN
F 2 "" H 8600 3900 50  0001 C CNN
F 3 "" H 8600 3900 50  0001 C CNN
	1    8600 3900
	1    0    0    -1  
$EndComp
Wire Wire Line
	8600 3900 8600 3700
Wire Wire Line
	8600 3700 8650 3700
$EndSCHEMATC
