EESchema Schematic File Version 4
EELAYER 30 0
EELAYER END
$Descr A4 11693 8268
encoding utf-8
Sheet 1 1
Title ""
Date ""
Rev ""
Comp ""
Comment1 ""
Comment2 ""
Comment3 ""
Comment4 ""
$EndDescr
$Comp
L power:+5V #PWR0101
U 1 1 613F0CDA
P 5000 3650
F 0 "#PWR0101" H 5000 3500 50  0001 C CNN
F 1 "+5V" H 5015 3823 50  0000 C CNN
F 2 "" H 5000 3650 50  0001 C CNN
F 3 "" H 5000 3650 50  0001 C CNN
	1    5000 3650
	1    0    0    -1  
$EndComp
$Comp
L power:-5V #PWR0102
U 1 1 613F105C
P 5000 4250
F 0 "#PWR0102" H 5000 4350 50  0001 C CNN
F 1 "-5V" H 5015 4423 50  0000 C CNN
F 2 "" H 5000 4250 50  0001 C CNN
F 3 "" H 5000 4250 50  0001 C CNN
	1    5000 4250
	-1   0    0    1   
$EndComp
$Comp
L Device:R R3
U 1 1 613F1C90
P 4700 4900
F 0 "R3" H 4630 4854 50  0000 R CNN
F 1 "39R2" H 4630 4945 50  0000 R CNN
F 2 "Resistor_SMD:R_1206_3216Metric_Pad1.30x1.75mm_HandSolder" V 4630 4900 50  0001 C CNN
F 3 "~" H 4700 4900 50  0001 C CNN
	1    4700 4900
	-1   0    0    1   
$EndComp
$Comp
L Amplifier_Operational:OPA847xD U1
U 1 1 613F040A
P 5100 3950
F 0 "U1" H 5444 3996 50  0000 L CNN
F 1 "OPA847xD" H 5444 3905 50  0000 L CNN
F 2 "Package_SO:SOIC-8_3.9x4.9mm_P1.27mm" H 5100 3950 50  0001 C CNN
F 3 "http://www.ti.com/lit/ds/symlink/opa847.pdf" H 5100 4150 50  0001 C CNN
	1    5100 3950
	1    0    0    -1  
$EndComp
$Comp
L Device:R R4
U 1 1 613F518A
P 5500 4750
F 0 "R4" V 5707 4750 50  0000 C CNN
F 1 "1500R" V 5616 4750 50  0000 C CNN
F 2 "Resistor_SMD:R_1206_3216Metric_Pad1.30x1.75mm_HandSolder" V 5430 4750 50  0001 C CNN
F 3 "~" H 5500 4750 50  0001 C CNN
	1    5500 4750
	0    -1   -1   0   
$EndComp
$Comp
L power:GND #PWR0103
U 1 1 613FB917
P 3950 4150
F 0 "#PWR0103" H 3950 3900 50  0001 C CNN
F 1 "GND" H 3955 3977 50  0000 C CNN
F 2 "" H 3950 4150 50  0001 C CNN
F 3 "" H 3950 4150 50  0001 C CNN
	1    3950 4150
	1    0    0    -1  
$EndComp
Wire Wire Line
	4800 4050 4700 4050
Wire Wire Line
	5350 4750 4700 4750
Wire Wire Line
	4700 4750 4700 4050
Wire Wire Line
	5650 4750 6250 4750
Wire Wire Line
	6250 4750 6250 4250
Wire Wire Line
	6250 3950 5400 3950
Connection ~ 6250 3950
$Comp
L Device:C C5
U 1 1 6140034E
P 3550 3850
F 0 "C5" V 3298 3850 50  0000 C CNN
F 1 "100n" V 3389 3850 50  0000 C CNN
F 2 "Capacitor_SMD:C_1206_3216Metric_Pad1.33x1.80mm_HandSolder" H 3588 3700 50  0001 C CNN
F 3 "~" H 3550 3850 50  0001 C CNN
	1    3550 3850
	0    1    1    0   
$EndComp
$Comp
L Device:C C6
U 1 1 61402F87
P 7100 3950
F 0 "C6" V 6848 3950 50  0000 C CNN
F 1 "100n" V 6939 3950 50  0000 C CNN
F 2 "Capacitor_SMD:C_1206_3216Metric_Pad1.33x1.80mm_HandSolder" H 7138 3800 50  0001 C CNN
F 3 "~" H 7100 3950 50  0001 C CNN
	1    7100 3950
	0    1    1    0   
$EndComp
$Comp
L Connector:Conn_Coaxial J1
U 1 1 6140392C
P 2650 3850
F 0 "J1" H 2578 4088 50  0000 C CNN
F 1 "Conn_Coaxial" H 2578 3997 50  0000 C CNN
F 2 "Connector_Coaxial:SMA_Amphenol_132289_EdgeMount" H 2650 3850 50  0001 C CNN
F 3 " ~" H 2650 3850 50  0001 C CNN
	1    2650 3850
	-1   0    0    -1  
$EndComp
$Comp
L Connector:Conn_Coaxial J2
U 1 1 61405F5F
P 7600 3950
F 0 "J2" H 7700 3925 50  0000 L CNN
F 1 "Conn_Coaxial" H 7700 3834 50  0000 L CNN
F 2 "Connector_Coaxial:SMA_Amphenol_132289_EdgeMount" H 7600 3950 50  0001 C CNN
F 3 " ~" H 7600 3950 50  0001 C CNN
	1    7600 3950
	1    0    0    -1  
$EndComp
Wire Wire Line
	7250 3950 7400 3950
$Comp
L power:GND #PWR0104
U 1 1 61406D88
P 2650 4050
F 0 "#PWR0104" H 2650 3800 50  0001 C CNN
F 1 "GND" H 2655 3877 50  0000 C CNN
F 2 "" H 2650 4050 50  0001 C CNN
F 3 "" H 2650 4050 50  0001 C CNN
	1    2650 4050
	1    0    0    -1  
$EndComp
$Comp
L power:GND #PWR0105
U 1 1 61407327
P 7600 4150
F 0 "#PWR0105" H 7600 3900 50  0001 C CNN
F 1 "GND" H 7605 3977 50  0000 C CNN
F 2 "" H 7600 4150 50  0001 C CNN
F 3 "" H 7600 4150 50  0001 C CNN
	1    7600 4150
	1    0    0    -1  
$EndComp
$Comp
L power:+5V #PWR0106
U 1 1 61407795
P 5650 1000
F 0 "#PWR0106" H 5650 850 50  0001 C CNN
F 1 "+5V" H 5665 1173 50  0000 C CNN
F 2 "" H 5650 1000 50  0001 C CNN
F 3 "" H 5650 1000 50  0001 C CNN
	1    5650 1000
	1    0    0    -1  
$EndComp
$Comp
L power:-5V #PWR0107
U 1 1 61407E9A
P 6650 1000
F 0 "#PWR0107" H 6650 1100 50  0001 C CNN
F 1 "-5V" H 6665 1173 50  0000 C CNN
F 2 "" H 6650 1000 50  0001 C CNN
F 3 "" H 6650 1000 50  0001 C CNN
	1    6650 1000
	1    0    0    -1  
$EndComp
$Comp
L power:GND #PWR0108
U 1 1 61408643
P 5650 1550
F 0 "#PWR0108" H 5650 1300 50  0001 C CNN
F 1 "GND" H 5655 1377 50  0000 C CNN
F 2 "" H 5650 1550 50  0001 C CNN
F 3 "" H 5650 1550 50  0001 C CNN
	1    5650 1550
	1    0    0    -1  
$EndComp
$Comp
L Device:C C1
U 1 1 6140B25D
P 5400 1300
F 0 "C1" H 5285 1254 50  0000 R CNN
F 1 "0.1u" H 5285 1345 50  0000 R CNN
F 2 "Capacitor_SMD:C_1206_3216Metric_Pad1.33x1.80mm_HandSolder" H 5438 1150 50  0001 C CNN
F 3 "~" H 5400 1300 50  0001 C CNN
	1    5400 1300
	-1   0    0    1   
$EndComp
$Comp
L Device:C C2
U 1 1 6140B99D
P 5850 1300
F 0 "C2" H 5965 1346 50  0000 L CNN
F 1 "6.8u" H 5965 1255 50  0000 L CNN
F 2 "Capacitor_SMD:C_1206_3216Metric_Pad1.33x1.80mm_HandSolder" H 5888 1150 50  0001 C CNN
F 3 "~" H 5850 1300 50  0001 C CNN
	1    5850 1300
	1    0    0    -1  
$EndComp
Connection ~ 3950 3850
Connection ~ 4700 4750
$Comp
L power:GND #PWR0109
U 1 1 61417D1B
P 4700 5050
F 0 "#PWR0109" H 4700 4800 50  0001 C CNN
F 1 "GND" H 4705 4877 50  0000 C CNN
F 2 "" H 4700 5050 50  0001 C CNN
F 3 "" H 4700 5050 50  0001 C CNN
	1    4700 5050
	1    0    0    -1  
$EndComp
Wire Wire Line
	5400 1150 5650 1150
Wire Wire Line
	5650 1000 5650 1150
Connection ~ 5650 1150
Wire Wire Line
	5650 1150 5850 1150
Wire Wire Line
	5650 1550 5650 1450
Wire Wire Line
	5650 1450 5400 1450
Wire Wire Line
	5650 1450 5850 1450
Connection ~ 5650 1450
$Comp
L power:GND #PWR0110
U 1 1 6142B6A6
P 6650 1550
F 0 "#PWR0110" H 6650 1300 50  0001 C CNN
F 1 "GND" H 6655 1377 50  0000 C CNN
F 2 "" H 6650 1550 50  0001 C CNN
F 3 "" H 6650 1550 50  0001 C CNN
	1    6650 1550
	1    0    0    -1  
$EndComp
$Comp
L Device:C C3
U 1 1 6142B738
P 6400 1300
F 0 "C3" H 6285 1254 50  0000 R CNN
F 1 "0.1u" H 6285 1345 50  0000 R CNN
F 2 "Capacitor_SMD:C_1206_3216Metric_Pad1.33x1.80mm_HandSolder" H 6438 1150 50  0001 C CNN
F 3 "~" H 6400 1300 50  0001 C CNN
	1    6400 1300
	-1   0    0    1   
$EndComp
$Comp
L Device:C C4
U 1 1 6142B742
P 6850 1300
F 0 "C4" H 6965 1346 50  0000 L CNN
F 1 "6.8u" H 6965 1255 50  0000 L CNN
F 2 "Capacitor_SMD:C_1206_3216Metric_Pad1.33x1.80mm_HandSolder" H 6888 1150 50  0001 C CNN
F 3 "~" H 6850 1300 50  0001 C CNN
	1    6850 1300
	1    0    0    -1  
$EndComp
Wire Wire Line
	6400 1150 6650 1150
Wire Wire Line
	6650 1000 6650 1150
Connection ~ 6650 1150
Wire Wire Line
	6650 1150 6850 1150
Wire Wire Line
	6650 1550 6650 1450
Wire Wire Line
	6650 1450 6400 1450
Wire Wire Line
	6650 1450 6850 1450
Connection ~ 6650 1450
$Comp
L Device:R R5
U 1 1 61431EE1
P 6700 3950
F 0 "R5" V 6907 3950 50  0000 C CNN
F 1 "100R" V 6816 3950 50  0000 C CNN
F 2 "Resistor_SMD:R_1206_3216Metric_Pad1.30x1.75mm_HandSolder" V 6630 3950 50  0001 C CNN
F 3 "~" H 6700 3950 50  0001 C CNN
	1    6700 3950
	0    -1   -1   0   
$EndComp
Wire Wire Line
	6850 3950 6950 3950
Wire Wire Line
	6250 3950 6550 3950
Wire Wire Line
	3700 3850 3750 3850
$Comp
L Connector_Generic:Conn_02x03_Odd_Even J3
U 1 1 6143FFD6
P 3500 1400
F 0 "J3" H 3550 1717 50  0000 C CNN
F 1 "Conn_02x03_Odd_Even" H 3550 1626 50  0000 C CNN
F 2 "Connector_PinHeader_2.54mm:PinHeader_2x03_P2.54mm_Vertical" H 3500 1400 50  0001 C CNN
F 3 "~" H 3500 1400 50  0001 C CNN
	1    3500 1400
	1    0    0    -1  
$EndComp
Text Label 5100 4250 0    50   ~ 0
Dis
Text Label 3100 1300 2    50   ~ 0
Dis
Wire Wire Line
	3100 1300 3300 1300
Wire Wire Line
	3300 1400 3300 1300
Connection ~ 3300 1300
Wire Wire Line
	3300 1500 3300 1400
Connection ~ 3300 1400
$Comp
L power:+5V #PWR0111
U 1 1 61444FD3
P 4150 1500
F 0 "#PWR0111" H 4150 1350 50  0001 C CNN
F 1 "+5V" V 4165 1628 50  0000 L CNN
F 2 "" H 4150 1500 50  0001 C CNN
F 3 "" H 4150 1500 50  0001 C CNN
	1    4150 1500
	0    1    1    0   
$EndComp
$Comp
L power:GND #PWR0112
U 1 1 6144540F
P 4150 1400
F 0 "#PWR0112" H 4150 1150 50  0001 C CNN
F 1 "GND" V 4155 1272 50  0000 R CNN
F 2 "" H 4150 1400 50  0001 C CNN
F 3 "" H 4150 1400 50  0001 C CNN
	1    4150 1400
	0    -1   -1   0   
$EndComp
$Comp
L power:-5V #PWR0113
U 1 1 61445A7A
P 4150 1300
F 0 "#PWR0113" H 4150 1400 50  0001 C CNN
F 1 "-5V" V 4165 1428 50  0000 L CNN
F 2 "" H 4150 1300 50  0001 C CNN
F 3 "" H 4150 1300 50  0001 C CNN
	1    4150 1300
	0    1    1    0   
$EndComp
Wire Wire Line
	3800 1500 4150 1500
Wire Wire Line
	4150 1400 3800 1400
Wire Wire Line
	3800 1300 4150 1300
$Comp
L Connector:Conn_01x02_Female J4
U 1 1 61452A8B
P 8250 1000
F 0 "J4" H 8278 976 50  0000 L CNN
F 1 "Conn_01x01_Female" H 8278 885 50  0000 L CNN
F 2 "Kicad:Banana_female" H 8250 1000 50  0001 C CNN
F 3 "~" H 8250 1000 50  0001 C CNN
	1    8250 1000
	1    0    0    -1  
$EndComp
$Comp
L Connector:Conn_01x02_Female J5
U 1 1 61453173
P 8250 1300
F 0 "J5" H 8278 1276 50  0000 L CNN
F 1 "Conn_01x01_Female" H 8278 1185 50  0000 L CNN
F 2 "Kicad:Banana_female" H 8250 1300 50  0001 C CNN
F 3 "~" H 8250 1300 50  0001 C CNN
	1    8250 1300
	1    0    0    -1  
$EndComp
$Comp
L Connector:Conn_01x02_Female J6
U 1 1 61453674
P 8250 1550
F 0 "J6" H 8278 1526 50  0000 L CNN
F 1 "Conn_01x01_Female" H 8278 1435 50  0000 L CNN
F 2 "Kicad:Banana_female" H 8250 1550 50  0001 C CNN
F 3 "~" H 8250 1550 50  0001 C CNN
	1    8250 1550
	1    0    0    -1  
$EndComp
$Comp
L power:-5V #PWR0114
U 1 1 61456014
P 8050 1550
F 0 "#PWR0114" H 8050 1650 50  0001 C CNN
F 1 "-5V" V 8065 1678 50  0000 L CNN
F 2 "" H 8050 1550 50  0001 C CNN
F 3 "" H 8050 1550 50  0001 C CNN
	1    8050 1550
	0    -1   -1   0   
$EndComp
$Comp
L power:GND #PWR0115
U 1 1 614567E8
P 8050 1300
F 0 "#PWR0115" H 8050 1050 50  0001 C CNN
F 1 "GND" V 8055 1172 50  0000 R CNN
F 2 "" H 8050 1300 50  0001 C CNN
F 3 "" H 8050 1300 50  0001 C CNN
	1    8050 1300
	0    1    1    0   
$EndComp
$Comp
L power:+5V #PWR0116
U 1 1 61456E51
P 8050 1000
F 0 "#PWR0116" H 8050 850 50  0001 C CNN
F 1 "+5V" V 8065 1128 50  0000 L CNN
F 2 "" H 8050 1000 50  0001 C CNN
F 3 "" H 8050 1000 50  0001 C CNN
	1    8050 1000
	0    -1   -1   0   
$EndComp
$Comp
L Device:R R1
U 1 1 613F8951
P 3950 4000
F 0 "R1" H 3880 3954 50  0000 R CNN
F 1 "100R" H 3880 4045 50  0000 R CNN
F 2 "Resistor_SMD:R_1206_3216Metric_Pad1.30x1.75mm_HandSolder" V 3880 4000 50  0001 C CNN
F 3 "~" H 3950 4000 50  0001 C CNN
	1    3950 4000
	-1   0    0    1   
$EndComp
$Comp
L power:GND #PWR01
U 1 1 61469A0C
P 3750 4150
F 0 "#PWR01" H 3750 3900 50  0001 C CNN
F 1 "GND" H 3755 3977 50  0000 C CNN
F 2 "" H 3750 4150 50  0001 C CNN
F 3 "" H 3750 4150 50  0001 C CNN
	1    3750 4150
	1    0    0    -1  
$EndComp
$Comp
L Device:R R2
U 1 1 61469B16
P 3750 4000
F 0 "R2" H 3680 3954 50  0000 R CNN
F 1 "100R" H 3680 4045 50  0000 R CNN
F 2 "Resistor_SMD:R_1206_3216Metric_Pad1.30x1.75mm_HandSolder" V 3680 4000 50  0001 C CNN
F 3 "~" H 3750 4000 50  0001 C CNN
	1    3750 4000
	-1   0    0    1   
$EndComp
Connection ~ 3750 3850
Wire Wire Line
	3750 3850 3950 3850
$Comp
L Device:R R6
U 1 1 6146E065
P 6700 4250
F 0 "R6" V 6907 4250 50  0000 C CNN
F 1 "100R" V 6816 4250 50  0000 C CNN
F 2 "Resistor_SMD:R_1206_3216Metric_Pad1.30x1.75mm_HandSolder" V 6630 4250 50  0001 C CNN
F 3 "~" H 6700 4250 50  0001 C CNN
	1    6700 4250
	0    -1   -1   0   
$EndComp
Wire Wire Line
	6850 4250 6950 4250
Wire Wire Line
	6250 4250 6550 4250
Connection ~ 6250 4250
Wire Wire Line
	6250 4250 6250 3950
Wire Wire Line
	6950 3950 6950 4250
Connection ~ 6950 3950
Wire Wire Line
	8050 1100 8050 1000
Connection ~ 8050 1000
Wire Wire Line
	8050 1400 8050 1300
Connection ~ 8050 1300
Wire Wire Line
	8050 1650 8050 1550
Connection ~ 8050 1550
Wire Notes Line
	5050 700  9400 700 
Wire Notes Line
	9400 700  9400 2200
Wire Notes Line
	9400 2200 5050 2200
Wire Notes Line
	5050 2200 5050 700 
Wire Notes Line
	4650 850  4650 1950
Wire Notes Line
	4650 1950 2700 1950
Wire Notes Line
	2700 1950 2700 850 
Wire Notes Line
	2700 850  4650 850 
Wire Notes Line
	2400 2800 8350 2800
Wire Notes Line
	8350 2800 8350 5700
Wire Notes Line
	8350 5700 2400 5700
Wire Notes Line
	2400 5700 2400 2800
$Comp
L Device:R R99
U 1 1 6141C9FE
P 4350 3700
F 0 "R99" H 4280 3654 50  0000 R CNN
F 1 "100R" H 4280 3745 50  0000 R CNN
F 2 "Resistor_SMD:R_1206_3216Metric_Pad1.30x1.75mm_HandSolder" V 4280 3700 50  0001 C CNN
F 3 "~" H 4350 3700 50  0001 C CNN
	1    4350 3700
	-1   0    0    1   
$EndComp
Connection ~ 4350 3850
Wire Wire Line
	4350 3850 3950 3850
$Comp
L power:+5V #PWR0117
U 1 1 6141CF03
P 4350 3100
F 0 "#PWR0117" H 4350 2950 50  0001 C CNN
F 1 "+5V" H 4365 3273 50  0000 C CNN
F 2 "" H 4350 3100 50  0001 C CNN
F 3 "" H 4350 3100 50  0001 C CNN
	1    4350 3100
	1    0    0    -1  
$EndComp
Wire Wire Line
	4350 3850 4800 3850
$Comp
L Device:C C99
U 1 1 61443233
P 4100 3350
F 0 "C99" V 3848 3350 50  0000 C CNN
F 1 "100n" V 3939 3350 50  0000 C CNN
F 2 "Capacitor_SMD:C_1206_3216Metric_Pad1.33x1.80mm_HandSolder" H 4138 3200 50  0001 C CNN
F 3 "~" H 4100 3350 50  0001 C CNN
	1    4100 3350
	0    1    1    0   
$EndComp
$Comp
L power:GND #PWR0118
U 1 1 61443859
P 3950 3350
F 0 "#PWR0118" H 3950 3100 50  0001 C CNN
F 1 "GND" H 3955 3177 50  0000 C CNN
F 2 "" H 3950 3350 50  0001 C CNN
F 3 "" H 3950 3350 50  0001 C CNN
	1    3950 3350
	0    1    1    0   
$EndComp
Wire Wire Line
	4350 3550 4350 3350
Wire Wire Line
	4250 3350 4350 3350
Connection ~ 4350 3350
Wire Wire Line
	4350 3350 4350 3100
$Comp
L Device:C C98
U 1 1 6144E576
P 3050 3850
F 0 "C98" V 2798 3850 50  0000 C CNN
F 1 "100n" V 2889 3850 50  0000 C CNN
F 2 "Capacitor_SMD:C_1206_3216Metric_Pad1.33x1.80mm_HandSolder" H 3088 3700 50  0001 C CNN
F 3 "~" H 3050 3850 50  0001 C CNN
	1    3050 3850
	0    1    1    0   
$EndComp
$Comp
L power:GND #PWR?
U 1 1 6144E800
P 3250 4150
F 0 "#PWR?" H 3250 3900 50  0001 C CNN
F 1 "GND" H 3255 3977 50  0000 C CNN
F 2 "" H 3250 4150 50  0001 C CNN
F 3 "" H 3250 4150 50  0001 C CNN
	1    3250 4150
	1    0    0    -1  
$EndComp
$Comp
L Device:R R98
U 1 1 6144E80A
P 3250 4000
F 0 "R98" H 3180 3954 50  0000 R CNN
F 1 "50R" H 3180 4045 50  0000 R CNN
F 2 "Resistor_SMD:R_1206_3216Metric_Pad1.30x1.75mm_HandSolder" V 3180 4000 50  0001 C CNN
F 3 "~" H 3250 4000 50  0001 C CNN
	1    3250 4000
	-1   0    0    1   
$EndComp
Wire Wire Line
	3200 3850 3250 3850
Connection ~ 3250 3850
Wire Wire Line
	3250 3850 3400 3850
Wire Wire Line
	2850 3850 2900 3850
Text Notes 2500 5600 0    50   ~ 0
Alimentaiton 0/+5V\nLes resistances et condensateurs 98 et 9\nsont a utilisé pour une alimentation 0/+5V \nR98 50R (adaptation entrée)\nR99 et R1 1500R (ne pas mettre R2)\nC98 et C99 100nF \n\nAlimentation -5V/+5V\nNe pas mettre R98, R99, C99 \nC98 mettre 0R
$EndSCHEMATC
