! Created Mon Feb 06 12:03:40 2017
# mhz S db R 50
! 2 Port Network Data from filtre_9GHz block
! freq  dbS11  angS11  dbS21  angS21  dbS12  angS12  dbS22  angS22  
!     
                45      -0.341466247         176.296495        -46.2209616         83.1732159        -46.0528016         84.2012726        0.126493888          174.54284
           144.775      -0.175847408         168.405225         -36.594277         77.6818192        -36.5699825          77.856132        0.092202611         166.962461
            244.55      -0.260432988         159.478117         -31.927966         70.7272618          -31.90681         70.8375183      -0.0532788131         157.812112
           344.325      -0.276053174         150.674005        -28.9834911         63.7030375        -28.9586952         64.2849315       0.0475062508         148.903231
             444.1      -0.248229569         142.222538        -26.6877649          56.454597        -26.6762484         56.8152666       0.0175540921         140.421205
           543.875      -0.245869997         133.881933        -24.9211926         49.6268061        -24.8836567          49.670747      -0.0176497409         131.631939
            643.65      -0.261319297         125.280028        -23.4544463         41.9344989        -23.4155704         42.3196562      -0.0478001798         123.008831
           743.425      -0.262721755         116.926938        -22.2453883         35.8203162        -22.2061304         35.8701397       -0.045744166         114.538076
             843.2       -0.25815551         108.367165        -21.1017067         27.8234868        -21.0475459         28.2105726      -0.0757955862         105.942004
           942.975       -0.38241508         100.044498        -20.1926725         22.0080653         -20.190253         22.1366143      -0.0313082781         97.3200413
           1042.75      -0.380909136         91.4507249        -19.3249665          13.647303        -19.2402412         14.3500088      -0.0471022166         88.8308248
          1142.525      -0.394622057         83.0424795        -18.4874586         7.72133232        -18.4514096         7.94389302      -0.0847916969         80.2398531
            1242.3       -0.40516893         74.7826409        -17.7460959       -0.421532856        -17.6815599         0.25439333       -0.133653151          71.849175
          1342.075      -0.417800095         66.1164957        -17.0469989        -5.83783914        -17.0565808        -5.83178073       -0.141034686         63.2545366
           1441.85      -0.417129494         58.1949128        -16.3735608        -13.7834439        -16.2927931        -13.3893262       -0.152314484         55.0982171
          1541.625      -0.445840774         49.4935361        -15.7597047        -19.4378026        -15.7344037        -19.4839569       -0.208953467          46.497174
            1641.4      -0.438755854         41.4774483        -15.0889199        -27.9012734        -15.0263458        -27.3612035         -0.2176671         38.2627595
          1741.175      -0.478612564         32.8988557        -14.6236639        -33.1188001        -14.6282648        -33.0851818       -0.274786618         29.8089022
           1840.95      -0.506721011         24.7618063        -13.9009533         -41.619329        -13.8121858        -41.0810467       -0.290098833         21.4183489
          1940.725      -0.555284771         16.1343499        -13.4500815        -46.7903194        -13.3670035        -46.9447557       -0.352425957         12.8503523
            2040.5      -0.564602083         8.45547663        -12.7107834        -54.6638707        -12.6424836         -53.708385       -0.389216713         4.95453276
          2140.275      -0.617923765       -0.424308073        -12.3895186        -60.6305473        -12.3181624        -61.0406027       -0.446629421        -3.86121713
           2240.05      -0.657520906        -8.91536537        -11.5356317        -69.1338699         -11.499214        -68.6848498       -0.493463253        -12.5974612
          2339.825      -0.736802073        -17.4159055        -11.3964912        -74.2160543        -11.2798893        -75.4338451       -0.561859665        -21.1470625
            2439.6      -0.860410421        -25.8458264        -10.4379853        -83.9378786        -10.4287045        -82.2268543       -0.553262624         -29.684322
          2539.375      -0.974893243         -34.781759        -10.3266521        -88.9435529        -10.3261417        -90.7176309       -0.636716737        -38.9298518
           2639.15       -1.03332815        -43.9248554        -9.41137942        -100.766774        -9.20974859        -99.3917752       -0.718147502        -47.9518023
          2738.925       -1.14820593         -52.695447        -9.24125957        -105.043367        -9.27592304        -106.628105       -0.820728775        -57.0609687
            2838.7       -1.21322057        -61.8386902        -8.52244094        -116.406517         -8.3263554        -115.310711       -0.920661803        -66.2137785
          2938.475       -1.37228632        -70.8941529        -8.16615742        -121.000226        -8.37367742        -122.758506        -1.04626055        -75.5150436
           3038.25       -1.45319508        -80.1961703        -7.52779005        -132.649199        -7.26341512        -131.669896        -1.16341727        -84.8613172
          3138.025       -1.64011561        -89.3685217        -7.18566244        -138.342881        -7.47554861        -139.150921        -1.31548877         -94.286516
            3237.8       -1.72022152         -98.760423        -6.78003786        -148.741045        -6.52355681        -148.463019        -1.43410691        -103.781635
          3337.575       -1.97115777        -108.579952        -6.40044191        -154.943158         -6.7482709        -155.388462        -1.65622112        -113.923175
           3437.35       -2.10966575        -118.365829        -5.99358914        -164.986279        -5.76098048        -164.587259        -1.83821793        -124.024454
          3537.125       -2.36316983        -128.114943        -5.69899664         -172.40892         -6.0729651        -172.165194         -2.0658273        -134.051092
            3636.9       -2.55719127        -137.982083        -5.50839289         176.734402        -5.22258591         177.392802        -2.27736313        -144.412918
          3736.675       -2.83097555        -148.130186        -4.90170256         169.835119        -5.20993962         171.095933        -2.53410881        -154.708049
           3836.45       -3.05787649        -158.086857        -4.81997139         160.899534        -4.63702332         160.507859        -2.79488092        -165.368166
          3936.225       -3.38531723        -168.424232        -4.24484136         151.104037        -4.42575745         153.112152        -3.08465521        -175.893771
              4036       -3.65444075        -178.609702        -4.05697806         144.471402        -3.92130479         144.220973         -3.4016718         173.381289
          4135.775       -4.02755331         171.053677        -3.77678429         133.651529        -3.73254393         135.010451        -3.71487154         162.479277
           4235.55       -4.32107243         160.768444        -3.34094018         126.767148        -3.21323471         126.850154        -4.08051593         151.758539
          4335.325       -4.71686337         150.473874         -3.3781449         116.794639        -3.24309261         117.560155        -4.42875883         140.611753
            4435.1       -5.05604582         140.083037        -2.90287231         108.264258        -2.68119103         108.452265        -4.80611213         129.968699
          4534.875       -5.47396054         129.903534        -2.79383509         98.4384566        -2.84119485         99.3367358        -5.19432166         118.739121
           4634.65       -5.83411624          119.38423        -2.47214438         88.7936332        -2.13778323         88.9980132        -5.57019855         108.047502
          4734.425       -6.26743836         109.397526        -2.28976815          80.359202        -2.37925019         81.1368774        -6.01960762         96.9491479
            4834.2       -6.66252844         99.0231297        -2.27441849         70.9435839        -1.86905642         69.4348186        -6.37811713         86.1052075
          4933.975       -7.09799533         88.9963723        -1.94071328          60.815649        -1.96528357         61.7031051        -6.84317449         75.1226924
           5033.75       -7.47756497         78.8417399        -1.96515843          52.637671        -1.67817023         50.4453803        -7.21070695         64.3703473
          5133.525       -7.91107647         68.9631132        -1.70376745         42.0351267        -1.65107891         43.4118491        -7.66106008         53.5622234
            5233.3       -8.24319998         59.0908548        -1.76067352         34.8578132        -1.53222574         32.2581015        -8.02269147         43.1080159
          5333.075       -8.66131259         49.3694029        -1.69631755         24.3391071        -1.56662277         24.7947395        -8.48753878           32.77263
           5432.85       -8.86025494         39.2501688        -1.69806184         16.8884259        -1.69159717         14.1851543        -8.73544551         22.4463071
          5532.625       -9.21442537         28.3826911        -1.57646355         6.43511508        -1.46811185         7.60244231        -9.13562823         11.7016236
            5632.4       -9.48236661         17.6623091        -1.62652408       -0.179233232        -1.69658931        -2.87089742        -9.43677376        0.704792455
          5732.175       -9.89764718         6.38213219        -1.49437905         -11.550235        -1.38502234        -11.0420693         -9.8875765        -10.5557813
           5831.95       -10.2437069         -4.2689513        -1.38849747        -18.0411362        -1.59962754        -20.1874859         -10.249671        -21.3433193
          5931.725       -10.6247576        -15.8580673        -1.41507049        -28.9742516        -1.30069494        -28.5600495         -10.708381        -32.1341554
            6031.5       -11.0160802        -26.6275935        -1.26193341        -35.3204944        -1.45243407         -36.634284         -11.115322        -42.5642259
          6131.275       -11.3515212        -38.0509134        -1.42754076        -45.7840262        -1.33667485        -45.9229756        -11.5443608        -52.6958015
           6231.05       -11.7803018        -48.5765589        -1.16316678        -53.5627082         -1.2793223        -54.2169124        -11.8747593         -62.705394
          6330.825       -12.0902457         -59.883681        -1.35313191        -62.4882239        -1.29591303        -62.4163596        -12.3493949        -72.9269741
            6430.6       -12.5260505        -71.1329716        -1.24598279        -71.1782856        -1.35241736        -71.7911835        -12.6728892        -82.8413973
          6530.375       -12.8627547        -82.6687731         -1.3115485        -80.1354997        -1.29029487        -79.6612243        -13.1781401        -92.8552392
           6630.15       -13.2540026        -94.4961607        -1.20697843        -88.9471237        -1.32212879        -89.4584142        -13.4189627        -102.573481
          6729.925       -13.5054715        -105.985195        -1.22719903        -97.2186878        -1.11365876        -96.3858492        -13.9016991        -112.132465
            6829.7       -13.9590515        -118.047475        -1.35299553        -105.481456        -1.43278136        -106.131776        -14.1858603        -122.377635
          6929.475       -14.2002687        -129.920392        -1.30103753        -114.805356        -1.10512805        -114.386106        -14.6036465        -131.432264
           7029.25       -14.7546813        -141.546951        -1.34931194        -122.301547        -1.40791172        -122.747334        -14.9098973        -140.715557
          7129.025       -14.9794192        -153.183797        -1.31626625        -131.468627        -1.10505434        -131.175091        -15.3316998        -150.039716
            7228.8         -15.58017        -165.949734        -1.41176934        -139.747455        -1.44508111        -139.544519         -15.660771        -158.690164
          7328.575       -15.8342753        -177.593666        -1.36033754        -148.747256        -1.16944023         -149.15358         -16.267478        -167.251837
           7428.35       -16.5396779         169.289839        -1.43180826        -156.878299         -1.4048924        -156.808697        -16.4410538        -175.139484
          7528.125        -16.966451         158.217481        -1.35771882        -165.734682        -1.19564303        -166.328271        -17.1563917         176.651857
            7627.9       -17.9088439         145.622342        -1.48471855        -173.726702        -1.43308096        -173.770257        -17.1484107          168.70118
          7727.675       -18.6227088         136.026138        -1.42897554         176.879853        -1.30359309         176.344585        -18.0178668         161.006096
           7827.45        -19.665763         124.083805        -1.48722268         169.009529        -1.41196488         168.818363        -17.9116374         152.903095
          7927.225       -20.4839967         119.028567        -1.45152801         159.759117        -1.34172561          158.94359        -18.7225046         147.084414
              8027       -21.9666302         105.892685        -1.50446605         151.381409         -1.4531035         151.087333        -18.8457811         137.596295
          8126.775       -22.5958374         107.048129        -1.53566086         141.986109        -1.43237733         141.239718        -19.5907949          134.16695
           8226.55       -24.7919329          96.441813        -1.60466531         133.152486        -1.53730447         132.787249        -20.0473474         124.999402
          8326.325       -25.0476868         106.677907        -1.69322096          123.96352         -1.6004178         123.211943         -20.637076         123.724641
            8426.1       -27.3610025         109.916649        -1.82243488         114.785233        -1.76235373         114.318276        -21.3112936         120.218746
          8525.875       -25.1208819         121.495703        -1.97300433         105.508018        -1.88113442         104.780918        -21.1794772         125.126155
           8625.65       -23.8289451         130.334387        -2.25909764         96.4636636        -2.20662449          95.900806        -20.4622473         125.869421
          8725.425       -20.6225381         123.584567        -2.51099486         88.0338359        -2.38321204         87.2751115        -18.4678036          124.69272
            8825.2       -18.5975719         118.552425        -2.96130532         79.6309342        -2.91402257         78.9835894        -16.7515043         116.010927
          8924.975       -16.4202871         102.687374         -3.1420219         73.3159054        -2.98633316         72.5071053        -14.9701418         103.732038
           9024.75       -15.0940963         88.9164976        -3.50745075         66.6405015        -3.50885591         65.9901796        -13.9802021         86.4259836
          9124.525       -13.8033367         72.8012152        -3.31751025          60.668203        -3.18603702         59.5274185        -13.1752014         72.6034251
            9224.3       -13.0622863         57.7899043        -3.56932992         53.9423799        -3.55574374         53.6193299        -12.6863779         55.1136687
          9324.075       -12.1763844         40.8384221        -3.04858607         46.8970995         -2.9779635         45.6654708        -12.3872142         40.3088026
           9423.85       -11.9623244         24.2591104        -3.17771492         39.6606471        -3.19833255         38.9727567        -12.2307497         23.3361005
          9523.625       -11.6129787         7.71958943        -2.63487339         30.1396679        -2.59522228         28.8650156         -12.160561         9.69692706
            9623.4       -11.9539257        -8.79183063        -2.74789485         22.9736577        -2.78884823         22.1926384         -12.077301         -6.8375435
          9723.175       -12.2914113        -21.6867847        -2.43283655         11.5826443        -2.38435874         10.6614922        -12.2987334        -20.0960563
           9822.95       -12.7070137        -33.8827492        -2.50315545         3.82121214        -2.52442608         3.33625296        -12.4426603        -35.5315043
          9922.725       -12.5862857         -43.589915        -2.40371906        -6.63533787        -2.33016501        -7.94836969        -12.7645045         -46.810351
           10022.5       -12.8065271        -58.7866944        -2.36690724         -14.574794        -2.37130457        -14.6274464        -12.8893648        -63.0073055
         10122.275       -13.0367695        -70.1827478        -2.30796801        -25.1083815        -2.28321778        -26.1541535        -13.7449399        -73.5931712
          10222.05       -13.9474132        -86.6816202        -2.27380334        -34.2955794        -2.22294887        -34.3490499        -14.2495537        -88.5974313
         10321.825       -14.6972787        -97.1356168         -2.1645289        -44.7953674        -2.16844042        -45.5983137        -15.5239881        -97.0887442
           10421.6       -16.3066617        -113.952335        -2.14985436          -54.38526        -2.08836806        -54.8702525        -16.6360363        -108.916383
         10521.375       -18.3330153        -123.387863        -2.06834353        -65.2956751        -2.04658607        -65.9615601        -18.9689087        -110.064198
          10621.15       -22.0798757        -144.667636        -2.09056497         -76.097548        -2.00524144        -76.6507644        -21.3778122        -112.482536
         10720.925       -31.2487578        -152.831792        -2.02832298        -87.4439681        -1.98728852        -88.1445234        -23.2600987         -81.963474
           10820.7       -29.4432479          32.063619        -2.15316846        -99.4435377        -2.04232823        -100.220563        -21.4854468        -59.5432647
         10920.475       -19.3244816         1.56126936        -2.18144895        -111.687878         -2.1481246        -112.286233        -16.6079989        -49.3958177
          11020.25       -14.8885236        -11.4679448        -2.50667851        -124.759943         -2.4096186        -125.927446        -13.7454537        -55.8101251
         11120.025       -11.3331002        -28.4934129        -2.76669602        -137.071259        -2.71727339        -137.897102        -10.5809171        -63.8262387
           11219.8       -9.31204428        -42.6207476        -3.37799935        -150.475582        -3.29457736        -152.155065         -8.9414836        -75.7209742
         11319.575       -7.16235745        -57.8576419        -3.80964842        -162.417283        -3.79784878        -163.371034        -6.86092366        -86.8009381
          11419.35        -6.0605924        -71.1656542        -4.73542056        -175.649641        -4.75280413        -177.451506        -5.84896254        -99.2216372
         11519.125       -4.62105633        -84.9570257        -5.32364016         172.881389        -5.32587088         172.488981        -4.50771766         -110.43569
           11618.9       -4.03261869         -97.072228        -6.45316827         161.733009        -6.50584922         160.071551        -3.92987075         -122.51357
         11718.675       -3.09027161        -109.636197        -7.19248268         151.023336        -7.15357127         150.556082        -3.01891126         -132.44552
          11818.45       -2.81439697        -120.216585        -8.30605032         141.680894        -8.43095278         140.494636        -2.76283058        -143.507909
         11918.225       -2.15993509         -131.25089        -9.17585235         132.341006          -9.163853         131.557012        -2.16830072        -152.492435
             12018       -2.03698944        -140.905176        -10.2115028         123.668854        -10.2904362         122.996304        -2.02298909        -162.410295
         12117.775       -1.62702192        -151.013396        -11.1721361          115.58156        -11.1531506         114.785725        -1.52961222        -170.485228
          12217.55       -1.75062764        -158.466302        -12.1837624         108.022376        -12.2350194         107.634867        -1.66949556        -178.518598
         12317.325       -1.27411671        -168.457768        -13.0212712         100.738333        -13.0427311          99.963308        -1.18081089         173.274014
           12417.1       -1.25774516        -175.731806        -13.9406921         93.3681217        -13.9292952         92.6434136        -1.18623476         165.297246
         12516.875       -1.03086813         175.445155        -14.7805864         87.1993565        -14.8167378         86.6670358       -0.940167281         158.616124
          12616.65       -1.00076882         169.119883        -15.5906004         80.7349235         -15.562464         80.3716823       -0.946045234         151.559929
         12716.425      -0.900389528         161.036356        -16.4683023         74.8715118        -16.4558601         74.6587123        -0.79036301         145.243317
           12816.2       -0.87359159         155.339377        -17.1658415         69.1873708        -17.1603126         69.1270256       -0.818432341         138.843536
         12915.975       -0.84272593         147.781199        -17.9609995         63.6923398        -17.9449535         63.0345283       -0.692724045         132.693548
          13015.75        -0.7569723         142.931696        -18.4915333         58.4801197        -18.4276633         59.3984346       -0.721973012         127.099048
         13115.525      -0.764432053         135.773655        -19.3083468          53.110726        -19.3372503         52.4326427       -0.673692886         121.246657
           13215.3      -0.650382845         131.195498        -19.5640781         48.7581489        -19.5377524         49.8871618        -0.65806741         116.093523
         13315.075      -0.730019202          124.22388        -20.3933276         42.9167295        -20.3971891          42.089929        -0.59786299         110.453444
          13414.85      -0.580832374         119.870095        -20.5333235         38.9229541        -20.3241209         41.6548297       -0.632922853          105.60646
         13514.625      -0.654129847         113.378065        -21.5656897         32.8116562        -21.5324162         32.3644048       -0.554146717         100.018128
           13614.4      -0.664531491          109.72734         -21.449233         28.6964067        -21.2195513         31.8998083       -0.635683681         95.5642058
         13714.175      -0.706321785         103.004852        -22.5581503         23.8674514        -22.4728007         23.4645057         -0.5758223         90.4895199
          13813.95      -0.602709315         99.5461284        -22.1358694          18.946702        -21.6891896         22.2534913        -0.62129353         85.9547953
         13913.725      -0.714608531         93.1986803        -23.1835671         15.2913481        -23.1700721         14.9930698       -0.590505462         81.3487453
           14013.5      -0.597339557         89.4830427        -22.8052339         9.51691512        -22.2487119         12.7127732       -0.609910946         76.7676427
         14113.275      -0.762625578         83.3878587        -23.8090354         7.63360759        -23.6681079         7.19738819       -0.569907376         72.1938712
          14213.05      -0.585627183         79.9660152        -23.2249724         1.02025834        -22.6125535         4.50446088        -0.65714895          67.793742
         14312.825      -0.739014306         74.4162725        -24.0225613       -0.708519837        -23.8279233         -0.2105579       -0.603164281         63.3997446
           14412.6      -0.583601974         70.6277019        -23.4206711        -8.75429257        -22.7977871        -5.24358357       -0.666726244         59.0061306
         14512.375      -0.797549048         65.4231167         -24.100199        -9.71465129        -23.4808596        -10.0958761       -0.673151903         54.7559842
          14612.15      -0.656115327         61.6071599        -23.4746127        -19.4083822         -22.695144        -15.1301514       -0.739156326          50.279258
         14711.925      -0.836422534         56.5795916        -23.8790034        -21.8159997        -23.2119176        -21.8754297       -0.669772391         45.8641061
           14811.7      -0.761042764         52.7964696        -23.5111841        -31.6671383        -22.8749079        -27.3299294       -0.777299702         41.8248951
         14911.475      -0.904005798         48.2314297        -23.6759499        -33.9890275        -22.7834072        -34.7708578       -0.775370191         37.7114998
          15011.25      -0.849040504         44.0728765        -23.6194721        -44.0469364        -22.8886887         -40.016116       -0.875995637         33.5259244
         15111.025      -0.956651192         40.3597025         -23.327207        -48.4079927        -22.4738248        -49.2047091       -0.847905991         29.3560733
           15210.8      -0.960425383         35.9629039        -23.9392897        -54.0138505        -23.2967544        -50.8472554        -1.00880789         25.6630305
         15310.575       -1.04833973         32.2092752        -23.9330774         -63.447247         -22.450913        -65.1499644       -0.957576792         20.8428165
          15410.35       -1.08187693         27.8228314        -24.2312175         -66.080856        -23.4549235        -61.5737584        -1.08454093         17.3548519
         15510.125       -1.17475555          24.333621        -24.4482183        -78.2029214        -22.7519678         -81.079784        -1.00181044         12.5930855
           15609.9       -1.18069243         19.7659316          -24.08677        -77.8343762        -23.6204776        -74.1748507        -1.12936037         9.79918864
         15709.675       -1.19320971         16.5835753        -25.2024569         -90.375959        -22.9607117        -95.3925448        -1.07436899         4.27410761
          15809.45       -1.19957697         11.8193864        -24.2054629        -88.8063628        -23.5665451         -83.991339        -1.14623158         1.50853798
         15909.225        -1.1500526         9.15090485        -25.8534844        -100.905853        -23.4806385        -107.321518        -1.12494001        -3.80427774
             16009       -1.20830136         3.47655644        -24.8157365         -100.50769        -23.9335502        -95.6226842        -1.21445783        -6.83119314
         16108.775       -1.09282528         1.26721477        -27.0191464        -111.409836        -24.1623894        -117.289556         -1.2098714        -12.9613241
          16208.55       -1.16600446        -5.05991035        -25.9768494        -113.157186        -24.2820757        -108.241448        -1.25513827        -15.4525173
         16308.325      -0.997409852        -6.81192777        -28.1221476        -116.446775        -24.2333047        -126.807271        -1.30756769        -21.6440153
           16408.1       -1.01466023        -13.5562716        -27.5043085        -120.522204        -24.8249578        -119.441791        -1.37886009        -24.9738091
         16507.875      -0.689517152        -15.1455413        -31.4713663        -121.632846        -24.7063665        -132.667868        -1.20008696        -31.3686572
          16607.65      -0.364618876        -20.9233496        -34.9004817         -114.86531         -26.606037        -135.264522        -1.67096052        -30.7696575
         16707.425        1.11443186        -24.0193306        -24.3953748         26.2156564        -25.1857089        -136.705939        -1.18588347        -41.1989351
           16807.2       -3.69822261        -87.1670007        -12.8932576        -127.078203        -25.4490466        -125.401601        -1.24542719        -45.9689905
         16906.975       -2.02668824        -32.9245443        -21.1803063        -138.750715        -24.5962132        -142.016982        -1.58058113        -52.5847444
          17006.75       -3.06232419        -48.6013518        -21.5161148         -143.93742        -25.5681378        -132.569838        -1.56205428        -57.3543134
         17106.525       -1.38936239        -42.0912251        -22.7573081        -136.409759        -23.8933892        -139.103459        -1.70747519        -64.1041037
           17206.3       -2.95417835         -59.787952        -21.7170241        -146.255269        -25.4969279        -132.528523        -1.79430654         -70.227742
         17306.075      -0.824668229        -52.8267027        -21.6861886        -137.832979        -21.3178442        -142.560292        -1.89557074        -79.2027811
          17405.85       -3.31139834          -67.06663        -20.6294709        -150.400564        -23.5797005        -132.803411        -2.22905284        -86.0530255
         17505.625      -0.164074058        -64.7307816        -19.2020657         -138.65821        -18.1521564        -147.541952         -2.7005612        -97.1676357
           17605.4       -3.13753865        -76.8413784        -18.6840302        -154.372474        -20.8453237        -137.822083        -3.00449654         -107.51515
         17705.175       0.828138536        -78.2604991        -16.2508858        -151.131247        -13.7327017        -168.048428         -3.7412033        -122.226927
          17804.95       -2.95587883        -85.2790093        -15.3297755        -173.621461        -17.0163553        -152.019798        -5.27651126        -139.045835
         17904.725        2.79513825        -101.548052         -12.263148        -170.919571        -10.9105863         157.235598        -7.68882671        -158.463381
           18004.5       -1.47804114        -92.8264856        -14.2753886          156.07953        -14.0832684         178.898379        -10.7067678          171.64511
         18104.275        5.35691927        -154.337283        -8.06879424         143.308955        -12.1786364         100.543814        -16.1293813         129.061607
          18204.05        1.47271868         -122.90087        -13.1962336         127.880939        -11.6250822         144.790737        -13.9407036         53.6880234
         18303.825      -0.887464697         133.571566        -10.9459467         87.7088971        -14.1993809         96.3503416         -12.013077           15.18144
           18403.6     -0.0481383942        -176.734929        -14.5018559         87.9964287         -12.308188         97.4479661        -8.33541245        -12.2124074
         18503.375       -11.8150286         80.0245866        -15.0847712         63.1418783        -15.7803358         65.6219239        -7.25845353        -26.3964259
          18603.15       -3.60295725         153.173294        -17.5292072         71.6472187        -14.8837852         71.5957316        -6.03966033        -41.9999773
         18702.925       -21.4222407         -114.08195        -18.4959349         49.4965984        -19.0079929         48.8964298        -5.49745651        -51.3165374
           18802.7       -5.52288179         125.500633        -18.7945227          59.635928        -17.5347547         48.9489089        -5.08570032        -61.0602298
         18902.475        -13.203505         175.616165        -21.1013709         42.8608518        -21.6375865         43.9026355        -4.75842154        -69.8424969
          19002.25       -6.05332726         93.0342812        -21.0576611         45.3211965        -20.8061146         33.8131196        -4.42760126        -77.3597325
         19102.025       -10.9020947          117.72697        -24.2239636         42.7612256        -24.5078599         45.6375602        -4.32113169         -85.523882
           19201.8       -5.73863421         55.9841224        -23.4989171         49.7313836        -24.8877908         40.6223108        -4.29848706        -90.7658104
         19301.575       -9.17266834         64.6242942        -25.3655064          58.955251        -24.8290811         59.9568474        -4.38765424        -98.7620245
          19401.35        -5.3310939          22.629804        -23.4195646         60.9092045        -24.5183454         59.2733533        -4.24496308        -103.214895
         19501.125        -7.8408956         23.5309775        -23.2579382         67.1041745        -22.3030733         65.6845611        -4.43304149        -110.517179
           19600.9       -4.98163178        -6.36451971        -20.6969378          58.790926        -21.8149646         61.6217103        -4.34650646        -113.484881
         19700.675       -6.91123807        -7.25141255        -20.7015267         58.5173043        -20.2415775         52.9309909        -4.63522613        -120.605829
          19800.45       -4.86944042        -29.7000512        -18.8073041         46.6411172        -19.3860534         49.4512772         -4.5005829        -122.515097
         19900.225       -6.37712613        -30.5122834        -18.9366074         43.3670939        -18.9214163         38.6766913        -4.79501668        -129.347526
             20000       -4.66845196        -48.8270262        -17.7534554         30.6332466        -18.1063666         33.6364481        -4.54181018        -131.577446
