%!PS-Adobe-3.0
%%Creator: PCBNEW
%%CreationDate: Mon Feb 15 09:10:17 2016
%%Title: /media/c2m/HOG/Projet/LNA_ADL5611/PCB/LNA_ADL5611-F.Cu.ps
%%Pages: 1
%%PageOrder: Ascend
%%BoundingBox: 0 0 596 842
%%DocumentMedia: A4 595 842 0 () ()
%%Orientation: Landscape
%%EndComments
%%BeginProlog
/line { newpath moveto lineto stroke } bind def
/cir0 { newpath 0 360 arc stroke } bind def
/cir1 { newpath 0 360 arc gsave fill grestore stroke } bind def
/cir2 { newpath 0 360 arc gsave fill grestore stroke } bind def
/arc0 { newpath arc stroke } bind def
/arc1 { newpath 4 index 4 index moveto arc closepath gsave fill
    grestore stroke } bind def
/arc2 { newpath 4 index 4 index moveto arc closepath gsave fill
    grestore stroke } bind def
/poly0 { stroke } bind def
/poly1 { closepath gsave fill grestore stroke } bind def
/poly2 { closepath gsave fill grestore stroke } bind def
/rect0 { rectstroke } bind def
/rect1 { rectfill } bind def
/rect2 { rectfill } bind def
/linemode0 { 0 setlinecap 0 setlinejoin 0 setlinewidth } bind def
/linemode1 { 1 setlinecap 1 setlinejoin } bind def
/dashedline { [200] 100 setdash } bind def
/solidline { [] 0 setdash } bind def
/phantomshow { moveto
    /KicadFont findfont 0.000001 scalefont setfont
    show } bind def
/textshow { gsave
    findfont exch scalefont setfont concat 1 scale 0 0 moveto show
    } bind def
/reencodefont {
  findfont dup length dict begin
  { 1 index /FID ne
    { def }
    { pop pop } ifelse
  } forall
  /Encoding ISOLatin1Encoding def
  currentdict
  end } bind def
/KicadFont /Helvetica reencodefont definefont pop
/KicadFont-Bold /Helvetica-Bold reencodefont definefont pop
/KicadFont-Oblique /Helvetica-Oblique reencodefont definefont pop
/KicadFont-BoldOblique /Helvetica-BoldOblique reencodefont definefont pop
%%EndProlog
%%Page: 1 1
%%BeginPageSetup
gsave
0.0072 0.0072 scale
linemode1
82680 0 translate 90 rotate
39.3701 setlinewidth
%%EndPageSetup
0 0 0 setrgbcolor
0 0 0 setrgbcolor
73.8189 setlinewidth
newpath
15308.5 73118.1 moveto
15294.5 73104.1 lineto
15252.3 73090 lineto
15224.2 73090 lineto
15182 73104.1 lineto
15153.9 73132.2 lineto
15139.8 73160.3 lineto
15125.8 73216.6 lineto
15125.8 73258.8 lineto
15139.8 73315 lineto
15153.9 73343.1 lineto
15182 73371.2 lineto
15224.2 73385.3 lineto
15252.3 73385.3 lineto
15294.5 73371.2 lineto
15308.5 73357.2 lineto
stroke
newpath
15435.1 73090 moveto
15435.1 73385.3 lineto
stroke
newpath
15575.7 73090 moveto
15575.7 73385.3 lineto
15674.1 73174.4 lineto
15772.6 73385.3 lineto
15772.6 73090 lineto
stroke
newpath
15913.2 73244.7 moveto
16011.6 73244.7 lineto
stroke
newpath
16053.8 73090 moveto
15913.2 73090 lineto
15913.2 73385.3 lineto
16053.8 73385.3 lineto
stroke
newpath
16405.3 73090 moveto
16405.3 73385.3 lineto
16574 73090 lineto
16574 73385.3 lineto
stroke
newpath
16841.2 73090 moveto
16841.2 73244.7 lineto
16827.1 73272.8 lineto
16799 73286.9 lineto
16742.7 73286.9 lineto
16714.6 73272.8 lineto
stroke
newpath
16841.2 73104.1 moveto
16813 73090 lineto
16742.7 73090 lineto
16714.6 73104.1 lineto
16700.6 73132.2 lineto
16700.6 73160.3 lineto
16714.6 73188.5 lineto
16742.7 73202.5 lineto
16813 73202.5 lineto
16841.2 73216.6 lineto
stroke
newpath
16981.8 73286.9 moveto
16981.8 73090 lineto
stroke
newpath
16981.8 73258.8 moveto
16995.8 73272.8 lineto
17024 73286.9 lineto
17066.1 73286.9 lineto
17094.3 73272.8 lineto
17108.3 73244.7 lineto
17108.3 73090 lineto
stroke
newpath
17291.1 73090 moveto
17263 73104.1 lineto
17248.9 73118.1 lineto
17234.9 73146.3 lineto
17234.9 73230.6 lineto
17248.9 73258.8 lineto
17263 73272.8 lineto
17291.1 73286.9 lineto
17333.3 73286.9 lineto
17361.4 73272.8 lineto
17375.5 73258.8 lineto
17389.5 73230.6 lineto
17389.5 73146.3 lineto
17375.5 73118.1 lineto
17361.4 73104.1 lineto
17333.3 73090 lineto
17291.1 73090 lineto
stroke
newpath
17473.9 73286.9 moveto
17586.4 73286.9 lineto
stroke
newpath
17516.1 73385.3 moveto
17516.1 73132.2 lineto
17530.1 73104.1 lineto
17558.3 73090 lineto
17586.4 73090 lineto
stroke
newpath
17797.3 73104.1 moveto
17769.2 73090 lineto
17712.9 73090 lineto
17684.8 73104.1 lineto
17670.8 73132.2 lineto
17670.8 73244.7 lineto
17684.8 73272.8 lineto
17712.9 73286.9 lineto
17769.2 73286.9 lineto
17797.3 73272.8 lineto
17811.4 73244.7 lineto
17811.4 73216.6 lineto
17670.8 73188.5 lineto
stroke
newpath
18064.5 73104.1 moveto
18036.3 73090 lineto
17980.1 73090 lineto
17952 73104.1 lineto
17937.9 73118.1 lineto
17923.8 73146.3 lineto
17923.8 73230.6 lineto
17937.9 73258.8 lineto
17952 73272.8 lineto
17980.1 73286.9 lineto
18036.3 73286.9 lineto
18064.5 73272.8 lineto
stroke
newpath
18191 73090 moveto
18191 73385.3 lineto
stroke
newpath
18317.5 73090 moveto
18317.5 73244.7 lineto
18303.5 73272.8 lineto
18275.4 73286.9 lineto
18233.2 73286.9 lineto
18205.1 73272.8 lineto
18191 73258.8 lineto
stroke
newpath
18683.1 73202.5 moveto
18908.1 73202.5 lineto
stroke
newpath
19329.9 73385.3 moveto
19358 73385.3 lineto
19386.2 73371.2 lineto
19400.2 73357.2 lineto
19414.3 73329.1 lineto
19428.3 73272.8 lineto
19428.3 73202.5 lineto
19414.3 73146.3 lineto
19400.2 73118.1 lineto
19386.2 73104.1 lineto
19358 73090 lineto
19329.9 73090 lineto
19301.8 73104.1 lineto
19287.7 73118.1 lineto
19273.7 73146.3 lineto
19259.6 73202.5 lineto
19259.6 73272.8 lineto
19273.7 73329.1 lineto
19287.7 73357.2 lineto
19301.8 73371.2 lineto
19329.9 73385.3 lineto
stroke
newpath
19540.8 73357.2 moveto
19554.9 73371.2 lineto
19583 73385.3 lineto
19653.3 73385.3 lineto
19681.4 73371.2 lineto
19695.5 73357.2 lineto
19709.6 73329.1 lineto
19709.6 73300.9 lineto
19695.5 73258.8 lineto
19526.8 73090 lineto
19709.6 73090 lineto
stroke
newpath
20047 73399.4 moveto
19793.9 73019.7 lineto
stroke
newpath
20131.4 73357.2 moveto
20145.4 73371.2 lineto
20173.6 73385.3 lineto
20243.9 73385.3 lineto
20272 73371.2 lineto
20286.1 73357.2 lineto
20300.1 73329.1 lineto
20300.1 73300.9 lineto
20286.1 73258.8 lineto
20117.3 73090 lineto
20300.1 73090 lineto
stroke
newpath
20482.9 73385.3 moveto
20511 73385.3 lineto
20539.1 73371.2 lineto
20553.2 73357.2 lineto
20567.3 73329.1 lineto
20581.3 73272.8 lineto
20581.3 73202.5 lineto
20567.3 73146.3 lineto
20553.2 73118.1 lineto
20539.1 73104.1 lineto
20511 73090 lineto
20482.9 73090 lineto
20454.8 73104.1 lineto
20440.7 73118.1 lineto
20426.7 73146.3 lineto
20412.6 73202.5 lineto
20412.6 73272.8 lineto
20426.7 73329.1 lineto
20440.7 73357.2 lineto
20454.8 73371.2 lineto
20482.9 73385.3 lineto
stroke
newpath
20862.5 73090 moveto
20693.8 73090 lineto
stroke
newpath
20778.2 73090 moveto
20778.2 73385.3 lineto
20750.1 73343.1 lineto
20721.9 73315 lineto
20693.8 73300.9 lineto
stroke
newpath
21115.6 73385.3 moveto
21059.4 73385.3 lineto
21031.3 73371.2 lineto
21017.2 73357.2 lineto
20989.1 73315 lineto
20975 73258.8 lineto
20975 73146.3 lineto
20989.1 73118.1 lineto
21003.1 73104.1 lineto
21031.3 73090 lineto
21087.5 73090 lineto
21115.6 73104.1 lineto
21129.7 73118.1 lineto
21143.8 73146.3 lineto
21143.8 73216.6 lineto
21129.7 73244.7 lineto
21115.6 73258.8 lineto
21087.5 73272.8 lineto
21031.3 73272.8 lineto
21003.1 73258.8 lineto
20989.1 73244.7 lineto
20975 73216.6 lineto
stroke
newpath
16560 72602.8 moveto
16419.3 72602.8 lineto
16419.3 72898.1 lineto
stroke
newpath
16658.4 72602.8 moveto
16658.4 72898.1 lineto
16827.1 72602.8 lineto
16827.1 72898.1 lineto
stroke
newpath
16953.7 72687.2 moveto
17094.3 72687.2 lineto
stroke
newpath
16925.5 72602.8 moveto
17024 72898.1 lineto
17122.4 72602.8 lineto
stroke
newpath
17431.7 72687.2 moveto
17572.3 72687.2 lineto
stroke
newpath
17403.6 72602.8 moveto
17502 72898.1 lineto
17600.4 72602.8 lineto
stroke
newpath
17698.9 72602.8 moveto
17698.9 72898.1 lineto
17769.2 72898.1 lineto
17811.4 72884 lineto
17839.5 72855.9 lineto
17853.5 72827.8 lineto
17867.6 72771.5 lineto
17867.6 72729.4 lineto
17853.5 72673.1 lineto
17839.5 72645 lineto
17811.4 72616.9 lineto
17769.2 72602.8 lineto
17698.9 72602.8 lineto
stroke
newpath
18134.8 72602.8 moveto
17994.1 72602.8 lineto
17994.1 72898.1 lineto
stroke
newpath
18373.8 72898.1 moveto
18233.2 72898.1 lineto
18219.1 72757.5 lineto
18233.2 72771.5 lineto
18261.3 72785.6 lineto
18331.6 72785.6 lineto
18359.7 72771.5 lineto
18373.8 72757.5 lineto
18387.9 72729.4 lineto
18387.9 72659.1 lineto
18373.8 72630.9 lineto
18359.7 72616.9 lineto
18331.6 72602.8 lineto
18261.3 72602.8 lineto
18233.2 72616.9 lineto
18219.1 72630.9 lineto
stroke
newpath
18640.9 72898.1 moveto
18584.7 72898.1 lineto
18556.6 72884 lineto
18542.5 72870 lineto
18514.4 72827.8 lineto
18500.3 72771.5 lineto
18500.3 72659.1 lineto
18514.4 72630.9 lineto
18528.5 72616.9 lineto
18556.6 72602.8 lineto
18612.8 72602.8 lineto
18640.9 72616.9 lineto
18655 72630.9 lineto
18669.1 72659.1 lineto
18669.1 72729.4 lineto
18655 72757.5 lineto
18640.9 72771.5 lineto
18612.8 72785.6 lineto
18556.6 72785.6 lineto
18528.5 72771.5 lineto
18514.4 72757.5 lineto
18500.3 72729.4 lineto
stroke
newpath
18950.3 72602.8 moveto
18781.6 72602.8 lineto
stroke
newpath
18865.9 72602.8 moveto
18865.9 72898.1 lineto
18837.8 72855.9 lineto
18809.7 72827.8 lineto
18781.6 72813.7 lineto
stroke
newpath
19231.5 72602.8 moveto
19062.8 72602.8 lineto
stroke
newpath
19147.1 72602.8 moveto
19147.1 72898.1 lineto
19119 72855.9 lineto
19090.9 72827.8 lineto
19062.8 72813.7 lineto
stroke
newpath
19583 72715.3 moveto
19808 72715.3 lineto
stroke
newpath
20131.4 72898.1 moveto
20229.8 72602.8 lineto
20328.2 72898.1 lineto
stroke
newpath
20426.7 72630.9 moveto
20440.7 72616.9 lineto
20426.7 72602.8 lineto
20412.6 72616.9 lineto
20426.7 72630.9 lineto
20426.7 72602.8 lineto
stroke
newpath
20721.9 72602.8 moveto
20553.2 72602.8 lineto
stroke
newpath
20637.6 72602.8 moveto
20637.6 72898.1 lineto
20609.4 72855.9 lineto
20581.3 72827.8 lineto
20553.2 72813.7 lineto
stroke
newpath
20848.5 72630.9 moveto
20862.5 72616.9 lineto
20848.5 72602.8 lineto
20834.4 72616.9 lineto
20848.5 72630.9 lineto
20848.5 72602.8 lineto
stroke
newpath
21129.7 72898.1 moveto
20989.1 72898.1 lineto
20975 72757.5 lineto
20989.1 72771.5 lineto
21017.2 72785.6 lineto
21087.5 72785.6 lineto
21115.6 72771.5 lineto
21129.7 72757.5 lineto
21143.8 72729.4 lineto
21143.8 72659.1 lineto
21129.7 72630.9 lineto
21115.6 72616.9 lineto
21087.5 72602.8 lineto
21017.2 72602.8 lineto
20989.1 72616.9 lineto
20975 72630.9 lineto
stroke
0 0 0 setrgbcolor
0 setlinewidth
newpath
18610.2 68627.6 moveto
18610.2 68332.4 lineto
18137.8 68332.4 lineto
18137.8 68627.6 lineto
18610.2 68627.6 lineto
poly1
0 0 0 setrgbcolor
newpath
17862.2 68627.6 moveto
17862.2 68332.4 lineto
17389.8 68332.4 lineto
17389.8 68627.6 lineto
17862.2 68627.6 lineto
poly1
0 0 0 setrgbcolor
newpath
9940.94 65750.9 moveto
9940.94 65947.7 lineto
10728.3 65947.7 lineto
10728.3 65750.9 lineto
9940.94 65750.9 lineto
poly1
0 0 0 setrgbcolor
newpath
9940.94 63979.2 moveto
9940.94 64372.9 lineto
11909.4 64372.9 lineto
11909.4 63979.2 lineto
9940.94 63979.2 lineto
poly1
0 0 0 setrgbcolor
newpath
9940.94 67325.7 moveto
9940.94 67719.4 lineto
11909.4 67719.4 lineto
11909.4 67325.7 lineto
9940.94 67325.7 lineto
poly1
0 0 0 setrgbcolor
newpath
21259.8 65947.7 moveto
21259.8 65750.9 lineto
20472.4 65750.9 lineto
20472.4 65947.7 lineto
21259.8 65947.7 lineto
poly1
0 0 0 setrgbcolor
newpath
21259.8 67719.4 moveto
21259.8 67325.7 lineto
19291.3 67325.7 lineto
19291.3 67719.4 lineto
21259.8 67719.4 lineto
poly1
0 0 0 setrgbcolor
newpath
21259.8 64372.9 moveto
21259.8 63979.2 lineto
19291.3 63979.2 lineto
19291.3 64372.9 lineto
21259.8 64372.9 lineto
poly1
0 0 0 setrgbcolor
newpath
13852 66182.4 moveto
13852 65552.4 lineto
13064.6 65552.4 lineto
13064.6 66182.4 lineto
13852 66182.4 lineto
poly1
0 0 0 setrgbcolor
newpath
12277.2 66182.4 moveto
12277.2 65552.4 lineto
11489.8 65552.4 lineto
11489.8 66182.4 lineto
12277.2 66182.4 lineto
poly1
0 0 0 setrgbcolor
newpath
19757.5 66182.4 moveto
19757.5 65552.4 lineto
18970.1 65552.4 lineto
18970.1 66182.4 lineto
19757.5 66182.4 lineto
poly1
0 0 0 setrgbcolor
newpath
18182.7 66182.4 moveto
18182.7 65552.4 lineto
17395.3 65552.4 lineto
17395.3 66182.4 lineto
18182.7 66182.4 lineto
poly1
0 0 0 setrgbcolor
newpath
18887.4 69526.1 moveto
18887.4 69033.9 lineto
18296.9 69033.9 lineto
18296.9 69526.1 lineto
18887.4 69526.1 lineto
poly1
0 0 0 setrgbcolor
newpath
17903.1 69526.1 moveto
17903.1 69033.9 lineto
17312.6 69033.9 lineto
17312.6 69526.1 lineto
17903.1 69526.1 lineto
poly1
0 0 0 setrgbcolor
newpath
17364 67422 moveto
17836 67422 lineto
17836 67186 lineto
17364 67186 lineto
17364 67422 lineto
poly1
0 0 0 setrgbcolor
newpath
17364 67974 moveto
17836 67974 lineto
17836 67738 lineto
17364 67738 lineto
17364 67974 lineto
poly1
0 0 0 setrgbcolor
newpath
13484.3 69392.6 moveto
12500 69392.6 lineto
12500 70180 lineto
13484.3 70180 lineto
13484.3 69392.6 lineto
poly1
0 0 0 setrgbcolor
newpath
13484.3 70967.4 moveto
12500 70967.4 lineto
12500 71754.8 lineto
13484.3 71754.8 lineto
13484.3 70967.4 lineto
poly1
0 0 0 setrgbcolor
newpath
14835.6 65433.2 moveto
14835.6 66418.2 lineto
15229.6 66418.2 lineto
15229.6 65433.2 lineto
14835.6 65433.2 lineto
poly1
0 0 0 setrgbcolor
newpath
15426.6 65433.2 moveto
15426.6 66418.2 lineto
15820.6 66418.2 lineto
15820.6 65433.2 lineto
15426.6 65433.2 lineto
poly1
0 0 0 setrgbcolor
newpath
16017.6 65433.2 moveto
16017.6 66418.2 lineto
16411.6 66418.2 lineto
16411.6 65433.2 lineto
16017.6 65433.2 lineto
poly1
0 0 0 setrgbcolor
newpath
15230.1 66694.2 moveto
15230.1 68269.2 lineto
16017.1 68269.2 lineto
16017.1 66694.2 lineto
15230.1 66694.2 lineto
poly1
0 0 0 setrgbcolor
newpath
16017.6 66704.2 moveto
15820.6 66409.2 lineto
15426.6 66409.2 lineto
15229.6 66704.2 lineto
16017.6 66704.2 lineto
poly1
0 0 0 setrgbcolor
newpath
13935.8 71164.9 moveto
14920.8 71164.9 lineto
14920.8 70770.9 lineto
13935.8 70770.9 lineto
13935.8 71164.9 lineto
poly1
0 0 0 setrgbcolor
newpath
13935.8 70573.9 moveto
14920.8 70573.9 lineto
14920.8 70179.9 lineto
13935.8 70179.9 lineto
13935.8 70573.9 lineto
poly1
0 0 0 setrgbcolor
newpath
13935.8 69982.9 moveto
14920.8 69982.9 lineto
14920.8 69588.9 lineto
13935.8 69588.9 lineto
13935.8 69982.9 lineto
poly1
0 0 0 setrgbcolor
newpath
15196.8 70770.4 moveto
16771.8 70770.4 lineto
16771.8 69983.4 lineto
15196.8 69983.4 lineto
15196.8 70770.4 lineto
poly1
0 0 0 setrgbcolor
newpath
15206.8 69982.9 moveto
14911.8 70179.9 lineto
14911.8 70573.9 lineto
15206.8 70770.9 lineto
15206.8 69982.9 lineto
poly1
0 0 0 setrgbcolor
newpath
12007.9 68998.9 moveto
10433.1 68998.9 lineto
10433.1 70573.7 lineto
12007.9 70573.7 lineto
12007.9 68998.9 lineto
poly1
0 0 0 setrgbcolor
11220.5 71754.8 393.701 cir1
39.3701 setlinewidth
0 0 0 setrgbcolor
0 setlinewidth
newpath
19586.6 70691.8 moveto
19586.6 70061.9 lineto
18799.2 70061.9 lineto
18799.2 70691.8 lineto
19586.6 70691.8 lineto
poly1
0 0 0 setrgbcolor
newpath
18011.8 70691.8 moveto
18011.8 70061.9 lineto
17224.4 70061.9 lineto
17224.4 70691.8 lineto
18011.8 70691.8 lineto
poly1
0 0 0 setrgbcolor
16437 66833.5 118.11 cir1
39.3701 setlinewidth
0 0 0 setrgbcolor
0 setlinewidth
17126 66833.5 118.11 cir1
39.3701 setlinewidth
0 0 0 setrgbcolor
0 setlinewidth
19389.8 64963.5 118.11 cir1
39.3701 setlinewidth
0 0 0 setrgbcolor
0 setlinewidth
18110.2 64963.5 118.11 cir1
39.3701 setlinewidth
0 0 0 setrgbcolor
0 setlinewidth
17027.6 64963.5 118.11 cir1
39.3701 setlinewidth
0 0 0 setrgbcolor
0 setlinewidth
15748 64963.5 118.11 cir1
39.3701 setlinewidth
0 0 0 setrgbcolor
0 setlinewidth
14763.8 64963.5 118.11 cir1
39.3701 setlinewidth
0 0 0 setrgbcolor
0 setlinewidth
20570.9 64963.5 118.11 cir1
39.3701 setlinewidth
0 0 0 setrgbcolor
0 setlinewidth
10629.9 64963.5 118.11 cir1
39.3701 setlinewidth
0 0 0 setrgbcolor
0 setlinewidth
11712.6 64963.5 118.11 cir1
39.3701 setlinewidth
0 0 0 setrgbcolor
0 setlinewidth
12795.3 64963.5 118.11 cir1
39.3701 setlinewidth
0 0 0 setrgbcolor
0 setlinewidth
13779.5 64963.5 118.11 cir1
39.3701 setlinewidth
0 0 0 setrgbcolor
0 setlinewidth
19389.8 66833.5 118.11 cir1
39.3701 setlinewidth
0 0 0 setrgbcolor
0 setlinewidth
18307.1 66833.5 118.11 cir1
39.3701 setlinewidth
0 0 0 setrgbcolor
0 setlinewidth
20570.9 66833.5 118.11 cir1
39.3701 setlinewidth
0 0 0 setrgbcolor
0 setlinewidth
13779.5 66833.5 118.11 cir1
39.3701 setlinewidth
0 0 0 setrgbcolor
0 setlinewidth
12795.3 66833.5 118.11 cir1
39.3701 setlinewidth
0 0 0 setrgbcolor
0 setlinewidth
11712.6 66833.5 118.11 cir1
39.3701 setlinewidth
0 0 0 setrgbcolor
0 setlinewidth
10629.9 66833.5 118.11 cir1
39.3701 setlinewidth
0 0 0 setrgbcolor
0 setlinewidth
14665.4 66833.5 118.11 cir1
39.3701 setlinewidth
0 0 0 setrgbcolor
196.85 setlinewidth
newpath
13458.3 65867.4 moveto
14974.4 65867.4 lineto
stroke
0 0 0 setrgbcolor
newpath
14974.4 65867.4 moveto
15032.6 65925.7 lineto
stroke
0 0 0 setrgbcolor
newpath
10111.8 65867.4 moveto
11883.5 65867.4 lineto
stroke
0 0 0 setrgbcolor
newpath
19363.8 65867.4 moveto
21135.4 65867.4 lineto
stroke
0 0 0 setrgbcolor
newpath
16214.6 65925.7 moveto
17730.7 65925.7 lineto
stroke
0 0 0 setrgbcolor
newpath
17730.7 65925.7 moveto
17789 65867.4 lineto
stroke
0 0 0 setrgbcolor
newpath
17600 67304 moveto
17600 66056.4 lineto
stroke
0 0 0 setrgbcolor
newpath
17600 66056.4 moveto
17789 65867.4 lineto
stroke
0 0 0 setrgbcolor
newpath
15623.6 65925.7 moveto
15623.6 65087.9 lineto
stroke
0 0 0 setrgbcolor
newpath
15623.6 65087.9 moveto
15748 64963.5 lineto
stroke
0 0 0 setrgbcolor
newpath
17126 66833.5 moveto
16437 66833.5 lineto
stroke
0 0 0 setrgbcolor
newpath
16437 66833.5 moveto
15977.9 67481.7 lineto
stroke
0 0 0 setrgbcolor
newpath
14763.8 64963.5 moveto
13779.5 64963.5 lineto
stroke
0 0 0 setrgbcolor
newpath
19389.8 64963.5 moveto
18110.2 64963.5 lineto
stroke
0 0 0 setrgbcolor
newpath
17027.6 64963.5 moveto
15748 64963.5 lineto
stroke
0 0 0 setrgbcolor
newpath
20544.9 64194.2 moveto
20570.9 64963.5 lineto
stroke
0 0 0 setrgbcolor
newpath
10702.4 64891 moveto
10702.4 64194.2 lineto
stroke
0 0 0 setrgbcolor
newpath
10629.9 64963.5 moveto
10702.4 64891 lineto
stroke
0 0 0 setrgbcolor
newpath
12795.3 64963.5 moveto
11712.6 64963.5 lineto
stroke
0 0 0 setrgbcolor
newpath
20570.9 66835.1 moveto
19389.8 66833.5 lineto
stroke
0 0 0 setrgbcolor
newpath
18307.1 66833.5 moveto
18582.7 67168.2 lineto
stroke
0 0 0 setrgbcolor
newpath
20544.9 67540.6 moveto
20570.9 66835.1 lineto
stroke
0 0 0 setrgbcolor
newpath
20570.9 66835.1 moveto
20570.9 66833.5 lineto
stroke
0 0 0 setrgbcolor
newpath
14671.7 66839.8 moveto
13784.3 66838.3 lineto
stroke
0 0 0 setrgbcolor
newpath
13784.3 66838.3 moveto
13779.5 66833.5 lineto
stroke
0 0 0 setrgbcolor
newpath
12795.3 66833.5 moveto
11712.6 66833.5 lineto
stroke
0 0 0 setrgbcolor
newpath
10629.9 66833.5 moveto
10702.4 66906 lineto
stroke
0 0 0 setrgbcolor
newpath
10702.4 66906 moveto
10702.4 67540.6 lineto
stroke
0 0 0 setrgbcolor
newpath
15269.4 67481.7 moveto
14671.7 66839.8 lineto
stroke
0 0 0 setrgbcolor
newpath
14671.7 66839.8 moveto
14665.4 66833.5 lineto
stroke
0 0 0 setrgbcolor
newpath
15623.6 67481.7 moveto
15977.9 67481.7 lineto
stroke
0 0 0 setrgbcolor
newpath
15623.6 67481.7 moveto
15269.4 67481.7 lineto
stroke
0 0 0 setrgbcolor
newpath
15984.3 70376.9 moveto
17618.1 70376.9 lineto
stroke
0 0 0 setrgbcolor
newpath
14511 70459.5 moveto
14526.8 70475.3 lineto
stroke
0 0 0 setrgbcolor
newpath
17519.7 70475.3 moveto
17618.1 70376.9 lineto
stroke
0 0 0 setrgbcolor
newpath
17626 68480 moveto
17626 69261.9 lineto
stroke
0 0 0 setrgbcolor
newpath
17626 69261.9 moveto
17607.9 69280 lineto
stroke
0 0 0 setrgbcolor
newpath
17626 68480 moveto
17626 67882 lineto
stroke
0 0 0 setrgbcolor
newpath
17626 67882 moveto
17600 67856 lineto
stroke
0 0 0 setrgbcolor
newpath
17607.9 69280 moveto
17607.9 67863.9 lineto
stroke
0 0 0 setrgbcolor
newpath
17607.9 67863.9 moveto
17600 67856 lineto
stroke
0 0 0 setrgbcolor
newpath
17626 67882 moveto
17600 67856 lineto
stroke
0 0 0 setrgbcolor
newpath
17607.9 68498.1 moveto
17626 68480 lineto
stroke
0 0 0 setrgbcolor
newpath
17607.9 70180 moveto
17607.9 69280 lineto
stroke
0 0 0 setrgbcolor
newpath
17592.1 69312.3 moveto
17600 69304.4 lineto
stroke
0 0 0 setrgbcolor
newpath
17592.1 67863.9 moveto
17600 67856 lineto
stroke
0 0 0 setrgbcolor
newpath
11220.5 69786.3 moveto
12992.1 69786.3 lineto
stroke
0 0 0 setrgbcolor
newpath
12992.1 69786.3 moveto
12992.6 69785.9 lineto
stroke
0 0 0 setrgbcolor
newpath
12992.6 69785.9 moveto
14428.3 69785.9 lineto
stroke
0 0 0 setrgbcolor
100 setlinewidth
newpath
12227.2 65523.7 moveto
9768.11 65523.7 lineto
9768.11 66211.1 lineto
12227.2 66211.1 lineto
12227.2 65523.7 lineto
poly1
0 0 0 setrgbcolor
newpath
15171.7 65523.7 moveto
13114.6 65523.7 lineto
13114.6 66211.1 lineto
15171.7 66211.1 lineto
15171.7 65523.7 lineto
poly1
0 0 0 setrgbcolor
newpath
18132.7 65523.7 moveto
16075.5 65523.7 lineto
16075.5 66211.1 lineto
18132.7 66211.1 lineto
18132.7 65523.7 lineto
poly1
0 0 0 setrgbcolor
newpath
21479.1 65523.7 moveto
19020.1 65523.7 lineto
19020.1 66211.1 lineto
21479.1 66211.1 lineto
21479.1 65523.7 lineto
poly1
0 0 0 setrgbcolor
newpath
15765.9 65433.2 moveto
15766.9 65427.9 lineto
15766.9 65316.2 lineto
15770.9 65296.8 lineto
15782.1 65280.4 lineto
15798.8 65269.6 lineto
15816.9 65266.2 lineto
15831.7 65266.2 lineto
15837.2 65257.7 lineto
15919.7 65201.3 lineto
16017.6 65181.5 lineto
16411.6 65181.5 lineto
16503.1 65198.7 lineto
16587.1 65252.7 lineto
16596.3 65266.2 lineto
21479.1 65266.2 lineto
21479.1 61980.4 lineto
9768.11 61980.4 lineto
9768.11 65266.2 lineto
14649.7 65266.2 lineto
14655.2 65257.7 lineto
14737.7 65201.3 lineto
14835.6 65181.5 lineto
15229.6 65181.5 lineto
15321.1 65198.7 lineto
15405.1 65252.7 lineto
15414.3 65266.2 lineto
15433.1 65266.2 lineto
15452.5 65270.2 lineto
15468.9 65281.4 lineto
15479.7 65298 lineto
15483.1 65316.2 lineto
15483.1 65572.9 lineto
15765.9 65572.9 lineto
15765.9 65433.2 lineto
poly1
0 0 0 setrgbcolor
newpath
9768.11 73691.4 moveto
14785.8 73691.4 lineto
stroke
newpath
9768.11 73611.4 moveto
14785.8 73611.4 lineto
stroke
newpath
9768.11 73531.4 moveto
14785.8 73531.4 lineto
stroke
newpath
9768.11 73451.4 moveto
14785.8 73451.4 lineto
stroke
newpath
9768.11 73371.4 moveto
14785.8 73371.4 lineto
stroke
newpath
9768.11 73291.4 moveto
14785.8 73291.4 lineto
stroke
newpath
9768.11 73211.4 moveto
14785.8 73211.4 lineto
stroke
newpath
9768.11 73131.4 moveto
14785.8 73131.4 lineto
stroke
newpath
9768.11 73051.4 moveto
14785.8 73051.4 lineto
stroke
newpath
9768.11 72971.4 moveto
14785.8 72971.4 lineto
stroke
newpath
9768.11 72891.4 moveto
14785.8 72891.4 lineto
stroke
newpath
9768.11 72811.4 moveto
14785.8 72811.4 lineto
stroke
newpath
9768.11 72731.4 moveto
14785.8 72731.4 lineto
stroke
newpath
9768.11 72651.4 moveto
14785.8 72651.4 lineto
stroke
newpath
9768.11 72571.4 moveto
14785.8 72571.4 lineto
stroke
newpath
9768.11 72491.4 moveto
14785.8 72491.4 lineto
stroke
newpath
9768.11 72411.4 moveto
14785.8 72411.4 lineto
stroke
newpath
9768.11 72331.4 moveto
14785.8 72331.4 lineto
stroke
newpath
9768.11 72251.4 moveto
14785.8 72251.4 lineto
stroke
newpath
9768.11 72171.4 moveto
21479.1 72171.4 lineto
stroke
newpath
9768.11 72091.4 moveto
21479.1 72091.4 lineto
stroke
newpath
9768.11 72011.4 moveto
21479.1 72011.4 lineto
stroke
newpath
9768.11 71931.4 moveto
21479.1 71931.4 lineto
stroke
newpath
9768.11 71851.4 moveto
21479.1 71851.4 lineto
stroke
newpath
9768.11 71771.4 moveto
21479.1 71771.4 lineto
stroke
newpath
9768.11 71691.4 moveto
21479.1 71691.4 lineto
stroke
newpath
9768.11 71611.4 moveto
21479.1 71611.4 lineto
stroke
newpath
9768.11 71531.4 moveto
21479.1 71531.4 lineto
stroke
newpath
9768.11 71451.4 moveto
21479.1 71451.4 lineto
stroke
newpath
9768.11 71371.4 moveto
21479.1 71371.4 lineto
stroke
newpath
9768.11 71291.4 moveto
21479.1 71291.4 lineto
stroke
newpath
9768.11 71211.4 moveto
21479.1 71211.4 lineto
stroke
newpath
9768.11 71131.4 moveto
21479.1 71131.4 lineto
stroke
newpath
9768.11 71051.4 moveto
21479.1 71051.4 lineto
stroke
newpath
9768.11 70971.4 moveto
15053.4 70971.4 lineto
stroke
newpath
16914.8 70971.4 moveto
21479.1 70971.4 lineto
stroke
newpath
9768.11 70891.4 moveto
14934.2 70891.4 lineto
stroke
newpath
16987.3 70891.4 moveto
17078.7 70891.4 lineto
stroke
newpath
18156.9 70891.4 moveto
21479.1 70891.4 lineto
stroke
newpath
9768.11 70811.4 moveto
10358.8 70811.4 lineto
stroke
newpath
12076.9 70811.4 moveto
13860.8 70811.4 lineto
stroke
newpath
18228.2 70811.4 moveto
21479.1 70811.4 lineto
stroke
newpath
9768.11 70731.4 moveto
10242.1 70731.4 lineto
stroke
newpath
12199.7 70731.4 moveto
13744.7 70731.4 lineto
stroke
newpath
18256 70731.4 moveto
21479.1 70731.4 lineto
stroke
newpath
9768.11 70651.4 moveto
10197.1 70651.4 lineto
stroke
newpath
12244.9 70651.4 moveto
13699.9 70651.4 lineto
stroke
newpath
18263.5 70651.4 moveto
21479.1 70651.4 lineto
stroke
newpath
9768.11 70571.4 moveto
10181.4 70571.4 lineto
stroke
newpath
12259.6 70571.4 moveto
13684.1 70571.4 lineto
stroke
newpath
18263.5 70571.4 moveto
21479.1 70571.4 lineto
stroke
newpath
9768.11 70491.4 moveto
10181.4 70491.4 lineto
stroke
newpath
12259.6 70491.4 moveto
13684.1 70491.4 lineto
stroke
newpath
18263.5 70491.4 moveto
21479.1 70491.4 lineto
stroke
newpath
9768.11 70411.4 moveto
10181.4 70411.4 lineto
stroke
newpath
12259.6 70411.4 moveto
12403.8 70411.4 lineto
stroke
newpath
13582.8 70411.4 moveto
13684.1 70411.4 lineto
stroke
newpath
18263.5 70411.4 moveto
21479.1 70411.4 lineto
stroke
newpath
9768.11 70331.4 moveto
10181.4 70331.4 lineto
stroke
newpath
12259.6 70331.4 moveto
12304.7 70331.4 lineto
stroke
newpath
13680.2 70331.4 moveto
13684.1 70331.4 lineto
stroke
newpath
18263.5 70331.4 moveto
21479.1 70331.4 lineto
stroke
newpath
9768.11 70251.4 moveto
10181.4 70251.4 lineto
stroke
newpath
12259.6 70251.4 moveto
12262.8 70251.4 lineto
stroke
newpath
18263.5 70251.4 moveto
21479.1 70251.4 lineto
stroke
newpath
9768.11 70171.4 moveto
10181.4 70171.4 lineto
stroke
newpath
18263.5 70171.4 moveto
21479.1 70171.4 lineto
stroke
newpath
9768.11 70091.4 moveto
10181.4 70091.4 lineto
stroke
newpath
18263.5 70091.4 moveto
21479.1 70091.4 lineto
stroke
newpath
9768.11 70011.4 moveto
10181.4 70011.4 lineto
stroke
newpath
18253.3 70011.4 moveto
21479.1 70011.4 lineto
stroke
newpath
9768.11 69931.4 moveto
10181.4 69931.4 lineto
stroke
newpath
17013 69931.4 moveto
17015 69931.4 lineto
stroke
newpath
18221.4 69931.4 moveto
21479.1 69931.4 lineto
stroke
newpath
9768.11 69851.4 moveto
10181.4 69851.4 lineto
stroke
newpath
16980.4 69851.4 moveto
17095.2 69851.4 lineto
stroke
newpath
18140.6 69851.4 moveto
21479.1 69851.4 lineto
stroke
newpath
9768.11 69771.4 moveto
10181.4 69771.4 lineto
stroke
newpath
16898.3 69771.4 moveto
17262.6 69771.4 lineto
stroke
newpath
17953.1 69771.4 moveto
21479.1 69771.4 lineto
stroke
newpath
9768.11 69691.4 moveto
10181.4 69691.4 lineto
stroke
newpath
15172.5 69691.4 moveto
17126.8 69691.4 lineto
stroke
newpath
18090.1 69691.4 moveto
21479.1 69691.4 lineto
stroke
newpath
9768.11 69611.4 moveto
10181.4 69611.4 lineto
stroke
newpath
15172.5 69611.4 moveto
17078.2 69611.4 lineto
stroke
newpath
18138.8 69611.4 moveto
21479.1 69611.4 lineto
stroke
newpath
9768.11 69531.4 moveto
10181.4 69531.4 lineto
stroke
newpath
15160.9 69531.4 moveto
17062 69531.4 lineto
stroke
newpath
18153.8 69531.4 moveto
21479.1 69531.4 lineto
stroke
newpath
9768.11 69451.4 moveto
10181.4 69451.4 lineto
stroke
newpath
15125.7 69451.4 moveto
17060.9 69451.4 lineto
stroke
newpath
18154.8 69451.4 moveto
21479.1 69451.4 lineto
stroke
newpath
9768.11 69371.4 moveto
10181.4 69371.4 lineto
stroke
newpath
13731.6 69371.4 moveto
13816.8 69371.4 lineto
stroke
newpath
15038.8 69371.4 moveto
17060.9 69371.4 lineto
stroke
newpath
18154.8 69371.4 moveto
21479.1 69371.4 lineto
stroke
newpath
9768.11 69291.4 moveto
10181.4 69291.4 lineto
stroke
newpath
12259.6 69291.4 moveto
12271.8 69291.4 lineto
stroke
newpath
13713.9 69291.4 moveto
17060.9 69291.4 lineto
stroke
newpath
18154.8 69291.4 moveto
21479.1 69291.4 lineto
stroke
newpath
9768.11 69211.4 moveto
10181.4 69211.4 lineto
stroke
newpath
12259.6 69211.4 moveto
12327.9 69211.4 lineto
stroke
newpath
13658.5 69211.4 moveto
17060.9 69211.4 lineto
stroke
newpath
18154.8 69211.4 moveto
21479.1 69211.4 lineto
stroke
newpath
9768.11 69131.4 moveto
10181.4 69131.4 lineto
stroke
newpath
12259.6 69131.4 moveto
17060.9 69131.4 lineto
stroke
newpath
18154.8 69131.4 moveto
21479.1 69131.4 lineto
stroke
newpath
9768.11 69051.4 moveto
10181.4 69051.4 lineto
stroke
newpath
12259.6 69051.4 moveto
17060.9 69051.4 lineto
stroke
newpath
18154.8 69051.4 moveto
21479.1 69051.4 lineto
stroke
newpath
9768.11 68971.4 moveto
10186.6 68971.4 lineto
stroke
newpath
12254 68971.4 moveto
17072.7 68971.4 lineto
stroke
newpath
18142.2 68971.4 moveto
21479.1 68971.4 lineto
stroke
newpath
9768.11 68891.4 moveto
10208.9 68891.4 lineto
stroke
newpath
12233.2 68891.4 moveto
17111 68891.4 lineto
stroke
newpath
18104.5 68891.4 moveto
21479.1 68891.4 lineto
stroke
newpath
9768.11 68811.4 moveto
10270.2 68811.4 lineto
stroke
newpath
12172.4 68811.4 moveto
17201 68811.4 lineto
stroke
newpath
18030.5 68811.4 moveto
21479.1 68811.4 lineto
stroke
newpath
9768.11 68731.4 moveto
17161.9 68731.4 lineto
stroke
newpath
18088.8 68731.4 moveto
21479.1 68731.4 lineto
stroke
newpath
9768.11 68651.4 moveto
17142.9 68651.4 lineto
stroke
newpath
18109.4 68651.4 moveto
21479.1 68651.4 lineto
stroke
newpath
9768.11 68571.4 moveto
17138.1 68571.4 lineto
stroke
newpath
18113.9 68571.4 moveto
21479.1 68571.4 lineto
stroke
newpath
9768.11 68491.4 moveto
17138.1 68491.4 lineto
stroke
newpath
18113.9 68491.4 moveto
21479.1 68491.4 lineto
stroke
newpath
9768.11 68411.4 moveto
17138.1 68411.4 lineto
stroke
newpath
18113.9 68411.4 moveto
21479.1 68411.4 lineto
stroke
newpath
9768.11 68331.4 moveto
17138.3 68331.4 lineto
stroke
newpath
18113.7 68331.4 moveto
21479.1 68331.4 lineto
stroke
newpath
9768.11 68251.4 moveto
17153.3 68251.4 lineto
stroke
newpath
18097.5 68251.4 moveto
21479.1 68251.4 lineto
stroke
newpath
9768.11 68171.4 moveto
17200 68171.4 lineto
stroke
newpath
18051 68171.4 moveto
21479.1 68171.4 lineto
stroke
newpath
9768.11 68091.4 moveto
17145.5 68091.4 lineto
stroke
newpath
18053.8 68091.4 moveto
21479.1 68091.4 lineto
stroke
newpath
9768.11 68011.4 moveto
17119.9 68011.4 lineto
stroke
newpath
18080.6 68011.4 moveto
21479.1 68011.4 lineto
stroke
newpath
9768.11 67931.4 moveto
17112.3 67931.4 lineto
stroke
newpath
18087.7 67931.4 moveto
21479.1 67931.4 lineto
stroke
newpath
9768.11 67851.4 moveto
17112.3 67851.4 lineto
stroke
newpath
18087.7 67851.4 moveto
21479.1 67851.4 lineto
stroke
newpath
9768.11 67771.4 moveto
17112.3 67771.4 lineto
stroke
newpath
18087.7 67771.4 moveto
21479.1 67771.4 lineto
stroke
newpath
9768.11 67691.4 moveto
17121.1 67691.4 lineto
stroke
newpath
18078.3 67691.4 moveto
21479.1 67691.4 lineto
stroke
newpath
9768.11 67611.4 moveto
17152.1 67611.4 lineto
stroke
newpath
18048.3 67611.4 moveto
21479.1 67611.4 lineto
stroke
newpath
9768.11 67531.4 moveto
17140 67531.4 lineto
stroke
newpath
18058.9 67531.4 moveto
21479.1 67531.4 lineto
stroke
newpath
9768.11 67451.4 moveto
17118.3 67451.4 lineto
stroke
newpath
18082.2 67451.4 moveto
21479.1 67451.4 lineto
stroke
newpath
9768.11 67371.4 moveto
17112.3 67371.4 lineto
stroke
newpath
18087.7 67371.4 moveto
21479.1 67371.4 lineto
stroke
newpath
9768.11 67291.4 moveto
17112.3 67291.4 lineto
stroke
newpath
18087.7 67291.4 moveto
21479.1 67291.4 lineto
stroke
newpath
9768.11 67211.4 moveto
17112.3 67211.4 lineto
stroke
newpath
18087.7 67211.4 moveto
21479.1 67211.4 lineto
stroke
newpath
9768.11 67131.4 moveto
17122.6 67131.4 lineto
stroke
newpath
18076.6 67131.4 moveto
21479.1 67131.4 lineto
stroke
newpath
9768.11 67051.4 moveto
17157.3 67051.4 lineto
stroke
newpath
18042.8 67051.4 moveto
21479.1 67051.4 lineto
stroke
newpath
9768.11 66971.4 moveto
17240.8 66971.4 lineto
stroke
newpath
17958.4 66971.4 moveto
21479.1 66971.4 lineto
stroke
newpath
9768.11 66891.4 moveto
17254.7 66891.4 lineto
stroke
newpath
17945.3 66891.4 moveto
21479.1 66891.4 lineto
stroke
newpath
9768.11 66811.4 moveto
17254.7 66811.4 lineto
stroke
newpath
17945.3 66811.4 moveto
21479.1 66811.4 lineto
stroke
newpath
9768.11 66731.4 moveto
17254.7 66731.4 lineto
stroke
newpath
17945.3 66731.4 moveto
21479.1 66731.4 lineto
stroke
newpath
9768.11 66651.4 moveto
14742.3 66651.4 lineto
stroke
newpath
15320.6 66651.4 moveto
15924.3 66651.4 lineto
stroke
newpath
16502.6 66651.4 moveto
17254.7 66651.4 lineto
stroke
newpath
17945.3 66651.4 moveto
21479.1 66651.4 lineto
stroke
newpath
9768.11 66571.4 moveto
14641.6 66571.4 lineto
stroke
newpath
15424.3 66571.4 moveto
15823.6 66571.4 lineto
stroke
newpath
16606.3 66571.4 moveto
17254.7 66571.4 lineto
stroke
newpath
17945.3 66571.4 moveto
21479.1 66571.4 lineto
stroke
newpath
14785.8 72245.9 moveto
21479.1 72245.9 lineto
21479.1 66508 lineto
17945.3 66508 lineto
17945.3 66963 lineto
18011.5 67005.6 lineto
18067.9 67088.1 lineto
18087.7 67186 lineto
18087.7 67422 lineto
18070.5 67513.5 lineto
18027.2 67580.6 lineto
18067.9 67640.1 lineto
18087.7 67738 lineto
18087.7 67974 lineto
18070.5 68065.5 lineto
18021.5 68141.5 lineto
18037.7 68152 lineto
18094.1 68234.4 lineto
18113.9 68332.4 lineto
18113.9 68627.6 lineto
18096.7 68719.1 lineto
18042.6 68803.1 lineto
18022.1 68817.1 lineto
18078.6 68853.5 lineto
18135 68936 lineto
18154.8 69033.9 lineto
18154.8 69526.1 lineto
18137.6 69617.5 lineto
18083.6 69701.6 lineto
18001.1 69757.9 lineto
17953.1 69767.6 lineto
17953.1 69810.2 lineto
18011.8 69810.2 lineto
18103.3 69827.4 lineto
18187.3 69881.5 lineto
18243.7 69964 lineto
18263.5 70061.9 lineto
18263.5 70691.8 lineto
18246.3 70783.3 lineto
18192.2 70867.3 lineto
18109.7 70923.7 lineto
18011.8 70943.5 lineto
17224.4 70943.5 lineto
17132.9 70926.3 lineto
17048.9 70872.2 lineto
17014 70821.1 lineto
17006.3 70861.8 lineto
16952.2 70945.8 lineto
16869.8 71002.2 lineto
16771.8 71022 lineto
15196.8 71022 lineto
15174.8 71017.9 lineto
15159.5 71018 lineto
15145.8 71012.4 lineto
15105.4 71004.8 lineto
15021.3 70950.8 lineto
15019.9 70948.7 lineto
14835.5 70825.5 lineto
13935.8 70825.5 lineto
13844.4 70808.3 lineto
13760.3 70754.3 lineto
13704 70671.8 lineto
13684.1 70573.9 lineto
13684.1 70325.2 lineto
13664.7 70355.5 lineto
13582.2 70411.9 lineto
13484.3 70431.7 lineto
12500 70431.7 lineto
12408.5 70414.5 lineto
12324.5 70360.4 lineto
12268.1 70277.9 lineto
12259.6 70235.5 lineto
12259.6 70573.7 lineto
12242.3 70665.2 lineto
12188.3 70749.2 lineto
12105.8 70805.6 lineto
12007.9 70825.4 lineto
10433.1 70825.4 lineto
10341.6 70808.2 lineto
10257.6 70754.1 lineto
10201.2 70671.6 lineto
10181.4 70573.7 lineto
10181.4 68998.9 lineto
10198.6 68907.4 lineto
10252.7 68823.4 lineto
10335.2 68767 lineto
10433.1 68747.2 lineto
12007.9 68747.2 lineto
12099.4 68764.4 lineto
12183.4 68818.5 lineto
12239.7 68901 lineto
12259.6 68998.9 lineto
12259.6 69332.8 lineto
12265.5 69301.1 lineto
12319.6 69217.1 lineto
12402.1 69160.7 lineto
12500 69140.9 lineto
13484.3 69140.9 lineto
13575.7 69158.1 lineto
13659.7 69212.2 lineto
13716.1 69294.7 lineto
13735.9 69392.6 lineto
13735.9 69440.6 lineto
13737.9 69440.6 lineto
13755.4 69413.4 lineto
13837.9 69357 lineto
13935.8 69337.2 lineto
14920.8 69337.2 lineto
15012.3 69354.4 lineto
15096.3 69408.4 lineto
15152.7 69490.9 lineto
15172.5 69588.9 lineto
15172.5 69736.6 lineto
15196.8 69731.7 lineto
15198.6 69731.7 lineto
15199.9 69731.3 lineto
15202.2 69731.7 lineto
16771.8 69731.7 lineto
16863.3 69748.9 lineto
16947.3 69802.9 lineto
17003.7 69885.4 lineto
17013.5 69933.8 lineto
17044 69886.4 lineto
17126.5 69830 lineto
17224.4 69810.2 lineto
17262.6 69810.2 lineto
17262.6 69768.3 lineto
17221.1 69760.5 lineto
17137.1 69706.5 lineto
17080.7 69624 lineto
17060.9 69526.1 lineto
17060.9 69033.9 lineto
17078.1 68942.5 lineto
17132.2 68858.4 lineto
17211.6 68804.2 lineto
17157.9 68725.6 lineto
17138.1 68627.6 lineto
17138.1 68332.4 lineto
17155.3 68240.9 lineto
17204.4 68164.6 lineto
17188.5 68154.4 lineto
17132.1 68071.9 lineto
17112.3 67974 lineto
17112.3 67738 lineto
17129.5 67646.5 lineto
17172.8 67579.4 lineto
17132.1 67519.9 lineto
17112.3 67422 lineto
17112.3 67186 lineto
17129.5 67094.5 lineto
17183.6 67010.5 lineto
17254.7 66961.9 lineto
17254.7 66508 lineto
16646.4 66508 lineto
16646.1 66509.6 lineto
16592 66593.6 lineto
16509.5 66650 lineto
16411.6 66669.8 lineto
16017.6 66669.8 lineto
15926.1 66652.6 lineto
15842.1 66598.6 lineto
15785.8 66516.1 lineto
15784.1 66508 lineto
15464.4 66508 lineto
15464.1 66509.6 lineto
15410 66593.6 lineto
15327.5 66650 lineto
15229.6 66669.8 lineto
14835.6 66669.8 lineto
14744.1 66652.6 lineto
14660.1 66598.6 lineto
14603.8 66516.1 lineto
14602.1 66508 lineto
9768.11 66508 lineto
9768.11 73691.4 lineto
14785.8 73691.4 lineto
14785.8 72245.9 lineto
poly0
1 1 1 setrgbcolor
0 setlinewidth
16437 66833.5 78.7402 cir1
39.3701 setlinewidth
0 setlinewidth
17126 66833.5 78.7402 cir1
39.3701 setlinewidth
0 setlinewidth
19389.8 64963.5 78.7402 cir1
39.3701 setlinewidth
0 setlinewidth
18110.2 64963.5 78.7402 cir1
39.3701 setlinewidth
0 setlinewidth
17027.6 64963.5 78.7402 cir1
39.3701 setlinewidth
0 setlinewidth
15748 64963.5 78.7402 cir1
39.3701 setlinewidth
0 setlinewidth
14763.8 64963.5 78.7402 cir1
39.3701 setlinewidth
0 setlinewidth
20570.9 64963.5 78.7402 cir1
39.3701 setlinewidth
0 setlinewidth
10629.9 64963.5 78.7402 cir1
39.3701 setlinewidth
0 setlinewidth
11712.6 64963.5 78.7402 cir1
39.3701 setlinewidth
0 setlinewidth
12795.3 64963.5 78.7402 cir1
39.3701 setlinewidth
0 setlinewidth
13779.5 64963.5 78.7402 cir1
39.3701 setlinewidth
0 setlinewidth
19389.8 66833.5 78.7402 cir1
39.3701 setlinewidth
0 setlinewidth
18307.1 66833.5 78.7402 cir1
39.3701 setlinewidth
0 setlinewidth
20570.9 66833.5 78.7402 cir1
39.3701 setlinewidth
0 setlinewidth
13779.5 66833.5 78.7402 cir1
39.3701 setlinewidth
0 setlinewidth
12795.3 66833.5 78.7402 cir1
39.3701 setlinewidth
0 setlinewidth
11712.6 66833.5 78.7402 cir1
39.3701 setlinewidth
0 setlinewidth
10629.9 66833.5 78.7402 cir1
39.3701 setlinewidth
0 setlinewidth
14665.4 66833.5 78.7402 cir1
39.3701 setlinewidth
0 setlinewidth
11220.5 71754.8 177.165 cir1
39.3701 setlinewidth
0 0 0 setrgbcolor
showpage
grestore
%%EOF
