(kicad_pcb (version 4) (host pcbnew 4.0.4-1.fc25-product)

  (general
    (links 35)
    (no_connects 6)
    (area 134.925238 98.124999 171.375001 123.275001)
    (thickness 1.6)
    (drawings 5)
    (tracks 46)
    (zones 0)
    (modules 14)
    (nets 10)
  )

  (page A4)
  (layers
    (0 F.Cu signal)
    (31 B.Cu signal)
    (32 B.Adhes user)
    (33 F.Adhes user)
    (34 B.Paste user)
    (35 F.Paste user)
    (36 B.SilkS user)
    (37 F.SilkS user)
    (38 B.Mask user)
    (39 F.Mask user)
    (40 Dwgs.User user)
    (41 Cmts.User user)
    (42 Eco1.User user)
    (43 Eco2.User user)
    (44 Edge.Cuts user)
    (45 Margin user)
    (46 B.CrtYd user)
    (47 F.CrtYd user)
    (48 B.Fab user)
    (49 F.Fab user)
  )

  (setup
    (last_trace_width 0.4)
    (trace_clearance 0.3)
    (zone_clearance 0)
    (zone_45_only no)
    (trace_min 0.2)
    (segment_width 0.2)
    (edge_width 0.15)
    (via_size 0.6)
    (via_drill 0.4)
    (via_min_size 0.4)
    (via_min_drill 0.3)
    (uvia_size 0.3)
    (uvia_drill 0.1)
    (uvias_allowed no)
    (uvia_min_size 0.2)
    (uvia_min_drill 0.1)
    (pcb_text_width 0.3)
    (pcb_text_size 1.5 1.5)
    (mod_edge_width 0.15)
    (mod_text_size 1 1)
    (mod_text_width 0.15)
    (pad_size 1 0.8)
    (pad_drill 0)
    (pad_to_mask_clearance 0.2)
    (aux_axis_origin 0 0)
    (grid_origin 136.5 119)
    (visible_elements FFFFFF7F)
    (pcbplotparams
      (layerselection 0x00000_00000001)
      (usegerberextensions false)
      (excludeedgelayer true)
      (linewidth 0.100000)
      (plotframeref false)
      (viasonmask false)
      (mode 1)
      (useauxorigin false)
      (hpglpennumber 1)
      (hpglpenspeed 20)
      (hpglpendiameter 15)
      (hpglpenoverlay 2)
      (psnegative false)
      (psa4output false)
      (plotreference true)
      (plotvalue true)
      (plotinvisibletext false)
      (padsonsilk false)
      (subtractmaskfromsilk false)
      (outputformat 2)
      (mirror true)
      (drillshape 2)
      (scaleselection 1)
      (outputdirectory ""))
  )

  (net 0 "")
  (net 1 "Net-(C1-Pad1)")
  (net 2 GND)
  (net 3 "Net-(C3-Pad1)")
  (net 4 /Tune)
  (net 5 "Net-(C5-Pad1)")
  (net 6 VCC)
  (net 7 +5V)
  (net 8 "Net-(C2-Pad1)")
  (net 9 "Net-(J1-Pad1)")

  (net_class Default "Ceci est la Netclass par défaut"
    (clearance 0.3)
    (trace_width 0.4)
    (via_dia 0.6)
    (via_drill 0.4)
    (uvia_dia 0.3)
    (uvia_drill 0.1)
    (add_net +5V)
    (add_net /Tune)
    (add_net GND)
    (add_net "Net-(C1-Pad1)")
    (add_net "Net-(C2-Pad1)")
    (add_net "Net-(C3-Pad1)")
    (add_net "Net-(C5-Pad1)")
    (add_net "Net-(J1-Pad1)")
    (add_net VCC)
  )

  (module Capacitors_SMD:C_0805_HandSoldering (layer F.Cu) (tedit 5853C12A) (tstamp 58384CD4)
    (at 147.1 102)
    (descr "Capacitor SMD 0805, hand soldering")
    (tags "capacitor 0805")
    (path /583809C6)
    (attr smd)
    (fp_text reference C2 (at 0 -2.1) (layer F.SilkS)
      (effects (font (size 1 1) (thickness 0.15)))
    )
    (fp_text value 100n (at 0.1 0) (layer F.Fab)
      (effects (font (size 1 1) (thickness 0.15)))
    )
    (fp_line (start -2.3 -1) (end 2.3 -1) (layer F.CrtYd) (width 0.05))
    (fp_line (start -2.3 1) (end 2.3 1) (layer F.CrtYd) (width 0.05))
    (fp_line (start -2.3 -1) (end -2.3 1) (layer F.CrtYd) (width 0.05))
    (fp_line (start 2.3 -1) (end 2.3 1) (layer F.CrtYd) (width 0.05))
    (fp_line (start 0.5 -0.85) (end -0.5 -0.85) (layer F.SilkS) (width 0.15))
    (fp_line (start -0.5 0.85) (end 0.5 0.85) (layer F.SilkS) (width 0.15))
    (pad 1 smd rect (at -1.25 0) (size 1.5 1.25) (layers F.Cu F.Paste F.Mask)
      (net 8 "Net-(C2-Pad1)"))
    (pad 2 smd rect (at 1.25 0) (size 1.5 1.25) (layers F.Cu F.Paste F.Mask)
      (net 2 GND))
    (model Capacitors_SMD.3dshapes/C_0805_HandSoldering.wrl
      (at (xyz 0 0 0))
      (scale (xyz 1 1 1))
      (rotate (xyz 0 0 0))
    )
  )

  (module Capacitors_SMD:C_1206_HandSoldering (layer F.Cu) (tedit 5853EF3B) (tstamp 58384CDA)
    (at 139.9 112.2)
    (descr "Capacitor SMD 1206, hand soldering")
    (tags "capacitor 1206")
    (path /5838228B)
    (attr smd)
    (fp_text reference C3 (at 0 -2.3) (layer F.SilkS)
      (effects (font (size 1 1) (thickness 0.15)))
    )
    (fp_text value 1u (at 0.35 -0.25) (layer F.Fab)
      (effects (font (size 1 1) (thickness 0.15)))
    )
    (fp_line (start -3.3 -1.15) (end 3.3 -1.15) (layer F.CrtYd) (width 0.05))
    (fp_line (start -3.3 1.15) (end 3.3 1.15) (layer F.CrtYd) (width 0.05))
    (fp_line (start -3.3 -1.15) (end -3.3 1.15) (layer F.CrtYd) (width 0.05))
    (fp_line (start 3.3 -1.15) (end 3.3 1.15) (layer F.CrtYd) (width 0.05))
    (fp_line (start 1 -1.025) (end -1 -1.025) (layer F.SilkS) (width 0.15))
    (fp_line (start -1 1.025) (end 1 1.025) (layer F.SilkS) (width 0.15))
    (pad 1 smd rect (at -2 0) (size 2 1.6) (layers F.Cu F.Paste F.Mask)
      (net 3 "Net-(C3-Pad1)"))
    (pad 2 smd rect (at 2 0) (size 2 1.6) (layers F.Cu F.Paste F.Mask)
      (net 2 GND))
    (model Capacitors_SMD.3dshapes/C_1206_HandSoldering.wrl
      (at (xyz 0 0 0))
      (scale (xyz 1 1 1))
      (rotate (xyz 0 0 0))
    )
  )

  (module Capacitors_SMD:C_0805_HandSoldering (layer F.Cu) (tedit 5853C127) (tstamp 58384CE0)
    (at 143.1 103.4 90)
    (descr "Capacitor SMD 0805, hand soldering")
    (tags "capacitor 0805")
    (path /583821D6)
    (attr smd)
    (fp_text reference C4 (at 0 -2.1 90) (layer F.SilkS)
      (effects (font (size 1 1) (thickness 0.15)))
    )
    (fp_text value 100p (at 0.1 -0.15 90) (layer F.Fab)
      (effects (font (size 1 1) (thickness 0.15)))
    )
    (fp_line (start -2.3 -1) (end 2.3 -1) (layer F.CrtYd) (width 0.05))
    (fp_line (start -2.3 1) (end 2.3 1) (layer F.CrtYd) (width 0.05))
    (fp_line (start -2.3 -1) (end -2.3 1) (layer F.CrtYd) (width 0.05))
    (fp_line (start 2.3 -1) (end 2.3 1) (layer F.CrtYd) (width 0.05))
    (fp_line (start 0.5 -0.85) (end -0.5 -0.85) (layer F.SilkS) (width 0.15))
    (fp_line (start -0.5 0.85) (end 0.5 0.85) (layer F.SilkS) (width 0.15))
    (pad 1 smd rect (at -1.25 0 90) (size 1.5 1.25) (layers F.Cu F.Paste F.Mask)
      (net 4 /Tune))
    (pad 2 smd rect (at 1.25 0 90) (size 1.5 1.25) (layers F.Cu F.Paste F.Mask)
      (net 2 GND))
    (model Capacitors_SMD.3dshapes/C_0805_HandSoldering.wrl
      (at (xyz 0 0 0))
      (scale (xyz 1 1 1))
      (rotate (xyz 0 0 0))
    )
  )

  (module Capacitors_SMD:C_0805_HandSoldering (layer F.Cu) (tedit 5853C12E) (tstamp 58384CE6)
    (at 152.1 102)
    (descr "Capacitor SMD 0805, hand soldering")
    (tags "capacitor 0805")
    (path /5836F7EA)
    (attr smd)
    (fp_text reference C5 (at 0 -2.1) (layer F.SilkS)
      (effects (font (size 1 1) (thickness 0.15)))
    )
    (fp_text value 100p (at 0.15 -0.2) (layer F.Fab)
      (effects (font (size 1 1) (thickness 0.15)))
    )
    (fp_line (start -2.3 -1) (end 2.3 -1) (layer F.CrtYd) (width 0.05))
    (fp_line (start -2.3 1) (end 2.3 1) (layer F.CrtYd) (width 0.05))
    (fp_line (start -2.3 -1) (end -2.3 1) (layer F.CrtYd) (width 0.05))
    (fp_line (start 2.3 -1) (end 2.3 1) (layer F.CrtYd) (width 0.05))
    (fp_line (start 0.5 -0.85) (end -0.5 -0.85) (layer F.SilkS) (width 0.15))
    (fp_line (start -0.5 0.85) (end 0.5 0.85) (layer F.SilkS) (width 0.15))
    (pad 1 smd rect (at -1.25 0) (size 1.5 1.25) (layers F.Cu F.Paste F.Mask)
      (net 5 "Net-(C5-Pad1)"))
    (pad 2 smd rect (at 1.25 0) (size 1.5 1.25) (layers F.Cu F.Paste F.Mask)
      (net 2 GND))
    (model Capacitors_SMD.3dshapes/C_0805_HandSoldering.wrl
      (at (xyz 0 0 0))
      (scale (xyz 1 1 1))
      (rotate (xyz 0 0 0))
    )
  )

  (module Capacitors_SMD:C_0805_HandSoldering (layer F.Cu) (tedit 5853C123) (tstamp 58384CEC)
    (at 144 117 90)
    (descr "Capacitor SMD 0805, hand soldering")
    (tags "capacitor 0805")
    (path /58382D2E)
    (attr smd)
    (fp_text reference C6 (at 0 -2.1 90) (layer F.SilkS)
      (effects (font (size 1 1) (thickness 0.15)))
    )
    (fp_text value 1u (at 0.05 0 90) (layer F.Fab)
      (effects (font (size 1 1) (thickness 0.15)))
    )
    (fp_line (start -2.3 -1) (end 2.3 -1) (layer F.CrtYd) (width 0.05))
    (fp_line (start -2.3 1) (end 2.3 1) (layer F.CrtYd) (width 0.05))
    (fp_line (start -2.3 -1) (end -2.3 1) (layer F.CrtYd) (width 0.05))
    (fp_line (start 2.3 -1) (end 2.3 1) (layer F.CrtYd) (width 0.05))
    (fp_line (start 0.5 -0.85) (end -0.5 -0.85) (layer F.SilkS) (width 0.15))
    (fp_line (start -0.5 0.85) (end 0.5 0.85) (layer F.SilkS) (width 0.15))
    (pad 1 smd rect (at -1.25 0 90) (size 1.5 1.25) (layers F.Cu F.Paste F.Mask)
      (net 6 VCC))
    (pad 2 smd rect (at 1.25 0 90) (size 1.5 1.25) (layers F.Cu F.Paste F.Mask)
      (net 2 GND))
    (model Capacitors_SMD.3dshapes/C_0805_HandSoldering.wrl
      (at (xyz 0 0 0))
      (scale (xyz 1 1 1))
      (rotate (xyz 0 0 0))
    )
  )

  (module Resistors_SMD:R_0805_HandSoldering (layer F.Cu) (tedit 5853C11F) (tstamp 58384CFE)
    (at 147.1 111)
    (descr "Resistor SMD 0805, hand soldering")
    (tags "resistor 0805")
    (path /58380B81)
    (attr smd)
    (fp_text reference R1 (at 0 -2.1) (layer F.SilkS)
      (effects (font (size 1 1) (thickness 0.15)))
    )
    (fp_text value 10k (at -0.1 0.15) (layer F.Fab)
      (effects (font (size 1 1) (thickness 0.15)))
    )
    (fp_line (start -2.4 -1) (end 2.4 -1) (layer F.CrtYd) (width 0.05))
    (fp_line (start -2.4 1) (end 2.4 1) (layer F.CrtYd) (width 0.05))
    (fp_line (start -2.4 -1) (end -2.4 1) (layer F.CrtYd) (width 0.05))
    (fp_line (start 2.4 -1) (end 2.4 1) (layer F.CrtYd) (width 0.05))
    (fp_line (start 0.6 0.875) (end -0.6 0.875) (layer F.SilkS) (width 0.15))
    (fp_line (start -0.6 -0.875) (end 0.6 -0.875) (layer F.SilkS) (width 0.15))
    (pad 1 smd rect (at -1.35 0) (size 1.5 1.3) (layers F.Cu F.Paste F.Mask)
      (net 7 +5V))
    (pad 2 smd rect (at 1.35 0) (size 1.5 1.3) (layers F.Cu F.Paste F.Mask)
      (net 1 "Net-(C1-Pad1)"))
    (model Resistors_SMD.3dshapes/R_0805_HandSoldering.wrl
      (at (xyz 0 0 0))
      (scale (xyz 1 1 1))
      (rotate (xyz 0 0 0))
    )
  )

  (module Resistors_SMD:R_0805_HandSoldering (layer F.Cu) (tedit 5853C114) (tstamp 58384D04)
    (at 150.7 109.6 90)
    (descr "Resistor SMD 0805, hand soldering")
    (tags "resistor 0805")
    (path /58380FCC)
    (attr smd)
    (fp_text reference R2 (at 0 -2.1 90) (layer F.SilkS)
      (effects (font (size 1 1) (thickness 0.15)))
    )
    (fp_text value 10R (at 0.25 0.1 90) (layer F.Fab)
      (effects (font (size 1 1) (thickness 0.15)))
    )
    (fp_line (start -2.4 -1) (end 2.4 -1) (layer F.CrtYd) (width 0.05))
    (fp_line (start -2.4 1) (end 2.4 1) (layer F.CrtYd) (width 0.05))
    (fp_line (start -2.4 -1) (end -2.4 1) (layer F.CrtYd) (width 0.05))
    (fp_line (start 2.4 -1) (end 2.4 1) (layer F.CrtYd) (width 0.05))
    (fp_line (start 0.6 0.875) (end -0.6 0.875) (layer F.SilkS) (width 0.15))
    (fp_line (start -0.6 -0.875) (end 0.6 -0.875) (layer F.SilkS) (width 0.15))
    (pad 1 smd rect (at -1.35 0 90) (size 1.5 1.3) (layers F.Cu F.Paste F.Mask)
      (net 7 +5V))
    (pad 2 smd rect (at 1.35 0 90) (size 1.5 1.3) (layers F.Cu F.Paste F.Mask)
      (net 5 "Net-(C5-Pad1)"))
    (model Resistors_SMD.3dshapes/R_0805_HandSoldering.wrl
      (at (xyz 0 0 0))
      (scale (xyz 1 1 1))
      (rotate (xyz 0 0 0))
    )
  )

  (module Resistors_SMD:R_0805_HandSoldering (layer F.Cu) (tedit 5853C117) (tstamp 58384D0A)
    (at 143.1 108.4 90)
    (descr "Resistor SMD 0805, hand soldering")
    (tags "resistor 0805")
    (path /58381F27)
    (attr smd)
    (fp_text reference R3 (at 0 -2.1 90) (layer F.SilkS)
      (effects (font (size 1 1) (thickness 0.15)))
    )
    (fp_text value 66k (at 0.25 0 90) (layer F.Fab)
      (effects (font (size 1 1) (thickness 0.15)))
    )
    (fp_line (start -2.4 -1) (end 2.4 -1) (layer F.CrtYd) (width 0.05))
    (fp_line (start -2.4 1) (end 2.4 1) (layer F.CrtYd) (width 0.05))
    (fp_line (start -2.4 -1) (end -2.4 1) (layer F.CrtYd) (width 0.05))
    (fp_line (start 2.4 -1) (end 2.4 1) (layer F.CrtYd) (width 0.05))
    (fp_line (start 0.6 0.875) (end -0.6 0.875) (layer F.SilkS) (width 0.15))
    (fp_line (start -0.6 -0.875) (end 0.6 -0.875) (layer F.SilkS) (width 0.15))
    (pad 1 smd rect (at -1.35 0 90) (size 1.5 1.3) (layers F.Cu F.Paste F.Mask)
      (net 7 +5V))
    (pad 2 smd rect (at 1.35 0 90) (size 1.5 1.3) (layers F.Cu F.Paste F.Mask)
      (net 3 "Net-(C3-Pad1)"))
    (model Resistors_SMD.3dshapes/R_0805_HandSoldering.wrl
      (at (xyz 0 0 0))
      (scale (xyz 1 1 1))
      (rotate (xyz 0 0 0))
    )
  )

  (module Potentiometers:Potentiometer_Bourns_3296Z_3-8Zoll_Angular_ScrewFront (layer B.Cu) (tedit 583C2C6D) (tstamp 583C2BF9)
    (at 137.9 108.4 180)
    (descr "3296, 3/8, Square, Trimpot, Trimming, Potentiometer, Bourns")
    (tags "3296, 3/8, Square, Trimpot, Trimming, Potentiometer, Bourns")
    (path /58381D65)
    (fp_text reference RV1 (at 1.27 8.89 180) (layer B.SilkS)
      (effects (font (size 1 1) (thickness 0.15)) (justify mirror))
    )
    (fp_text value 100k (at -1.45 6.45 180) (layer B.Fab)
      (effects (font (size 1 1) (thickness 0.15)) (justify mirror))
    )
    (fp_line (start 0.635 -1.27) (end 0.635 -1.905) (layer B.SilkS) (width 0.15))
    (fp_line (start 0.635 3.81) (end 0.635 1.27) (layer B.SilkS) (width 0.15))
    (fp_line (start 0.635 6.985) (end 0.635 6.35) (layer B.SilkS) (width 0.15))
    (fp_line (start -2.286 8.89) (end -2.286 8.255) (layer B.SilkS) (width 0.15))
    (fp_line (start -3.302 7.366) (end -3.302 8.89) (layer B.SilkS) (width 0.15))
    (fp_line (start -3.302 8.89) (end -1.397 8.89) (layer B.SilkS) (width 0.15))
    (fp_line (start -1.397 8.89) (end -1.397 7.366) (layer B.SilkS) (width 0.15))
    (fp_line (start -2.54 -2.286) (end -3.81 -2.286) (layer B.SilkS) (width 0.15))
    (fp_line (start -3.81 -2.286) (end -3.81 7.366) (layer B.SilkS) (width 0.15))
    (fp_line (start -3.81 7.366) (end 1.27 7.366) (layer B.SilkS) (width 0.15))
    (fp_line (start 1.27 -2.286) (end -1.27 -2.286) (layer B.SilkS) (width 0.15))
    (fp_line (start -1.27 -2.286) (end -2.54 -2.286) (layer B.SilkS) (width 0.15))
    (pad 2 thru_hole circle (at -2.54 2.54 180) (size 1.524 1.524) (drill 0.8128) (layers *.Cu *.Mask B.SilkS)
      (net 4 /Tune))
    (pad 3 thru_hole circle (at 0 5.08 180) (size 1.524 1.524) (drill 0.8128) (layers *.Cu *.Mask B.SilkS)
      (net 2 GND))
    (pad 1 thru_hole circle (at 0 0 180) (size 1.524 1.524) (drill 0.8128) (layers *.Cu *.Mask B.SilkS)
      (net 3 "Net-(C3-Pad1)"))
    (model Potentiometers.3dshapes/Potentiometer_Bourns_3296Z_3-8Zoll_Angular_ScrewFront.wrl
      (at (xyz 0 0 0))
      (scale (xyz 1 1 1))
      (rotate (xyz 0 0 0))
    )
  )

  (module sma_connectors:SMA (layer F.Cu) (tedit 56557731) (tstamp 583C358C)
    (at 161.5 105.2 180)
    (path /583C30FC)
    (fp_text reference J1 (at 3 -5 180) (layer F.SilkS)
      (effects (font (size 1 1) (thickness 0.15)))
    )
    (fp_text value SMA (at -3 -4 180) (layer F.Fab)
      (effects (font (size 1 1) (thickness 0.15)))
    )
    (fp_line (start -4.4 -2.7) (end -4.4 -3.3) (layer F.SilkS) (width 0.15))
    (fp_line (start -4.4 -3.3) (end -9.5 -3.3) (layer F.SilkS) (width 0.15))
    (fp_line (start -9.5 -3.3) (end -9.5 3.3) (layer F.SilkS) (width 0.15))
    (fp_line (start -9.5 3.3) (end -4.4 3.3) (layer F.SilkS) (width 0.15))
    (fp_line (start -4.4 3.3) (end -4.4 2.7) (layer F.SilkS) (width 0.15))
    (fp_line (start -1.7 -2.7) (end -4.4 -2.7) (layer F.SilkS) (width 0.15))
    (fp_line (start -4.4 -2.7) (end -4.4 2.7) (layer F.SilkS) (width 0.15))
    (fp_line (start -4.4 2.7) (end -1.7 2.7) (layer F.SilkS) (width 0.15))
    (fp_line (start 0 -4.75) (end -1.7 -4.75) (layer F.SilkS) (width 0.15))
    (fp_line (start -1.7 -4.75) (end -1.7 4.75) (layer F.SilkS) (width 0.15))
    (fp_line (start -1.7 4.75) (end 0 4.75) (layer F.SilkS) (width 0.15))
    (fp_line (start 5 4.75) (end 5 -4.75) (layer F.SilkS) (width 0.15))
    (fp_line (start 5 -4.75) (end 0 -4.75) (layer F.SilkS) (width 0.15))
    (fp_line (start 0 -4.75) (end 0 4.75) (layer F.SilkS) (width 0.15))
    (fp_line (start 0 4.75) (end 5 4.75) (layer F.SilkS) (width 0.15))
    (fp_line (start 0 -4.75) (end 0 4.75) (layer F.SilkS) (width 0.15))
    (pad 1 connect rect (at 1 0 180) (size 2 0.5) (layers F.Cu F.Mask)
      (net 9 "Net-(J1-Pad1)"))
    (pad 3 connect rect (at 2.5 -4.25 180) (size 5 1) (layers B.Cu F.Mask)
      (net 2 GND))
    (pad 4 connect rect (at 2.5 4.25 180) (size 5 1) (layers F.Cu F.Mask)
      (net 2 GND))
    (pad 5 connect rect (at 2.5 4.25 180) (size 5 1) (layers B.Cu F.Mask)
      (net 2 GND))
    (pad 2 connect rect (at 2.5 -4.25 180) (size 5 1) (layers F.Cu F.Mask)
      (net 2 GND))
  )

  (module sma_connectors:Alim_CMS_Trav (layer F.Cu) (tedit 56BC5B4E) (tstamp 583C35EC)
    (at 139.5 117.5 90)
    (path /58382B2F)
    (fp_text reference P1 (at 0 0.5 90) (layer F.SilkS)
      (effects (font (size 1 1) (thickness 0.15)))
    )
    (fp_text value CONN_01X02 (at 0 -0.5 90) (layer F.Fab)
      (effects (font (size 1 1) (thickness 0.15)))
    )
    (pad 1 smd rect (at -3 0 90) (size 4 4) (layers F.Cu F.Paste F.Mask)
      (net 6 VCC))
    (pad 2 thru_hole circle (at 2 0 90) (size 2 2) (drill 0.9) (layers *.Cu *.Mask F.SilkS)
      (net 2 GND))
  )

  (module Capacitors_SMD:C_0805_HandSoldering (layer F.Cu) (tedit 5853C11B) (tstamp 583C3A44)
    (at 146.9 108.8 180)
    (descr "Capacitor SMD 0805, hand soldering")
    (tags "capacitor 0805")
    (path /58380D4F)
    (attr smd)
    (fp_text reference C1 (at 0 -2.1 180) (layer F.SilkS)
      (effects (font (size 1 1) (thickness 0.15)))
    )
    (fp_text value 100p (at -0.25 -0.05 180) (layer F.Fab)
      (effects (font (size 1 1) (thickness 0.15)))
    )
    (fp_line (start -2.3 -1) (end 2.3 -1) (layer F.CrtYd) (width 0.05))
    (fp_line (start -2.3 1) (end 2.3 1) (layer F.CrtYd) (width 0.05))
    (fp_line (start -2.3 -1) (end -2.3 1) (layer F.CrtYd) (width 0.05))
    (fp_line (start 2.3 -1) (end 2.3 1) (layer F.CrtYd) (width 0.05))
    (fp_line (start 0.5 -0.85) (end -0.5 -0.85) (layer F.SilkS) (width 0.15))
    (fp_line (start -0.5 0.85) (end 0.5 0.85) (layer F.SilkS) (width 0.15))
    (pad 1 smd rect (at -1.25 0 180) (size 1.5 1.25) (layers F.Cu F.Paste F.Mask)
      (net 1 "Net-(C1-Pad1)"))
    (pad 2 smd rect (at 1.25 0 180) (size 1.5 1.25) (layers F.Cu F.Paste F.Mask)
      (net 2 GND))
    (model Capacitors_SMD.3dshapes/C_0805_HandSoldering.wrl
      (at (xyz 0 0 0))
      (scale (xyz 1 1 1))
      (rotate (xyz 0 0 0))
    )
  )

  (module TO_SOT_Packages_SMD:SOT89-3_Housing_Handsoldering (layer F.Cu) (tedit 5853C124) (tstamp 58511556)
    (at 149.5 116 270)
    (descr "SOT89-3, Housing, Handsoldering,")
    (tags "SOT89-3, Housing, Handsoldering,")
    (path /585114A2)
    (attr smd)
    (fp_text reference U1 (at -0.0508 -5.00126 270) (layer F.SilkS)
      (effects (font (size 1 1) (thickness 0.15)))
    )
    (fp_text value MC78L05ACH (at 1.4 -0.3 270) (layer F.Fab)
      (effects (font (size 1 1) (thickness 0.15)))
    )
    (fp_line (start -1.89992 0.20066) (end -1.651 -0.09906) (layer F.SilkS) (width 0.15))
    (fp_line (start -1.651 -0.09906) (end -1.5494 -0.24892) (layer F.SilkS) (width 0.15))
    (fp_line (start -1.5494 -0.24892) (end -1.5494 0.59944) (layer F.SilkS) (width 0.15))
    (fp_line (start -2.25044 -1.30048) (end -2.25044 0.50038) (layer F.SilkS) (width 0.15))
    (fp_line (start -2.25044 -1.30048) (end -1.6002 -1.30048) (layer F.SilkS) (width 0.15))
    (fp_line (start 2.25044 -1.30048) (end 2.25044 0.50038) (layer F.SilkS) (width 0.15))
    (fp_line (start 2.25044 -1.30048) (end 1.6002 -1.30048) (layer F.SilkS) (width 0.15))
    (pad 1 smd rect (at -1.50114 2.35204 270) (size 1.00076 2.5019) (layers F.Cu F.Paste F.Mask)
      (net 7 +5V))
    (pad 2 smd rect (at 0 2.35204 270) (size 1.00076 2.5019) (layers F.Cu F.Paste F.Mask)
      (net 2 GND))
    (pad 3 smd rect (at 1.50114 2.35204 270) (size 1.00076 2.5019) (layers F.Cu F.Paste F.Mask)
      (net 6 VCC))
    (pad 2 smd rect (at 0 -1.6002 270) (size 1.99898 4.0005) (layers F.Cu F.Paste F.Mask)
      (net 2 GND))
    (pad 2 smd trapezoid (at 0 0.7493 90) (size 1.50114 0.7493) (rect_delta 0 0.50038 ) (layers F.Cu F.Paste F.Mask)
      (net 2 GND))
    (model TO_SOT_Packages_SMD.3dshapes/SOT89-3_Housing_Handsoldering.wrl
      (at (xyz 0 0 0))
      (scale (xyz 0.3937 0.3937 0.3937))
      (rotate (xyz 0 0 0))
    )
  )

  (module Librairie:µMAX (layer F.Cu) (tedit 5853C12C) (tstamp 585118BD)
    (at 148.75 105.425)
    (path /583807BB)
    (fp_text reference U2 (at 0.1 1.85) (layer F.SilkS)
      (effects (font (size 1 1) (thickness 0.15)))
    )
    (fp_text value MAX2750 (at 0.05 -0.325) (layer F.Fab)
      (effects (font (size 1 1) (thickness 0.15)))
    )
    (fp_arc (start 0 -1.15) (end 0.4 -0.7) (angle 90) (layer F.SilkS) (width 0.15))
    (fp_line (start -1.5 -1.15) (end 1.45 -1.15) (layer F.SilkS) (width 0.15))
    (fp_line (start 1.45 -1.15) (end 1.45 1.1) (layer F.SilkS) (width 0.15))
    (fp_line (start 1.45 1.1) (end -1.5 1.1) (layer F.SilkS) (width 0.15))
    (fp_line (start -1.5 1.1) (end -1.5 -1.15) (layer F.SilkS) (width 0.15))
    (pad 6 smd rect (at 0.875 0.275) (size 0.4 0.4) (layers F.Cu F.Paste F.Mask)
      (net 5 "Net-(C5-Pad1)"))
    (pad 2 smd rect (at -3.375 -0.275) (size 0.4 0.4) (layers F.Cu F.Paste F.Mask)
      (net 4 /Tune))
    (pad 7 smd trapezoid (at 3.4 -0.275) (size 1 0.8) (rect_delta -0.6 0 ) (layers F.Cu F.Paste F.Mask)
      (net 9 "Net-(J1-Pad1)"))
    (pad 1 smd rect (at -2.15 -1.02) (size 1.35 0.8) (layers F.Cu F.Paste F.Mask)
      (net 8 "Net-(C2-Pad1)"))
    (pad 2 smd rect (at -2.35 -0.275) (size 1.75 0.4) (layers F.Cu F.Paste F.Mask)
      (net 4 /Tune))
    (pad 3 smd rect (at -1.95 0.275) (size 1.75 0.4) (layers F.Cu F.Paste F.Mask)
      (net 2 GND))
    (pad 4 smd rect (at -2.15 1.025) (size 1.35 0.8) (layers F.Cu F.Paste F.Mask)
      (net 1 "Net-(C1-Pad1)"))
    (pad 5 smd rect (at 2.15 1.025) (size 1.35 0.8) (layers F.Cu F.Paste F.Mask)
      (net 7 +5V))
    (pad 6 smd rect (at 1.95 0.275) (size 1.75 0.4) (layers F.Cu F.Paste F.Mask)
      (net 5 "Net-(C5-Pad1)"))
    (pad 7 smd rect (at 2.35 -0.275) (size 1.75 0.4) (layers F.Cu F.Paste F.Mask)
      (net 9 "Net-(J1-Pad1)"))
    (pad 8 smd rect (at 2.15 -1.025) (size 1.35 0.8) (layers F.Cu F.Paste F.Mask)
      (net 2 GND))
  )

  (gr_line (start 136.5 98.2) (end 161.5 98.2) (angle 90) (layer Edge.Cuts) (width 0.15))
  (gr_line (start 136.5 123.2) (end 136.5 98.2) (angle 90) (layer Edge.Cuts) (width 0.15))
  (gr_line (start 161.5 123.2) (end 136.5 123.2) (angle 90) (layer Edge.Cuts) (width 0.15))
  (gr_line (start 161.5 98.2) (end 161.5 123.2) (angle 90) (layer Edge.Cuts) (width 0.15))
  (gr_text "MAX2750\n2.4GHz VCO\nCIME 2016" (at 158 117.25 90) (layer F.Cu)
    (effects (font (size 1 1) (thickness 0.25)))
  )

  (segment (start 148.45 111) (end 148.45 109.1) (width 0.4) (layer F.Cu) (net 1))
  (segment (start 148.45 109.1) (end 148.15 108.8) (width 0.4) (layer F.Cu) (net 1) (tstamp 584A8DA8))
  (segment (start 146.55 106.425) (end 146.925 106.425) (width 0.4) (layer F.Cu) (net 1))
  (segment (start 146.925 106.425) (end 148.15 107.65) (width 0.4) (layer F.Cu) (net 1) (tstamp 584A8DA4))
  (segment (start 148.15 107.65) (end 148.15 108.8) (width 0.4) (layer F.Cu) (net 1) (tstamp 584A8DA5))
  (segment (start 143.5 115.25) (end 140.75 115.25) (width 0.4) (layer F.Cu) (net 2))
  (segment (start 140.75 115.25) (end 139.5 116.5) (width 0.4) (layer F.Cu) (net 2) (tstamp 584A8FC4))
  (segment (start 143.1 107.05) (end 141.9 107.05) (width 0.4) (layer F.Cu) (net 3))
  (segment (start 140.55 108.4) (end 137.9 108.4) (width 0.4) (layer F.Cu) (net 3) (tstamp 584A8E57))
  (segment (start 141.9 107.05) (end 140.55 108.4) (width 0.4) (layer F.Cu) (net 3) (tstamp 584A8E56))
  (segment (start 137.9 112.2) (end 137.9 108.4) (width 0.4) (layer F.Cu) (net 3))
  (segment (start 143.1 107.6) (end 143.1 107.05) (width 0.4) (layer F.Cu) (net 3) (tstamp 584A8DB9))
  (segment (start 143.1 104.65) (end 144.85 104.65) (width 0.4) (layer F.Cu) (net 4))
  (segment (start 144.85 104.65) (end 145.325 105.125) (width 0.4) (layer F.Cu) (net 4) (tstamp 584A8DBF))
  (segment (start 140.44 105.86) (end 141.89 105.86) (width 0.4) (layer F.Cu) (net 4))
  (segment (start 141.89 105.86) (end 143.1 104.65) (width 0.4) (layer F.Cu) (net 4) (tstamp 584A8DBC))
  (segment (start 151.1 108.65) (end 150.55 108.65) (width 0.4) (layer F.Cu) (net 5))
  (segment (start 150.55 108.65) (end 149.1 107.2) (width 0.4) (layer F.Cu) (net 5) (tstamp 584A8DE8))
  (segment (start 149.1 107.2) (end 149.1 106.15) (width 0.4) (layer F.Cu) (net 5) (tstamp 584A8DE9))
  (segment (start 149.1 106.15) (end 149.575 105.675) (width 0.4) (layer F.Cu) (net 5) (tstamp 584A8DEA))
  (segment (start 150.85 102) (end 150.85 102.25) (width 0.4) (layer F.Cu) (net 5))
  (segment (start 150.85 102.25) (end 148.7 104.4) (width 0.4) (layer F.Cu) (net 5) (tstamp 584A8DC5))
  (segment (start 148.7 104.4) (end 148.7 104.8) (width 0.4) (layer F.Cu) (net 5) (tstamp 584A8DC6))
  (segment (start 148.7 104.8) (end 149.575 105.675) (width 0.4) (layer F.Cu) (net 5) (tstamp 584A8DC7))
  (segment (start 147.14796 117.50114) (end 144.74886 117.50114) (width 0.4) (layer F.Cu) (net 6))
  (segment (start 144.74886 117.50114) (end 144 118.25) (width 0.4) (layer F.Cu) (net 6) (tstamp 58511765))
  (segment (start 139.5 120.5) (end 141.75 120.5) (width 0.4) (layer F.Cu) (net 6))
  (segment (start 141.75 120.5) (end 144 118.25) (width 0.4) (layer F.Cu) (net 6) (tstamp 5851175E))
  (segment (start 147.14796 112.45) (end 149.2 112.45) (width 0.4) (layer F.Cu) (net 7))
  (segment (start 149.2 112.45) (end 150.7 110.95) (width 0.4) (layer F.Cu) (net 7) (tstamp 5851176F))
  (segment (start 147.14796 114.49886) (end 147.14796 112.45) (width 0.4) (layer F.Cu) (net 7))
  (segment (start 147.14796 112.45) (end 147.14796 112.39796) (width 0.4) (layer F.Cu) (net 7) (tstamp 5851176D))
  (segment (start 147.14796 112.39796) (end 145.75 111) (width 0.4) (layer F.Cu) (net 7) (tstamp 58511769))
  (segment (start 150.7 110.95) (end 150.7 110.8) (width 0.4) (layer F.Cu) (net 7))
  (segment (start 150.7 110.8) (end 152.5 109) (width 0.4) (layer F.Cu) (net 7) (tstamp 584A9008))
  (segment (start 150.7 110.95) (end 150.7 111) (width 0.4) (layer F.Cu) (net 7))
  (segment (start 152.5 109) (end 152.5 107.2) (width 0.4) (layer F.Cu) (net 7) (tstamp 584A900B))
  (segment (start 150.85 106.425) (end 151.725 106.425) (width 0.4) (layer F.Cu) (net 7))
  (segment (start 151.725 106.425) (end 152.5 107.2) (width 0.4) (layer F.Cu) (net 7) (tstamp 584A8FE5))
  (segment (start 151.1 111.35) (end 151.1 111.4) (width 0.4) (layer F.Cu) (net 7))
  (segment (start 146.1 111) (end 145.75 111) (width 0.4) (layer F.Cu) (net 7) (tstamp 584A8FBE))
  (segment (start 143.1 109.75) (end 143.25 109.75) (width 0.4) (layer F.Cu) (net 7))
  (segment (start 143.25 109.75) (end 144.5 111) (width 0.4) (layer F.Cu) (net 7) (tstamp 584A8DB3))
  (segment (start 144.5 111) (end 145.75 111) (width 0.4) (layer F.Cu) (net 7) (tstamp 584A8DB4))
  (segment (start 145.85 102) (end 145.85 103.68) (width 0.4) (layer F.Cu) (net 8))
  (segment (start 145.85 103.68) (end 146.55 104.38) (width 0.4) (layer F.Cu) (net 8) (tstamp 584A8DC2))

  (zone (net 9) (net_name "Net-(J1-Pad1)") (layer F.Cu) (tstamp 583C2ECC) (hatch edge 0.508)
    (connect_pads yes (clearance 0))
    (min_thickness 0.3)
    (fill yes (mode segment) (arc_segments 32) (thermal_gap 0.508) (thermal_bridge_width 0.508) (smoothing chamfer))
    (polygon
      (pts
        (xy 161.45 105.85) (xy 152.55 105.85) (xy 152.55 104.45) (xy 161.45 104.45)
      )
    )
    (filled_polygon
      (pts
        (xy 161.275 105.7) (xy 152.7 105.7) (xy 152.7 104.6) (xy 161.275 104.6)
      )
    )
    (fill_segments
      (pts (xy 161.275 104.6) (xy 152.7 104.6))
      (pts (xy 161.275 104.84) (xy 152.7 104.84))
      (pts (xy 161.275 105.08) (xy 152.7 105.08))
      (pts (xy 161.275 105.32) (xy 152.7 105.32))
      (pts (xy 161.275 105.56) (xy 152.7 105.56))
    )
  )
  (zone (net 2) (net_name GND) (layer F.Cu) (tstamp 584A8DFA) (hatch edge 0.508)
    (connect_pads yes (clearance 0))
    (min_thickness 0.3)
    (fill yes (mode segment) (arc_segments 32) (thermal_gap 0.508) (thermal_bridge_width 0.508) (smoothing chamfer))
    (polygon
      (pts
        (xy 161.5 104.15) (xy 152.5 104.15) (xy 152.5 106.15) (xy 161.5 106.15) (xy 161.5 123.2)
        (xy 136.5 123.2) (xy 136.5 98.2) (xy 161.5 98.2)
      )
    )
    (filled_polygon
      (pts
        (xy 144.740253 105.459491) (xy 144.766178 105.543205) (xy 144.836189 105.649451) (xy 144.933028 105.731986) (xy 145.049026 105.784275)
        (xy 145.175 105.802177) (xy 145.548001 105.802177) (xy 145.543014 105.808028) (xy 145.490725 105.924026) (xy 145.472823 106.05)
        (xy 145.472823 106.85) (xy 145.478537 106.921661) (xy 145.516178 107.043205) (xy 145.586189 107.149451) (xy 145.683028 107.231986)
        (xy 145.799026 107.284275) (xy 145.925 107.302177) (xy 146.882939 107.302177) (xy 147.313801 107.733039) (xy 147.206795 107.766178)
        (xy 147.100549 107.836189) (xy 147.018014 107.933028) (xy 146.965725 108.049026) (xy 146.947823 108.175) (xy 146.947823 109.425)
        (xy 146.953537 109.496661) (xy 146.991178 109.618205) (xy 147.061189 109.724451) (xy 147.158028 109.806986) (xy 147.274026 109.859275)
        (xy 147.4 109.877177) (xy 147.8 109.877177) (xy 147.8 109.897823) (xy 147.7 109.897823) (xy 147.628339 109.903537)
        (xy 147.506795 109.941178) (xy 147.400549 110.011189) (xy 147.318014 110.108028) (xy 147.265725 110.224026) (xy 147.247823 110.35)
        (xy 147.247823 111.578585) (xy 146.952177 111.282939) (xy 146.952177 110.35) (xy 146.946463 110.278339) (xy 146.908822 110.156795)
        (xy 146.838811 110.050549) (xy 146.741972 109.968014) (xy 146.625974 109.915725) (xy 146.5 109.897823) (xy 145 109.897823)
        (xy 144.928339 109.903537) (xy 144.806795 109.941178) (xy 144.700549 110.011189) (xy 144.618014 110.108028) (xy 144.589817 110.170579)
        (xy 144.202177 109.782939) (xy 144.202177 109) (xy 144.196463 108.928339) (xy 144.158822 108.806795) (xy 144.088811 108.700549)
        (xy 143.991972 108.618014) (xy 143.875974 108.565725) (xy 143.75 108.547823) (xy 142.45 108.547823) (xy 142.378339 108.553537)
        (xy 142.256795 108.591178) (xy 142.150549 108.661189) (xy 142.068014 108.758028) (xy 142.015725 108.874026) (xy 141.997823 109)
        (xy 141.997823 110.5) (xy 142.003537 110.571661) (xy 142.041178 110.693205) (xy 142.111189 110.799451) (xy 142.208028 110.881986)
        (xy 142.324026 110.934275) (xy 142.45 110.952177) (xy 143.532939 110.952177) (xy 144.040381 111.459619) (xy 144.086746 111.497704)
        (xy 144.132771 111.536324) (xy 144.135769 111.537972) (xy 144.138408 111.54014) (xy 144.191324 111.568514) (xy 144.243938 111.597438)
        (xy 144.247194 111.598471) (xy 144.250208 111.600087) (xy 144.307664 111.617653) (xy 144.364857 111.635796) (xy 144.368251 111.636177)
        (xy 144.371523 111.637177) (xy 144.431271 111.643246) (xy 144.490925 111.649937) (xy 144.497607 111.649983) (xy 144.497731 111.649996)
        (xy 144.497847 111.649985) (xy 144.5 111.65) (xy 144.547823 111.65) (xy 144.553537 111.721661) (xy 144.591178 111.843205)
        (xy 144.661189 111.949451) (xy 144.758028 112.031986) (xy 144.874026 112.084275) (xy 145 112.102177) (xy 145.932939 112.102177)
        (xy 146.49796 112.667198) (xy 146.49796 113.546303) (xy 145.89701 113.546303) (xy 145.825349 113.552017) (xy 145.703805 113.589658)
        (xy 145.597559 113.659669) (xy 145.515024 113.756508) (xy 145.462735 113.872506) (xy 145.444833 113.99848) (xy 145.444833 114.99924)
        (xy 145.450547 115.070901) (xy 145.488188 115.192445) (xy 145.558199 115.298691) (xy 145.655038 115.381226) (xy 145.771036 115.433515)
        (xy 145.89701 115.451417) (xy 148.39891 115.451417) (xy 148.470571 115.445703) (xy 148.592115 115.408062) (xy 148.698361 115.338051)
        (xy 148.780896 115.241212) (xy 148.833185 115.125214) (xy 148.851087 114.99924) (xy 148.851087 113.99848) (xy 148.845373 113.926819)
        (xy 148.807732 113.805275) (xy 148.737721 113.699029) (xy 148.640882 113.616494) (xy 148.524884 113.564205) (xy 148.39891 113.546303)
        (xy 147.79796 113.546303) (xy 147.79796 113.1) (xy 149.2 113.1) (xy 149.259778 113.094139) (xy 149.319568 113.088908)
        (xy 149.32285 113.087955) (xy 149.326252 113.087621) (xy 149.383735 113.070266) (xy 149.441389 113.053516) (xy 149.444424 113.051943)
        (xy 149.447696 113.050955) (xy 149.500731 113.022756) (xy 149.554015 112.995136) (xy 149.556684 112.993005) (xy 149.559705 112.991399)
        (xy 149.606232 112.953452) (xy 149.653158 112.915992) (xy 149.657913 112.911302) (xy 149.658012 112.911221) (xy 149.658088 112.911129)
        (xy 149.659619 112.909619) (xy 149.921619 112.647619) (xy 155.275 112.647619) (xy 155.275 121.852381) (xy 160.825 121.852381)
        (xy 160.825 112.647619) (xy 155.275 112.647619) (xy 149.921619 112.647619) (xy 150.417062 112.152177) (xy 151.35 112.152177)
        (xy 151.421661 112.146463) (xy 151.543205 112.108822) (xy 151.649451 112.038811) (xy 151.731986 111.941972) (xy 151.784275 111.825974)
        (xy 151.802177 111.7) (xy 151.802177 110.617061) (xy 152.959619 109.45962) (xy 152.997721 109.413234) (xy 153.036324 109.367229)
        (xy 153.037972 109.364231) (xy 153.040139 109.361593) (xy 153.068504 109.308694) (xy 153.097438 109.256062) (xy 153.098471 109.252806)
        (xy 153.100087 109.249792) (xy 153.11764 109.192378) (xy 153.135796 109.135143) (xy 153.136177 109.131744) (xy 153.137176 109.128477)
        (xy 153.14324 109.068779) (xy 153.149937 109.009075) (xy 153.149983 109.002393) (xy 153.149996 109.002269) (xy 153.149985 109.002153)
        (xy 153.15 109) (xy 153.15 107.2) (xy 153.144144 107.140271) (xy 153.138909 107.080432) (xy 153.137954 107.077145)
        (xy 153.137621 107.073748) (xy 153.120278 107.016306) (xy 153.103516 106.958611) (xy 153.101943 106.955576) (xy 153.100955 106.952304)
        (xy 153.072777 106.899309) (xy 153.045137 106.845985) (xy 153.043003 106.843312) (xy 153.041399 106.840295) (xy 153.003475 106.793796)
        (xy 152.965992 106.746842) (xy 152.961298 106.742083) (xy 152.961221 106.741988) (xy 152.961133 106.741916) (xy 152.95962 106.740381)
        (xy 152.519238 106.3) (xy 161.275 106.3) (xy 161.275 122.975) (xy 136.725 122.975) (xy 136.725 118.5)
        (xy 137.047823 118.5) (xy 137.047823 122.5) (xy 137.053537 122.571661) (xy 137.091178 122.693205) (xy 137.161189 122.799451)
        (xy 137.258028 122.881986) (xy 137.374026 122.934275) (xy 137.5 122.952177) (xy 141.5 122.952177) (xy 141.571661 122.946463)
        (xy 141.693205 122.908822) (xy 141.799451 122.838811) (xy 141.881986 122.741972) (xy 141.934275 122.625974) (xy 141.952177 122.5)
        (xy 141.952177 121.114908) (xy 141.991389 121.103516) (xy 141.994424 121.101943) (xy 141.997696 121.100955) (xy 142.050731 121.072756)
        (xy 142.104015 121.045136) (xy 142.106684 121.043005) (xy 142.109705 121.041399) (xy 142.156232 121.003452) (xy 142.203158 120.965992)
        (xy 142.207913 120.961302) (xy 142.208012 120.961221) (xy 142.208088 120.961129) (xy 142.209619 120.959619) (xy 143.717062 119.452177)
        (xy 144.625 119.452177) (xy 144.696661 119.446463) (xy 144.818205 119.408822) (xy 144.924451 119.338811) (xy 145.006986 119.241972)
        (xy 145.059275 119.125974) (xy 145.077177 119) (xy 145.077177 118.15114) (xy 145.47469 118.15114) (xy 145.488188 118.194725)
        (xy 145.558199 118.300971) (xy 145.655038 118.383506) (xy 145.771036 118.435795) (xy 145.89701 118.453697) (xy 148.39891 118.453697)
        (xy 148.470571 118.447983) (xy 148.592115 118.410342) (xy 148.698361 118.340331) (xy 148.780896 118.243492) (xy 148.833185 118.127494)
        (xy 148.851087 118.00152) (xy 148.851087 117.00076) (xy 148.845373 116.929099) (xy 148.807732 116.807555) (xy 148.737721 116.701309)
        (xy 148.640882 116.618774) (xy 148.524884 116.566485) (xy 148.39891 116.548583) (xy 145.89701 116.548583) (xy 145.825349 116.554297)
        (xy 145.703805 116.591938) (xy 145.597559 116.661949) (xy 145.515024 116.758788) (xy 145.473394 116.85114) (xy 144.74886 116.85114)
        (xy 144.689082 116.857001) (xy 144.629292 116.862232) (xy 144.62601 116.863185) (xy 144.622608 116.863519) (xy 144.565125 116.880874)
        (xy 144.507471 116.897624) (xy 144.504436 116.899197) (xy 144.501164 116.900185) (xy 144.448129 116.928384) (xy 144.394845 116.956004)
        (xy 144.392176 116.958135) (xy 144.389155 116.959741) (xy 144.342628 116.997688) (xy 144.295702 117.035148) (xy 144.290947 117.039838)
        (xy 144.290848 117.039919) (xy 144.290772 117.040011) (xy 144.289241 117.041521) (xy 144.282939 117.047823) (xy 143.375 117.047823)
        (xy 143.303339 117.053537) (xy 143.181795 117.091178) (xy 143.075549 117.161189) (xy 142.993014 117.258028) (xy 142.940725 117.374026)
        (xy 142.922823 117.5) (xy 142.922823 118.407938) (xy 141.952177 119.378585) (xy 141.952177 118.5) (xy 141.946463 118.428339)
        (xy 141.908822 118.306795) (xy 141.838811 118.200549) (xy 141.741972 118.118014) (xy 141.625974 118.065725) (xy 141.5 118.047823)
        (xy 137.5 118.047823) (xy 137.428339 118.053537) (xy 137.306795 118.091178) (xy 137.200549 118.161189) (xy 137.118014 118.258028)
        (xy 137.065725 118.374026) (xy 137.047823 118.5) (xy 136.725 118.5) (xy 136.725 113.412175) (xy 136.774026 113.434275)
        (xy 136.9 113.452177) (xy 138.9 113.452177) (xy 138.971661 113.446463) (xy 139.093205 113.408822) (xy 139.199451 113.338811)
        (xy 139.281986 113.241972) (xy 139.334275 113.125974) (xy 139.352177 113) (xy 139.352177 111.4) (xy 139.346463 111.328339)
        (xy 139.308822 111.206795) (xy 139.238811 111.100549) (xy 139.141972 111.018014) (xy 139.025974 110.965725) (xy 138.9 110.947823)
        (xy 138.55 110.947823) (xy 138.55 109.42302) (xy 138.649792 109.35969) (xy 138.821917 109.195777) (xy 138.924752 109.05)
        (xy 140.55 109.05) (xy 140.609778 109.044139) (xy 140.669568 109.038908) (xy 140.67285 109.037955) (xy 140.676252 109.037621)
        (xy 140.733735 109.020266) (xy 140.791389 109.003516) (xy 140.794424 109.001943) (xy 140.797696 109.000955) (xy 140.850731 108.972756)
        (xy 140.904015 108.945136) (xy 140.906684 108.943005) (xy 140.909705 108.941399) (xy 140.956232 108.903452) (xy 141.003158 108.865992)
        (xy 141.007913 108.861302) (xy 141.008012 108.861221) (xy 141.008088 108.861129) (xy 141.009619 108.859619) (xy 142.003097 107.866142)
        (xy 142.003537 107.871661) (xy 142.041178 107.993205) (xy 142.111189 108.099451) (xy 142.208028 108.181986) (xy 142.324026 108.234275)
        (xy 142.45 108.252177) (xy 143.75 108.252177) (xy 143.821661 108.246463) (xy 143.943205 108.208822) (xy 144.049451 108.138811)
        (xy 144.131986 108.041972) (xy 144.184275 107.925974) (xy 144.202177 107.8) (xy 144.202177 106.3) (xy 144.196463 106.228339)
        (xy 144.158822 106.106795) (xy 144.088811 106.000549) (xy 143.991972 105.918014) (xy 143.875974 105.865725) (xy 143.760641 105.849335)
        (xy 143.796661 105.846463) (xy 143.918205 105.808822) (xy 144.024451 105.738811) (xy 144.106986 105.641972) (xy 144.159275 105.525974)
        (xy 144.177177 105.4) (xy 144.177177 105.3) (xy 144.580762 105.3)
      )
    )
    (filled_polygon
      (pts
        (xy 161.275 104) (xy 152.673204 104) (xy 152.660959 103.997956) (xy 152.643557 104) (xy 152.5 104)
        (xy 152.458211 104.005939) (xy 152.419731 104.023284) (xy 152.387607 104.050663) (xy 152.364382 104.085908) (xy 152.361287 104.095903)
        (xy 151.69142 104.497823) (xy 150.225 104.497823) (xy 150.153339 104.503537) (xy 150.031795 104.541178) (xy 149.925549 104.611189)
        (xy 149.843014 104.708028) (xy 149.790725 104.824026) (xy 149.772823 104.95) (xy 149.772823 104.953584) (xy 149.419238 104.6)
        (xy 150.942062 103.077177) (xy 151.6 103.077177) (xy 151.671661 103.071463) (xy 151.793205 103.033822) (xy 151.899451 102.963811)
        (xy 151.981986 102.866972) (xy 152.034275 102.750974) (xy 152.052177 102.625) (xy 152.052177 101.375) (xy 152.046463 101.303339)
        (xy 152.008822 101.181795) (xy 151.938811 101.075549) (xy 151.841972 100.993014) (xy 151.725974 100.940725) (xy 151.6 100.922823)
        (xy 150.1 100.922823) (xy 150.028339 100.928537) (xy 149.906795 100.966178) (xy 149.800549 101.036189) (xy 149.718014 101.133028)
        (xy 149.665725 101.249026) (xy 149.647823 101.375) (xy 149.647823 102.532938) (xy 148.240381 103.940381) (xy 148.202296 103.986746)
        (xy 148.163676 104.032771) (xy 148.162028 104.035769) (xy 148.15986 104.038408) (xy 148.131486 104.091324) (xy 148.102562 104.143938)
        (xy 148.101529 104.147194) (xy 148.099913 104.150208) (xy 148.082347 104.207664) (xy 148.064204 104.264857) (xy 148.063823 104.268251)
        (xy 148.062823 104.271523) (xy 148.056754 104.331271) (xy 148.050063 104.390925) (xy 148.050017 104.397607) (xy 148.050004 104.397731)
        (xy 148.050015 104.397847) (xy 148.05 104.4) (xy 148.05 104.8) (xy 148.055861 104.859778) (xy 148.061092 104.919568)
        (xy 148.062045 104.92285) (xy 148.062379 104.926252) (xy 148.079734 104.983735) (xy 148.096484 105.041389) (xy 148.098057 105.044424)
        (xy 148.099045 105.047696) (xy 148.127244 105.100731) (xy 148.154864 105.154015) (xy 148.156995 105.156684) (xy 148.158601 105.159705)
        (xy 148.196548 105.206232) (xy 148.234008 105.253158) (xy 148.238698 105.257913) (xy 148.238779 105.258012) (xy 148.238871 105.258088)
        (xy 148.240381 105.259619) (xy 148.655762 105.675) (xy 148.640381 105.690381) (xy 148.602296 105.736746) (xy 148.563676 105.782771)
        (xy 148.562028 105.785769) (xy 148.55986 105.788408) (xy 148.531486 105.841324) (xy 148.502562 105.893938) (xy 148.501529 105.897194)
        (xy 148.499913 105.900208) (xy 148.482347 105.957664) (xy 148.464204 106.014857) (xy 148.463823 106.018251) (xy 148.462823 106.021523)
        (xy 148.456754 106.081271) (xy 148.450063 106.140925) (xy 148.450017 106.147607) (xy 148.450004 106.147731) (xy 148.450015 106.147847)
        (xy 148.45 106.15) (xy 148.45 107.030761) (xy 147.727177 106.307939) (xy 147.727177 106.05) (xy 147.721463 105.978339)
        (xy 147.683822 105.856795) (xy 147.613811 105.750549) (xy 147.555796 105.701104) (xy 147.574451 105.688811) (xy 147.656986 105.591972)
        (xy 147.709275 105.475974) (xy 147.727177 105.35) (xy 147.727177 104.95) (xy 147.721463 104.878339) (xy 147.718236 104.867918)
        (xy 147.727177 104.805) (xy 147.727177 104.005) (xy 147.721463 103.933339) (xy 147.683822 103.811795) (xy 147.613811 103.705549)
        (xy 147.516972 103.623014) (xy 147.400974 103.570725) (xy 147.275 103.552823) (xy 146.642061 103.552823) (xy 146.5 103.410762)
        (xy 146.5 103.077177) (xy 146.6 103.077177) (xy 146.671661 103.071463) (xy 146.793205 103.033822) (xy 146.899451 102.963811)
        (xy 146.981986 102.866972) (xy 147.034275 102.750974) (xy 147.052177 102.625) (xy 147.052177 101.375) (xy 147.046463 101.303339)
        (xy 147.008822 101.181795) (xy 146.938811 101.075549) (xy 146.841972 100.993014) (xy 146.725974 100.940725) (xy 146.6 100.922823)
        (xy 145.1 100.922823) (xy 145.028339 100.928537) (xy 144.906795 100.966178) (xy 144.800549 101.036189) (xy 144.718014 101.133028)
        (xy 144.665725 101.249026) (xy 144.647823 101.375) (xy 144.647823 102.625) (xy 144.653537 102.696661) (xy 144.691178 102.818205)
        (xy 144.761189 102.924451) (xy 144.858028 103.006986) (xy 144.974026 103.059275) (xy 145.1 103.077177) (xy 145.2 103.077177)
        (xy 145.2 103.68) (xy 145.205861 103.739778) (xy 145.211092 103.799568) (xy 145.212045 103.80285) (xy 145.212379 103.806252)
        (xy 145.229734 103.863735) (xy 145.246484 103.921389) (xy 145.248057 103.924424) (xy 145.249045 103.927696) (xy 145.277244 103.980731)
        (xy 145.304864 104.034015) (xy 145.306995 104.036684) (xy 145.308601 104.039705) (xy 145.346548 104.086232) (xy 145.384008 104.133158)
        (xy 145.388698 104.137913) (xy 145.388779 104.138012) (xy 145.388871 104.138088) (xy 145.390381 104.139619) (xy 145.472823 104.222061)
        (xy 145.472823 104.353585) (xy 145.309619 104.190381) (xy 145.263254 104.152296) (xy 145.217229 104.113676) (xy 145.214231 104.112028)
        (xy 145.211592 104.10986) (xy 145.158676 104.081486) (xy 145.106062 104.052562) (xy 145.102806 104.051529) (xy 145.099792 104.049913)
        (xy 145.042336 104.032347) (xy 144.985143 104.014204) (xy 144.981749 104.013823) (xy 144.978477 104.012823) (xy 144.918729 104.006754)
        (xy 144.859075 104.000063) (xy 144.852393 104.000017) (xy 144.852269 104.000004) (xy 144.852153 104.000015) (xy 144.85 104)
        (xy 144.177177 104) (xy 144.177177 103.9) (xy 144.171463 103.828339) (xy 144.133822 103.706795) (xy 144.063811 103.600549)
        (xy 143.966972 103.518014) (xy 143.850974 103.465725) (xy 143.725 103.447823) (xy 142.475 103.447823) (xy 142.403339 103.453537)
        (xy 142.281795 103.491178) (xy 142.175549 103.561189) (xy 142.093014 103.658028) (xy 142.040725 103.774026) (xy 142.022823 103.9)
        (xy 142.022823 104.807939) (xy 141.620762 105.21) (xy 141.463323 105.21) (xy 141.383777 105.090274) (xy 141.216296 104.92162)
        (xy 141.019246 104.788708) (xy 140.800132 104.696601) (xy 140.567301 104.648808) (xy 140.329622 104.647148) (xy 140.096147 104.691686)
        (xy 139.875768 104.780725) (xy 139.676882 104.910872) (xy 139.507062 105.077172) (xy 139.372778 105.27329) (xy 139.279143 105.491755)
        (xy 139.229726 105.724246) (xy 139.226407 105.961908) (xy 139.269314 106.195689) (xy 139.356812 106.416683) (xy 139.485568 106.616474)
        (xy 139.650678 106.78745) (xy 139.845853 106.9231) (xy 140.063659 107.018257) (xy 140.2958 107.069297) (xy 140.533433 107.074275)
        (xy 140.767508 107.033001) (xy 140.989108 106.947048) (xy 141.189792 106.81969) (xy 141.361917 106.655777) (xy 141.464752 106.51)
        (xy 141.53858 106.51) (xy 141.493768 106.546548) (xy 141.446842 106.584008) (xy 141.442083 106.588702) (xy 141.441988 106.588779)
        (xy 141.441915 106.588867) (xy 141.44038 106.590381) (xy 140.280762 107.75) (xy 138.923323 107.75) (xy 138.843777 107.630274)
        (xy 138.676296 107.46162) (xy 138.479246 107.328708) (xy 138.260132 107.236601) (xy 138.027301 107.188808) (xy 137.789622 107.187148)
        (xy 137.556147 107.231686) (xy 137.335768 107.320725) (xy 137.136882 107.450872) (xy 136.967062 107.617172) (xy 136.832778 107.81329)
        (xy 136.739143 108.031755) (xy 136.725 108.098293) (xy 136.725 98.425) (xy 161.275 98.425)
      )
    )
    (fill_segments
      (pts (xy 144.580762 105.3) (xy 144.177177 105.3))
      (pts (xy 144.765185 105.54) (xy 144.152952 105.54))
      (pts (xy 145.039542 105.78) (xy 143.961944 105.78))
      (pts (xy 145.477087 106.02) (xy 144.101629 106.02))
      (pts (xy 145.472823 106.26) (xy 144.198988 106.26))
      (pts (xy 145.472823 106.5) (xy 144.202177 106.5))
      (pts (xy 161.275 106.5) (xy 152.719239 106.5))
      (pts (xy 145.472823 106.74) (xy 144.202177 106.74))
      (pts (xy 161.275 106.74) (xy 152.959239 106.74))
      (pts (xy 145.496604 106.98) (xy 144.202177 106.98))
      (pts (xy 161.275 106.98) (xy 153.109731 106.98))
      (pts (xy 145.668964 107.22) (xy 144.202177 107.22))
      (pts (xy 161.275 107.22) (xy 153.15 107.22))
      (pts (xy 147.040762 107.46) (xy 144.202177 107.46))
      (pts (xy 161.275 107.46) (xy 153.15 107.46))
      (pts (xy 147.280762 107.7) (xy 144.202177 107.7))
      (pts (xy 161.275 107.7) (xy 153.15 107.7))
      (pts (xy 142.0247 107.94) (xy 141.929238 107.94))
      (pts (xy 147.014872 107.94) (xy 144.177952 107.94))
      (pts (xy 161.275 107.94) (xy 153.15 107.94))
      (pts (xy 142.205697 108.18) (xy 141.689238 108.18))
      (pts (xy 146.947823 108.18) (xy 143.986944 108.18))
      (pts (xy 161.275 108.18) (xy 153.15 108.18))
      (pts (xy 146.947823 108.42) (xy 141.449238 108.42))
      (pts (xy 161.275 108.42) (xy 153.15 108.42))
      (pts (xy 142.152354 108.66) (xy 141.209238 108.66))
      (pts (xy 146.947823 108.66) (xy 144.041235 108.66))
      (pts (xy 161.275 108.66) (xy 153.15 108.66))
      (pts (xy 142.012034 108.9) (xy 140.960556 108.9))
      (pts (xy 146.947823 108.9) (xy 144.187687 108.9))
      (pts (xy 161.275 108.9) (xy 153.15 108.9))
      (pts (xy 141.997823 109.14) (xy 138.861263 109.14))
      (pts (xy 146.947823 109.14) (xy 144.202177 109.14))
      (pts (xy 161.275 109.14) (xy 153.134255 109.14))
      (pts (xy 141.997823 109.38) (xy 138.617788 109.38))
      (pts (xy 146.947823 109.38) (xy 144.202177 109.38))
      (pts (xy 161.275 109.38) (xy 153.025607 109.38))
      (pts (xy 141.997823 109.62) (xy 138.55 109.62))
      (pts (xy 146.99236 109.62) (xy 144.202177 109.62))
      (pts (xy 161.275 109.62) (xy 152.799238 109.62))
      (pts (xy 141.997823 109.86) (xy 138.55 109.86))
      (pts (xy 147.279127 109.86) (xy 144.279238 109.86))
      (pts (xy 161.275 109.86) (xy 152.559238 109.86))
      (pts (xy 141.997823 110.1) (xy 138.55 110.1))
      (pts (xy 144.624857 110.1) (xy 144.519238 110.1))
      (pts (xy 147.324857 110.1) (xy 146.871397 110.1))
      (pts (xy 161.275 110.1) (xy 152.319238 110.1))
      (pts (xy 141.997823 110.34) (xy 138.55 110.34))
      (pts (xy 147.249245 110.34) (xy 146.95138 110.34))
      (pts (xy 161.275 110.34) (xy 152.079238 110.34))
      (pts (xy 142.006119 110.58) (xy 138.55 110.58))
      (pts (xy 147.247823 110.58) (xy 146.952177 110.58))
      (pts (xy 161.275 110.58) (xy 151.839238 110.58))
      (pts (xy 142.135299 110.82) (xy 138.55 110.82))
      (pts (xy 147.247823 110.82) (xy 146.952177 110.82))
      (pts (xy 161.275 110.82) (xy 151.802177 110.82))
      (pts (xy 143.640762 111.06) (xy 139.191235 111.06))
      (pts (xy 147.247823 111.06) (xy 146.952177 111.06))
      (pts (xy 161.275 111.06) (xy 151.802177 111.06))
      (pts (xy 143.880762 111.3) (xy 139.337687 111.3))
      (pts (xy 147.247823 111.3) (xy 146.969238 111.3))
      (pts (xy 161.275 111.3) (xy 151.802177 111.3))
      (pts (xy 144.138237 111.54) (xy 139.352177 111.54))
      (pts (xy 147.247823 111.54) (xy 147.209238 111.54))
      (pts (xy 161.275 111.54) (xy 151.802177 111.54))
      (pts (xy 144.571604 111.78) (xy 139.352177 111.78))
      (pts (xy 161.275 111.78) (xy 151.790808 111.78))
      (pts (xy 144.743964 112.02) (xy 139.352177 112.02))
      (pts (xy 161.275 112.02) (xy 151.665483 112.02))
      (pts (xy 146.090762 112.26) (xy 139.352177 112.26))
      (pts (xy 161.275 112.26) (xy 150.309238 112.26))
      (pts (xy 146.330762 112.5) (xy 139.352177 112.5))
      (pts (xy 161.275 112.5) (xy 150.069238 112.5))
      (pts (xy 146.49796 112.74) (xy 139.352177 112.74))
      (pts (xy 155.275 112.74) (xy 149.829238 112.74))
      (pts (xy 161.275 112.74) (xy 160.825 112.74))
      (pts (xy 146.49796 112.98) (xy 139.352177 112.98))
      (pts (xy 155.275 112.98) (xy 149.573681 112.98))
      (pts (xy 161.275 112.98) (xy 160.825 112.98))
      (pts (xy 146.49796 113.22) (xy 139.29189 113.22))
      (pts (xy 155.275 113.22) (xy 147.79796 113.22))
      (pts (xy 161.275 113.22) (xy 160.825 113.22))
      (pts (xy 146.49796 113.46) (xy 136.725 113.46))
      (pts (xy 155.275 113.46) (xy 147.79796 113.46))
      (pts (xy 161.275 113.46) (xy 160.825 113.46))
      (pts (xy 145.563186 113.7) (xy 136.725 113.7))
      (pts (xy 155.275 113.7) (xy 148.738361 113.7))
      (pts (xy 161.275 113.7) (xy 160.825 113.7))
      (pts (xy 145.453144 113.94) (xy 136.725 113.94))
      (pts (xy 155.275 113.94) (xy 148.846425 113.94))
      (pts (xy 161.275 113.94) (xy 160.825 113.94))
      (pts (xy 145.444833 114.18) (xy 136.725 114.18))
      (pts (xy 155.275 114.18) (xy 148.851087 114.18))
      (pts (xy 161.275 114.18) (xy 160.825 114.18))
      (pts (xy 145.444833 114.42) (xy 136.725 114.42))
      (pts (xy 155.275 114.42) (xy 148.851087 114.42))
      (pts (xy 161.275 114.42) (xy 160.825 114.42))
      (pts (xy 145.444833 114.66) (xy 136.725 114.66))
      (pts (xy 155.275 114.66) (xy 148.851087 114.66))
      (pts (xy 161.275 114.66) (xy 160.825 114.66))
      (pts (xy 145.444833 114.9) (xy 136.725 114.9))
      (pts (xy 155.275 114.9) (xy 148.851087 114.9))
      (pts (xy 161.275 114.9) (xy 160.825 114.9))
      (pts (xy 145.471946 115.14) (xy 136.725 115.14))
      (pts (xy 155.275 115.14) (xy 148.826519 115.14))
      (pts (xy 161.275 115.14) (xy 160.825 115.14))
      (pts (xy 145.653599 115.38) (xy 136.725 115.38))
      (pts (xy 155.275 115.38) (xy 148.6347 115.38))
      (pts (xy 161.275 115.38) (xy 160.825 115.38))
      (pts (xy 155.275 115.62) (xy 136.725 115.62))
      (pts (xy 161.275 115.62) (xy 160.825 115.62))
      (pts (xy 155.275 115.86) (xy 136.725 115.86))
      (pts (xy 161.275 115.86) (xy 160.825 115.86))
      (pts (xy 155.275 116.1) (xy 136.725 116.1))
      (pts (xy 161.275 116.1) (xy 160.825 116.1))
      (pts (xy 155.275 116.34) (xy 136.725 116.34))
      (pts (xy 161.275 116.34) (xy 160.825 116.34))
      (pts (xy 145.742354 116.58) (xy 136.725 116.58))
      (pts (xy 155.275 116.58) (xy 148.554866 116.58))
      (pts (xy 161.275 116.58) (xy 160.825 116.58))
      (pts (xy 145.487432 116.82) (xy 136.725 116.82))
      (pts (xy 155.275 116.82) (xy 148.811587 116.82))
      (pts (xy 161.275 116.82) (xy 160.825 116.82))
      (pts (xy 143.28247 117.06) (xy 136.725 117.06))
      (pts (xy 155.275 117.06) (xy 148.851087 117.06))
      (pts (xy 161.275 117.06) (xy 160.825 117.06))
      (pts (xy 142.974095 117.3) (xy 136.725 117.3))
      (pts (xy 155.275 117.3) (xy 148.851087 117.3))
      (pts (xy 161.275 117.3) (xy 160.825 117.3))
      (pts (xy 142.922823 117.54) (xy 136.725 117.54))
      (pts (xy 155.275 117.54) (xy 148.851087 117.54))
      (pts (xy 161.275 117.54) (xy 160.825 117.54))
      (pts (xy 142.922823 117.78) (xy 136.725 117.78))
      (pts (xy 155.275 117.78) (xy 148.851087 117.78))
      (pts (xy 161.275 117.78) (xy 160.825 117.78))
      (pts (xy 142.922823 118.02) (xy 136.725 118.02))
      (pts (xy 155.275 118.02) (xy 148.84846 118.02))
      (pts (xy 161.275 118.02) (xy 160.825 118.02))
      (pts (xy 137.117126 118.26) (xy 136.725 118.26))
      (pts (xy 142.922823 118.26) (xy 141.877987 118.26))
      (pts (xy 145.531201 118.26) (xy 145.077177 118.26))
      (pts (xy 155.275 118.26) (xy 148.766826 118.26))
      (pts (xy 161.275 118.26) (xy 160.825 118.26))
      (pts (xy 137.047823 118.5) (xy 136.725 118.5))
      (pts (xy 142.830762 118.5) (xy 141.952177 118.5))
      (pts (xy 155.275 118.5) (xy 145.077177 118.5))
      (pts (xy 161.275 118.5) (xy 160.825 118.5))
      (pts (xy 137.047823 118.74) (xy 136.725 118.74))
      (pts (xy 142.590762 118.74) (xy 141.952177 118.74))
      (pts (xy 155.275 118.74) (xy 145.077177 118.74))
      (pts (xy 161.275 118.74) (xy 160.825 118.74))
      (pts (xy 137.047823 118.98) (xy 136.725 118.98))
      (pts (xy 142.350762 118.98) (xy 141.952177 118.98))
      (pts (xy 155.275 118.98) (xy 145.077177 118.98))
      (pts (xy 161.275 118.98) (xy 160.825 118.98))
      (pts (xy 137.047823 119.22) (xy 136.725 119.22))
      (pts (xy 142.110762 119.22) (xy 141.952177 119.22))
      (pts (xy 155.275 119.22) (xy 145.01689 119.22))
      (pts (xy 161.275 119.22) (xy 160.825 119.22))
      (pts (xy 137.047823 119.46) (xy 136.725 119.46))
      (pts (xy 155.275 119.46) (xy 143.709238 119.46))
      (pts (xy 161.275 119.46) (xy 160.825 119.46))
      (pts (xy 137.047823 119.7) (xy 136.725 119.7))
      (pts (xy 155.275 119.7) (xy 143.469238 119.7))
      (pts (xy 161.275 119.7) (xy 160.825 119.7))
      (pts (xy 137.047823 119.94) (xy 136.725 119.94))
      (pts (xy 155.275 119.94) (xy 143.229238 119.94))
      (pts (xy 161.275 119.94) (xy 160.825 119.94))
      (pts (xy 137.047823 120.18) (xy 136.725 120.18))
      (pts (xy 155.275 120.18) (xy 142.989238 120.18))
      (pts (xy 161.275 120.18) (xy 160.825 120.18))
      (pts (xy 137.047823 120.42) (xy 136.725 120.42))
      (pts (xy 155.275 120.42) (xy 142.749238 120.42))
      (pts (xy 161.275 120.42) (xy 160.825 120.42))
      (pts (xy 137.047823 120.66) (xy 136.725 120.66))
      (pts (xy 155.275 120.66) (xy 142.509238 120.66))
      (pts (xy 161.275 120.66) (xy 160.825 120.66))
      (pts (xy 137.047823 120.9) (xy 136.725 120.9))
      (pts (xy 155.275 120.9) (xy 142.269238 120.9))
      (pts (xy 161.275 120.9) (xy 160.825 120.9))
      (pts (xy 137.047823 121.14) (xy 136.725 121.14))
      (pts (xy 155.275 121.14) (xy 141.952177 121.14))
      (pts (xy 161.275 121.14) (xy 160.825 121.14))
      (pts (xy 137.047823 121.38) (xy 136.725 121.38))
      (pts (xy 155.275 121.38) (xy 141.952177 121.38))
      (pts (xy 161.275 121.38) (xy 160.825 121.38))
      (pts (xy 137.047823 121.62) (xy 136.725 121.62))
      (pts (xy 155.275 121.62) (xy 141.952177 121.62))
      (pts (xy 161.275 121.62) (xy 160.825 121.62))
      (pts (xy 137.047823 121.86) (xy 136.725 121.86))
      (pts (xy 161.275 121.86) (xy 141.952177 121.86))
      (pts (xy 137.047823 122.1) (xy 136.725 122.1))
      (pts (xy 161.275 122.1) (xy 141.952177 122.1))
      (pts (xy 137.047823 122.34) (xy 136.725 122.34))
      (pts (xy 161.275 122.34) (xy 141.952177 122.34))
      (pts (xy 137.056119 122.58) (xy 136.725 122.58))
      (pts (xy 161.275 122.58) (xy 141.940808 122.58))
      (pts (xy 137.185299 122.82) (xy 136.725 122.82))
      (pts (xy 161.275 122.82) (xy 141.815483 122.82))
      (pts (xy 161.275 98.425) (xy 136.725 98.425))
      (pts (xy 161.275 98.665) (xy 136.725 98.665))
      (pts (xy 161.275 98.905) (xy 136.725 98.905))
      (pts (xy 161.275 99.145) (xy 136.725 99.145))
      (pts (xy 161.275 99.385) (xy 136.725 99.385))
      (pts (xy 161.275 99.625) (xy 136.725 99.625))
      (pts (xy 161.275 99.865) (xy 136.725 99.865))
      (pts (xy 161.275 100.105) (xy 136.725 100.105))
      (pts (xy 161.275 100.345) (xy 136.725 100.345))
      (pts (xy 161.275 100.585) (xy 136.725 100.585))
      (pts (xy 161.275 100.825) (xy 136.725 100.825))
      (pts (xy 144.775994 101.065) (xy 136.725 101.065))
      (pts (xy 149.775994 101.065) (xy 146.926434 101.065))
      (pts (xy 161.275 101.065) (xy 151.926434 101.065))
      (pts (xy 144.657771 101.305) (xy 136.725 101.305))
      (pts (xy 149.657771 101.305) (xy 147.046596 101.305))
      (pts (xy 161.275 101.305) (xy 152.046596 101.305))
      (pts (xy 144.647823 101.545) (xy 136.725 101.545))
      (pts (xy 149.647823 101.545) (xy 147.052177 101.545))
      (pts (xy 161.275 101.545) (xy 152.052177 101.545))
      (pts (xy 144.647823 101.785) (xy 136.725 101.785))
      (pts (xy 149.647823 101.785) (xy 147.052177 101.785))
      (pts (xy 161.275 101.785) (xy 152.052177 101.785))
      (pts (xy 144.647823 102.025) (xy 136.725 102.025))
      (pts (xy 149.647823 102.025) (xy 147.052177 102.025))
      (pts (xy 161.275 102.025) (xy 152.052177 102.025))
      (pts (xy 144.647823 102.265) (xy 136.725 102.265))
      (pts (xy 149.647823 102.265) (xy 147.052177 102.265))
      (pts (xy 161.275 102.265) (xy 152.052177 102.265))
      (pts (xy 144.647823 102.505) (xy 136.725 102.505))
      (pts (xy 149.647823 102.505) (xy 147.052177 102.505))
      (pts (xy 161.275 102.505) (xy 152.052177 102.505))
      (pts (xy 144.668507 102.745) (xy 136.725 102.745))
      (pts (xy 149.435762 102.745) (xy 147.035123 102.745))
      (pts (xy 161.275 102.745) (xy 152.035123 102.745))
      (pts (xy 144.832231 102.985) (xy 136.725 102.985))
      (pts (xy 149.195762 102.985) (xy 146.867295 102.985))
      (pts (xy 161.275 102.985) (xy 151.867295 102.985))
      (pts (xy 145.2 103.225) (xy 136.725 103.225))
      (pts (xy 148.955762 103.225) (xy 146.5 103.225))
      (pts (xy 161.275 103.225) (xy 150.794238 103.225))
      (pts (xy 142.366325 103.465) (xy 136.725 103.465))
      (pts (xy 145.2 103.465) (xy 143.845873 103.465))
      (pts (xy 148.715762 103.465) (xy 146.554238 103.465))
      (pts (xy 161.275 103.465) (xy 150.554238 103.465))
      (pts (xy 142.071841 103.705) (xy 136.725 103.705))
      (pts (xy 145.202451 103.705) (xy 144.13264 103.705))
      (pts (xy 148.475762 103.705) (xy 147.613167 103.705))
      (pts (xy 161.275 103.705) (xy 150.314238 103.705))
      (pts (xy 142.022823 103.945) (xy 136.725 103.945))
      (pts (xy 145.258245 103.945) (xy 144.177177 103.945))
      (pts (xy 148.236587 103.945) (xy 147.722393 103.945))
      (pts (xy 161.275 103.945) (xy 150.074238 103.945))
      (pts (xy 142.022823 104.185) (xy 136.725 104.185))
      (pts (xy 145.435762 104.185) (xy 145.303069 104.185))
      (pts (xy 148.089277 104.185) (xy 147.727177 104.185))
      (pts (xy 152.212792 104.185) (xy 149.834238 104.185))
      (pts (xy 142.022823 104.425) (xy 136.725 104.425))
      (pts (xy 148.05 104.425) (xy 147.727177 104.425))
      (pts (xy 151.812792 104.425) (xy 149.594238 104.425))
      (pts (xy 140.23604 104.665) (xy 136.725 104.665))
      (pts (xy 142.022823 104.665) (xy 140.646183 104.665))
      (pts (xy 148.05 104.665) (xy 147.727177 104.665))
      (pts (xy 149.879687 104.665) (xy 149.484239 104.665))
      (pts (xy 139.685856 104.905) (xy 136.725 104.905))
      (pts (xy 141.925762 104.905) (xy 141.191656 104.905))
      (pts (xy 148.059817 104.905) (xy 147.723589 104.905))
      (pts (xy 149.779218 104.905) (xy 149.724239 104.905))
      (pts (xy 139.46062 105.145) (xy 136.725 105.145))
      (pts (xy 141.685762 105.145) (xy 141.420137 105.145))
      (pts (xy 148.150191 105.145) (xy 147.727177 105.145))
      (pts (xy 139.324899 105.385) (xy 136.725 105.385))
      (pts (xy 148.365762 105.385) (xy 147.722203 105.385))
      (pts (xy 139.250822 105.625) (xy 136.725 105.625))
      (pts (xy 148.605762 105.625) (xy 147.628836 105.625))
      (pts (xy 139.227761 105.865) (xy 136.725 105.865))
      (pts (xy 148.518471 105.865) (xy 147.686364 105.865))
      (pts (xy 139.252669 106.105) (xy 136.725 106.105))
      (pts (xy 148.454093 106.105) (xy 147.727177 106.105))
      (pts (xy 139.32843 106.345) (xy 136.725 106.345))
      (pts (xy 148.45 106.345) (xy 147.764239 106.345))
      (pts (xy 139.465284 106.585) (xy 136.725 106.585))
      (pts (xy 141.445837 106.585) (xy 141.411844 106.585))
      (pts (xy 148.45 106.585) (xy 148.004239 106.585))
      (pts (xy 139.704705 106.825) (xy 136.725 106.825))
      (pts (xy 141.205762 106.825) (xy 141.181424 106.825))
      (pts (xy 148.45 106.825) (xy 148.244239 106.825))
      (pts (xy 140.276256 107.065) (xy 136.725 107.065))
      (pts (xy 140.965762 107.065) (xy 140.586033 107.065))
      (pts (xy 137.374689 107.305) (xy 136.725 107.305))
      (pts (xy 140.725762 107.305) (xy 138.422847 107.305))
      (pts (xy 137.040762 107.545) (xy 136.725 107.545))
      (pts (xy 140.485762 107.545) (xy 138.759097 107.545))
      (pts (xy 136.852149 107.785) (xy 136.725 107.785))
      (pts (xy 136.742039 108.025) (xy 136.725 108.025))
    )
  )
)
