%!PS-Adobe-3.0
%%Creator: PCBNEW
%%CreationDate: Wed Dec 14 15:01:46 2016
%%Title: /media/c2m/HOG/Projet/MAX2750_OL_2.4GHz/max2750_ol_2-F.Cu.ps
%%Pages: 1
%%PageOrder: Ascend
%%BoundingBox: 0 0 596 842
%%DocumentMedia: A4 595 842 0 () ()
%%Orientation: Landscape
%%EndComments
%%BeginProlog
/line { newpath moveto lineto stroke } bind def
/cir0 { newpath 0 360 arc stroke } bind def
/cir1 { newpath 0 360 arc gsave fill grestore stroke } bind def
/cir2 { newpath 0 360 arc gsave fill grestore stroke } bind def
/arc0 { newpath arc stroke } bind def
/arc1 { newpath 4 index 4 index moveto arc closepath gsave fill
    grestore stroke } bind def
/arc2 { newpath 4 index 4 index moveto arc closepath gsave fill
    grestore stroke } bind def
/poly0 { stroke } bind def
/poly1 { closepath gsave fill grestore stroke } bind def
/poly2 { closepath gsave fill grestore stroke } bind def
/rect0 { rectstroke } bind def
/rect1 { rectfill } bind def
/rect2 { rectfill } bind def
/linemode0 { 0 setlinecap 0 setlinejoin 0 setlinewidth } bind def
/linemode1 { 1 setlinecap 1 setlinejoin } bind def
/dashedline { [200] 100 setdash } bind def
/solidline { [] 0 setdash } bind def
/phantomshow { moveto
    /KicadFont findfont 0.000001 scalefont setfont
    show } bind def
/textshow { gsave
    findfont exch scalefont setfont concat 1 scale 0 0 moveto show
    } bind def
/reencodefont {
  findfont dup length dict begin
  { 1 index /FID ne
    { def }
    { pop pop } ifelse
  } forall
  /Encoding ISOLatin1Encoding def
  currentdict
  end } bind def
/KicadFont /Helvetica reencodefont definefont pop
/KicadFont-Bold /Helvetica-Bold reencodefont definefont pop
/KicadFont-Oblique /Helvetica-Oblique reencodefont definefont pop
/KicadFont-BoldOblique /Helvetica-BoldOblique reencodefont definefont pop
%%EndProlog
%%Page: 1 1
%%BeginPageSetup
gsave
0.0072 0.0072 scale
linemode1
82680 0 translate 90 rotate
39.3701 setlinewidth
%%EndPageSetup
0 0 0 setrgbcolor
0 0 0 setrgbcolor
98.4252 setlinewidth
newpath
55236.1 35281.2 moveto
55629.8 35281.2 lineto
55348.6 35412.5 lineto
55629.8 35543.7 lineto
55236.1 35543.7 lineto
stroke
newpath
55348.6 35712.4 moveto
55348.6 35899.9 lineto
stroke
newpath
55236.1 35674.9 moveto
55629.8 35806.2 lineto
55236.1 35937.4 lineto
stroke
newpath
55629.8 36031.1 moveto
55236.1 36293.6 lineto
stroke
newpath
55629.8 36293.6 moveto
55236.1 36031.1 lineto
stroke
newpath
55592.4 36424.8 moveto
55611.1 36443.6 lineto
55629.8 36481.1 lineto
55629.8 36574.8 lineto
55611.1 36612.3 lineto
55592.4 36631.1 lineto
55554.9 36649.8 lineto
55517.4 36649.8 lineto
55461.1 36631.1 lineto
55236.1 36406.1 lineto
55236.1 36649.8 lineto
stroke
newpath
55629.8 36781.1 moveto
55629.8 37043.5 lineto
55236.1 36874.8 lineto
stroke
newpath
55629.8 37381 moveto
55629.8 37193.5 lineto
55442.4 37174.8 lineto
55461.1 37193.5 lineto
55479.9 37231 lineto
55479.9 37324.7 lineto
55461.1 37362.2 lineto
55442.4 37381 lineto
55404.9 37399.7 lineto
55311.1 37399.7 lineto
55273.6 37381 lineto
55254.9 37362.2 lineto
55236.1 37324.7 lineto
55236.1 37231 lineto
55254.9 37193.5 lineto
55273.6 37174.8 lineto
stroke
newpath
55629.8 37643.4 moveto
55629.8 37680.9 lineto
55611.1 37718.4 lineto
55592.4 37737.2 lineto
55554.9 37755.9 lineto
55479.9 37774.7 lineto
55386.1 37774.7 lineto
55311.1 37755.9 lineto
55273.6 37737.2 lineto
55254.9 37718.4 lineto
55236.1 37680.9 lineto
55236.1 37643.4 lineto
55254.9 37605.9 lineto
55273.6 37587.2 lineto
55311.1 37568.5 lineto
55386.1 37549.7 lineto
55479.9 37549.7 lineto
55554.9 37568.5 lineto
55592.4 37587.2 lineto
55611.1 37605.9 lineto
55629.8 37643.4 lineto
stroke
newpath
54903.4 34840.7 moveto
54922.1 34859.4 lineto
54940.9 34896.9 lineto
54940.9 34990.6 lineto
54922.1 35028.1 lineto
54903.4 35046.9 lineto
54865.9 35065.6 lineto
54828.4 35065.6 lineto
54772.1 35046.9 lineto
54547.2 34821.9 lineto
54547.2 35065.6 lineto
stroke
newpath
54584.7 35234.4 moveto
54565.9 35253.1 lineto
54547.2 35234.4 lineto
54565.9 35215.6 lineto
54584.7 35234.4 lineto
54547.2 35234.4 lineto
stroke
newpath
54809.6 35590.6 moveto
54547.2 35590.6 lineto
stroke
newpath
54959.6 35496.8 moveto
54678.4 35403.1 lineto
54678.4 35646.8 lineto
stroke
newpath
54922.1 36003 moveto
54940.9 35965.5 lineto
54940.9 35909.3 lineto
54922.1 35853 lineto
54884.6 35815.5 lineto
54847.1 35796.8 lineto
54772.1 35778.1 lineto
54715.9 35778.1 lineto
54640.9 35796.8 lineto
54603.4 35815.5 lineto
54565.9 35853 lineto
54547.2 35909.3 lineto
54547.2 35946.8 lineto
54565.9 36003 lineto
54584.7 36021.8 lineto
54715.9 36021.8 lineto
54715.9 35946.8 lineto
stroke
newpath
54547.2 36190.5 moveto
54940.9 36190.5 lineto
stroke
newpath
54753.4 36190.5 moveto
54753.4 36415.5 lineto
stroke
newpath
54547.2 36415.5 moveto
54940.9 36415.5 lineto
stroke
newpath
54809.6 36565.5 moveto
54809.6 36771.7 lineto
54547.2 36565.5 lineto
54547.2 36771.7 lineto
stroke
newpath
54940.9 37165.4 moveto
54547.2 37296.6 lineto
54940.9 37427.8 lineto
stroke
newpath
54584.7 37784 moveto
54565.9 37765.3 lineto
54547.2 37709.1 lineto
54547.2 37671.6 lineto
54565.9 37615.3 lineto
54603.4 37577.8 lineto
54640.9 37559.1 lineto
54715.9 37540.3 lineto
54772.1 37540.3 lineto
54847.1 37559.1 lineto
54884.6 37577.8 lineto
54922.1 37615.3 lineto
54940.9 37671.6 lineto
54940.9 37709.1 lineto
54922.1 37765.3 lineto
54903.4 37784 lineto
stroke
newpath
54940.9 38027.8 moveto
54940.9 38102.8 lineto
54922.1 38140.3 lineto
54884.6 38177.8 lineto
54809.6 38196.5 lineto
54678.4 38196.5 lineto
54603.4 38177.8 lineto
54565.9 38140.3 lineto
54547.2 38102.8 lineto
54547.2 38027.8 lineto
54565.9 37990.3 lineto
54603.4 37952.8 lineto
54678.4 37934 lineto
54809.6 37934 lineto
54884.6 37952.8 lineto
54922.1 37990.3 lineto
54940.9 38027.8 lineto
stroke
newpath
53895.7 35243.7 moveto
53876.9 35225 lineto
53858.2 35168.8 lineto
53858.2 35131.3 lineto
53876.9 35075 lineto
53914.4 35037.5 lineto
53951.9 35018.8 lineto
54026.9 35000 lineto
54083.2 35000 lineto
54158.2 35018.8 lineto
54195.7 35037.5 lineto
54233.1 35075 lineto
54251.9 35131.3 lineto
54251.9 35168.8 lineto
54233.1 35225 lineto
54214.4 35243.7 lineto
stroke
newpath
53858.2 35412.5 moveto
54251.9 35412.5 lineto
stroke
newpath
53858.2 35599.9 moveto
54251.9 35599.9 lineto
53970.7 35731.2 lineto
54251.9 35862.4 lineto
53858.2 35862.4 lineto
stroke
newpath
54064.4 36049.9 moveto
54064.4 36181.1 lineto
stroke
newpath
53858.2 36237.4 moveto
53858.2 36049.9 lineto
54251.9 36049.9 lineto
54251.9 36237.4 lineto
stroke
newpath
54214.4 36687.3 moveto
54233.1 36706.1 lineto
54251.9 36743.6 lineto
54251.9 36837.3 lineto
54233.1 36874.8 lineto
54214.4 36893.5 lineto
54176.9 36912.3 lineto
54139.4 36912.3 lineto
54083.2 36893.5 lineto
53858.2 36668.6 lineto
53858.2 36912.3 lineto
stroke
newpath
54251.9 37156 moveto
54251.9 37193.5 lineto
54233.1 37231 lineto
54214.4 37249.7 lineto
54176.9 37268.5 lineto
54101.9 37287.2 lineto
54008.2 37287.2 lineto
53933.2 37268.5 lineto
53895.7 37249.7 lineto
53876.9 37231 lineto
53858.2 37193.5 lineto
53858.2 37156 lineto
53876.9 37118.5 lineto
53895.7 37099.8 lineto
53933.2 37081 lineto
54008.2 37062.3 lineto
54101.9 37062.3 lineto
54176.9 37081 lineto
54214.4 37099.8 lineto
54233.1 37118.5 lineto
54251.9 37156 lineto
stroke
newpath
53858.2 37662.2 moveto
53858.2 37437.2 lineto
stroke
newpath
53858.2 37549.7 moveto
54251.9 37549.7 lineto
54195.7 37512.2 lineto
54158.2 37474.7 lineto
54139.4 37437.2 lineto
stroke
newpath
54251.9 37999.6 moveto
54251.9 37924.7 lineto
54233.1 37887.2 lineto
54214.4 37868.4 lineto
54158.2 37830.9 lineto
54083.2 37812.2 lineto
53933.2 37812.2 lineto
53895.7 37830.9 lineto
53876.9 37849.7 lineto
53858.2 37887.2 lineto
53858.2 37962.2 lineto
53876.9 37999.6 lineto
53895.7 38018.4 lineto
53933.2 38037.1 lineto
54026.9 38037.1 lineto
54064.4 38018.4 lineto
54083.2 37999.6 lineto
54101.9 37962.2 lineto
54101.9 37887.2 lineto
54083.2 37849.7 lineto
54064.4 37830.9 lineto
54026.9 37812.2 lineto
stroke
0 0 0 setrgbcolor
0 setlinewidth
newpath
59804 42276.5 moveto
59804 42768.6 lineto
59213.5 42768.6 lineto
59213.5 42276.5 lineto
59804 42276.5 lineto
poly1
0 0 0 setrgbcolor
newpath
58819.8 42276.5 moveto
58819.8 42768.6 lineto
58229.2 42768.6 lineto
58229.2 42276.5 lineto
58819.8 42276.5 lineto
poly1
0 0 0 setrgbcolor
newpath
63032.4 38191.8 moveto
63032.4 38821.7 lineto
62245 38821.7 lineto
62245 38191.8 lineto
63032.4 38191.8 lineto
poly1
0 0 0 setrgbcolor
newpath
61457.6 38191.8 moveto
61457.6 38821.7 lineto
60670.2 38821.7 lineto
60670.2 38191.8 lineto
61457.6 38191.8 lineto
poly1
0 0 0 setrgbcolor
newpath
60345.4 41183.9 moveto
60837.5 41183.9 lineto
60837.5 41774.5 lineto
60345.4 41774.5 lineto
60345.4 41183.9 lineto
poly1
0 0 0 setrgbcolor
newpath
60345.4 42168.2 moveto
60837.5 42168.2 lineto
60837.5 42758.7 lineto
60345.4 42758.7 lineto
60345.4 42168.2 lineto
poly1
0 0 0 setrgbcolor
newpath
57835.5 42276.5 moveto
57835.5 42768.6 lineto
57245 42768.6 lineto
57245 42276.5 lineto
57835.5 42276.5 lineto
poly1
0 0 0 setrgbcolor
newpath
56851.3 42276.5 moveto
56851.3 42768.6 lineto
56260.7 42768.6 lineto
56260.7 42276.5 lineto
56851.3 42276.5 lineto
poly1
0 0 0 setrgbcolor
newpath
59991 35829.6 moveto
60483.1 35829.6 lineto
60483.1 36420.2 lineto
59991 36420.2 lineto
59991 35829.6 lineto
poly1
0 0 0 setrgbcolor
newpath
59991 36813.9 moveto
60483.1 36813.9 lineto
60483.1 37404.4 lineto
59991 37404.4 lineto
59991 36813.9 lineto
poly1
0 0 0 setrgbcolor
newpath
59843.4 38723.3 moveto
59843.4 39235.1 lineto
59252.8 39235.1 lineto
59252.8 38723.3 lineto
59843.4 38723.3 lineto
poly1
0 0 0 setrgbcolor
newpath
58780.4 38723.3 moveto
58780.4 39235.1 lineto
58189.8 39235.1 lineto
58189.8 38723.3 lineto
58780.4 38723.3 lineto
poly1
0 0 0 setrgbcolor
newpath
57343.4 38703.6 moveto
57855.2 38703.6 lineto
57855.2 39294.2 lineto
57343.4 39294.2 lineto
57343.4 38703.6 lineto
poly1
0 0 0 setrgbcolor
newpath
57343.4 39766.6 moveto
57855.2 39766.6 lineto
57855.2 40357.2 lineto
57343.4 40357.2 lineto
57343.4 39766.6 lineto
poly1
0 0 0 setrgbcolor
newpath
60335.5 39176.1 moveto
60847.3 39176.1 lineto
60847.3 39766.6 lineto
60335.5 39766.6 lineto
60335.5 39176.1 lineto
poly1
0 0 0 setrgbcolor
newpath
60335.5 40239.1 moveto
60847.3 40239.1 lineto
60847.3 40829.6 lineto
60335.5 40829.6 lineto
60335.5 40239.1 lineto
poly1
0 0 0 setrgbcolor
61638.7 41002.8 300 cir1
39.3701 setlinewidth
0 0 0 setrgbcolor
0 setlinewidth
62638.7 42002.8 300 cir1
39.3701 setlinewidth
0 0 0 setrgbcolor
0 setlinewidth
62638.7 40002.8 300 cir1
39.3701 setlinewidth
0 0 0 setrgbcolor
0 setlinewidth
newpath
53347.3 41361.1 moveto
53347.3 41164.3 lineto
54134.7 41164.3 lineto
54134.7 41361.1 lineto
53347.3 41361.1 lineto
poly1
0 0 0 setrgbcolor
newpath
53347.3 43132.8 moveto
53347.3 42739.1 lineto
55315.8 42739.1 lineto
55315.8 43132.8 lineto
53347.3 43132.8 lineto
poly1
0 0 0 setrgbcolor
newpath
53347.3 39786.3 moveto
53347.3 39392.6 lineto
55315.8 39392.6 lineto
55315.8 39786.3 lineto
53347.3 39786.3 lineto
poly1
0 0 0 setrgbcolor
newpath
61221.3 34451.7 moveto
62796.1 34451.7 lineto
62796.1 36026.5 lineto
61221.3 36026.5 lineto
61221.3 34451.7 lineto
poly1
0 0 0 setrgbcolor
62008.7 37207.6 393.701 cir1
39.3701 setlinewidth
0 0 0 setrgbcolor
0 setlinewidth
newpath
58308 40091.4 moveto
58308 39599.3 lineto
58898.5 39599.3 lineto
58898.5 40091.4 lineto
58308 40091.4 lineto
poly1
0 0 0 setrgbcolor
newpath
59292.2 40091.4 moveto
59292.2 39599.3 lineto
59882.8 39599.3 lineto
59882.8 40091.4 lineto
59292.2 40091.4 lineto
poly1
0 0 0 setrgbcolor
newpath
59490.2 37798.7 moveto
58505.2 37798.7 lineto
58505.2 37404.7 lineto
59490.2 37404.7 lineto
59490.2 37798.7 lineto
poly1
0 0 0 setrgbcolor
newpath
59490.2 37207.7 moveto
58505.2 37207.7 lineto
58505.2 36813.7 lineto
59490.2 36813.7 lineto
59490.2 37207.7 lineto
poly1
0 0 0 setrgbcolor
newpath
59490.2 36616.7 moveto
58505.2 36616.7 lineto
58505.2 36222.7 lineto
59490.2 36222.7 lineto
59490.2 36616.7 lineto
poly1
0 0 0 setrgbcolor
newpath
58229.2 37404.2 moveto
56654.2 37404.2 lineto
56654.2 36617.2 lineto
58229.2 36617.2 lineto
58229.2 37404.2 lineto
poly1
0 0 0 setrgbcolor
newpath
58219.2 36616.7 moveto
58514.2 36813.7 lineto
58514.2 37207.7 lineto
58219.2 37404.7 lineto
58219.2 36616.7 lineto
poly1
0 0 0 setrgbcolor
newpath
58101.3 40987.1 moveto
58101.3 41144.6 lineto
57943.8 41144.6 lineto
57943.8 40987.1 lineto
58101.3 40987.1 lineto
poly1
0 0 0 setrgbcolor
newpath
59774.5 41203.6 moveto
59774.5 41361.1 lineto
59617 41361.1 lineto
59617 41203.6 lineto
59774.5 41203.6 lineto
poly1
0 0 0 setrgbcolor
newpath
57225.3 41243 moveto
57225.3 41321.7 lineto
56831.6 41558 lineto
56831.6 41006.8 lineto
57225.3 41243 lineto
poly1
0 0 0 setrgbcolor
newpath
59479.2 41418.2 moveto
59479.2 41733.1 lineto
58947.7 41733.1 lineto
58947.7 41418.2 lineto
59479.2 41418.2 lineto
poly1
0 0 0 setrgbcolor
newpath
59636.7 41203.6 moveto
59636.7 41361.1 lineto
58947.7 41361.1 lineto
58947.7 41203.6 lineto
59636.7 41203.6 lineto
poly1
0 0 0 setrgbcolor
newpath
59479.2 40987.1 moveto
59479.2 41144.6 lineto
58790.2 41144.6 lineto
58790.2 40987.1 lineto
59479.2 40987.1 lineto
poly1
0 0 0 setrgbcolor
newpath
59479.2 40613.1 moveto
59479.2 40928 lineto
58947.7 40928 lineto
58947.7 40613.1 lineto
59479.2 40613.1 lineto
poly1
0 0 0 setrgbcolor
newpath
57786.3 40613.1 moveto
57786.3 40928 lineto
57254.8 40928 lineto
57254.8 40613.1 lineto
57786.3 40613.1 lineto
poly1
0 0 0 setrgbcolor
newpath
57943.8 40987.1 moveto
57943.8 41144.6 lineto
57254.8 41144.6 lineto
57254.8 40987.1 lineto
57943.8 40987.1 lineto
poly1
0 0 0 setrgbcolor
newpath
57786.3 41203.6 moveto
57786.3 41361.1 lineto
57097.3 41361.1 lineto
57097.3 41203.6 lineto
57786.3 41203.6 lineto
poly1
0 0 0 setrgbcolor
newpath
57786.3 41420.2 moveto
57786.3 41735.1 lineto
57254.8 41735.1 lineto
57254.8 41420.2 lineto
57786.3 41420.2 lineto
poly1
0 0 0 setrgbcolor
157.48 setlinewidth
newpath
58485.1 38979.2 moveto
58485.1 39727.2 lineto
stroke
0 0 0 setrgbcolor
newpath
58485.1 39727.2 moveto
58603.2 39845.4 lineto
stroke
0 0 0 setrgbcolor
newpath
59233.1 40780.4 moveto
59085.5 40780.4 lineto
stroke
0 0 0 setrgbcolor
newpath
59085.5 40780.4 moveto
58603.2 40298.1 lineto
stroke
0 0 0 setrgbcolor
newpath
58603.2 40298.1 moveto
58603.2 39845.4 lineto
stroke
0 0 0 setrgbcolor
newpath
60433.9 37306 moveto
61516.6 37306 lineto
stroke
0 0 0 setrgbcolor
newpath
61516.6 37306 moveto
62008.7 36813.9 lineto
stroke
0 0 0 setrgbcolor
newpath
60591.4 40534.3 moveto
61063.9 40534.3 lineto
stroke
0 0 0 setrgbcolor
newpath
61595.4 40002.8 moveto
62638.7 40002.8 lineto
stroke
0 0 0 setrgbcolor
newpath
61063.9 40534.3 moveto
61595.4 40002.8 lineto
stroke
0 0 0 setrgbcolor
newpath
62638.7 38506.8 moveto
62638.7 40002.8 lineto
stroke
0 0 0 setrgbcolor
newpath
60591.4 40317.8 moveto
60591.4 40534.3 lineto
stroke
0 0 0 setrgbcolor
newpath
60591.4 41479.2 moveto
59902.4 41479.2 lineto
stroke
0 0 0 setrgbcolor
newpath
59902.4 41479.2 moveto
59715.4 41292.2 lineto
stroke
0 0 0 setrgbcolor
newpath
61638.7 41002.8 moveto
61067.8 41002.8 lineto
stroke
0 0 0 setrgbcolor
newpath
61067.8 41002.8 moveto
60591.4 41479.2 lineto
stroke
0 0 0 setrgbcolor
newpath
57441.8 39904.4 moveto
57658.3 39904.4 lineto
stroke
0 0 0 setrgbcolor
newpath
57658.3 39904.4 moveto
58229.2 40475.3 lineto
stroke
0 0 0 setrgbcolor
newpath
58229.2 40475.3 moveto
58229.2 40888.7 lineto
stroke
0 0 0 setrgbcolor
newpath
58229.2 40888.7 moveto
58042.2 41075.7 lineto
stroke
0 0 0 setrgbcolor
newpath
57540.2 42522.5 moveto
57540.2 42424.1 lineto
stroke
0 0 0 setrgbcolor
newpath
57540.2 42424.1 moveto
58386.7 41577.6 lineto
stroke
0 0 0 setrgbcolor
newpath
58386.7 41577.6 moveto
58386.7 41420.2 lineto
stroke
0 0 0 setrgbcolor
newpath
58386.7 41420.2 moveto
58042.2 41075.7 lineto
stroke
0 0 0 setrgbcolor
newpath
58997.7 36419.7 moveto
59942.3 36419.7 lineto
stroke
0 0 0 setrgbcolor
newpath
59942.3 36419.7 moveto
60237.1 36124.9 lineto
stroke
0 0 0 setrgbcolor
newpath
62008.7 35239.1 moveto
61122.9 35239.1 lineto
stroke
0 0 0 setrgbcolor
newpath
61122.9 35239.1 moveto
60237.1 36124.9 lineto
stroke
0 0 0 setrgbcolor
newpath
58997.7 38408.3 moveto
58189.8 38408.3 lineto
stroke
0 0 0 setrgbcolor
newpath
58189.8 38408.3 moveto
57599.3 38998.9 lineto
stroke
0 0 0 setrgbcolor
newpath
58997.7 37601.7 moveto
58997.7 38408.3 lineto
stroke
0 0 0 setrgbcolor
newpath
58997.7 38408.3 moveto
58997.7 38428.8 lineto
stroke
0 0 0 setrgbcolor
newpath
58997.7 38428.8 moveto
59548.1 38979.2 lineto
stroke
0 0 0 setrgbcolor
newpath
57599.3 38998.9 moveto
57599.3 39058 lineto
stroke
0 0 0 setrgbcolor
newpath
57599.3 39058 moveto
56890.6 39766.6 lineto
stroke
0 0 0 setrgbcolor
newpath
57599.3 38998.9 moveto
57599.3 38979.2 lineto
stroke
0 0 0 setrgbcolor
newpath
56890.6 39766.6 moveto
56890.6 40475.3 lineto
stroke
0 0 0 setrgbcolor
newpath
57540.2 40780.4 moveto
57195.7 40780.4 lineto
stroke
0 0 0 setrgbcolor
newpath
57195.7 40780.4 moveto
56890.6 40475.3 lineto
stroke
0 0 0 setrgbcolor
newpath
57441.8 38841.4 moveto
57441.8 38821.7 lineto
stroke
0 0 0 setrgbcolor
newpath
59410.3 38979.2 moveto
59548.1 38979.2 lineto
stroke
0 0 0 setrgbcolor
newpath
60591.4 39471.3 moveto
60532.4 39471.3 lineto
stroke
0 0 0 setrgbcolor
newpath
60532.4 39471.3 moveto
60040.2 38979.2 lineto
stroke
0 0 0 setrgbcolor
newpath
60040.2 38979.2 moveto
59548.1 38979.2 lineto
stroke
0 0 0 setrgbcolor
newpath
59508.7 42522.5 moveto
59508.7 41861.1 lineto
stroke
0 0 0 setrgbcolor
newpath
59508.7 41861.1 moveto
59233.1 41585.5 lineto
stroke
0 0 0 setrgbcolor
118.11 setlinewidth
newpath
56811.9 41498.9 moveto
53435.9 41498.9 lineto
stroke
newpath
56811.9 41404.4 moveto
53435.9 41404.4 lineto
stroke
newpath
56811.9 41309.9 moveto
53435.9 41309.9 lineto
stroke
newpath
56811.9 41215.4 moveto
53435.9 41215.4 lineto
stroke
newpath
56811.9 41120.9 moveto
53435.9 41120.9 lineto
stroke
newpath
53435.9 41065.8 moveto
56811.9 41065.8 lineto
56811.9 41498.9 lineto
53435.9 41498.9 lineto
53435.9 41065.8 lineto
poly0
0 0 0 setrgbcolor
newpath
60167.3 41223.3 moveto
60008.4 41223.3 lineto
stroke
newpath
60176.9 41128.8 moveto
59935.8 41128.8 lineto
stroke
newpath
60252.1 41034.3 moveto
59827.8 41034.3 lineto
stroke
newpath
60197.1 40939.8 moveto
59655.6 40939.8 lineto
stroke
newpath
60158.7 40845.4 moveto
59657.2 40845.4 lineto
stroke
newpath
60157.5 40750.9 moveto
59657.2 40750.9 lineto
stroke
newpath
56804.3 40750.9 moveto
53435.9 40750.9 lineto
stroke
newpath
60157.5 40656.4 moveto
59657.2 40656.4 lineto
stroke
newpath
56709.8 40656.4 moveto
53435.9 40656.4 lineto
stroke
newpath
60157.5 40561.9 moveto
59647.9 40561.9 lineto
stroke
newpath
56650.6 40561.9 moveto
53435.9 40561.9 lineto
stroke
newpath
60157.5 40467.4 moveto
59580 40467.4 lineto
stroke
newpath
56634.7 40467.4 moveto
53435.9 40467.4 lineto
stroke
newpath
60157.5 40372.9 moveto
59039.9 40372.9 lineto
stroke
newpath
56634.7 40372.9 moveto
53435.9 40372.9 lineto
stroke
newpath
60157.5 40278.4 moveto
58945.4 40278.4 lineto
stroke
newpath
56634.7 40278.4 moveto
53435.9 40278.4 lineto
stroke
newpath
61052.3 40183.9 moveto
61014.8 40183.9 lineto
stroke
newpath
60167 40183.9 moveto
59050.1 40183.9 lineto
stroke
newpath
56634.7 40183.9 moveto
53435.9 40183.9 lineto
stroke
newpath
61146.8 40089.4 moveto
60943.5 40089.4 lineto
stroke
newpath
60242.2 40089.4 moveto
59076.5 40089.4 lineto
stroke
newpath
56634.7 40089.4 moveto
53435.9 40089.4 lineto
stroke
newpath
61241.3 39995 moveto
59076.5 39995 lineto
stroke
newpath
56634.7 39995 moveto
53435.9 39995 lineto
stroke
newpath
61335.8 39900.5 moveto
60964.5 39900.5 lineto
stroke
newpath
60220.9 39900.5 moveto
59076.5 39900.5 lineto
stroke
newpath
56634.7 39900.5 moveto
53435.9 39900.5 lineto
stroke
newpath
61433.7 39806 moveto
61019.8 39806 lineto
stroke
newpath
60163.2 39806 moveto
59076.5 39806 lineto
stroke
newpath
56634.7 39806 moveto
53435.9 39806 lineto
stroke
newpath
62260.2 39711.5 moveto
61025.3 39711.5 lineto
stroke
newpath
60157.5 39711.5 moveto
59076.5 39711.5 lineto
stroke
newpath
56640.9 39711.5 moveto
53435.9 39711.5 lineto
stroke
newpath
62356.1 39617 moveto
61025.3 39617 lineto
stroke
newpath
60157.5 39617 moveto
59076.5 39617 lineto
stroke
newpath
56683.7 39617 moveto
53435.9 39617 lineto
stroke
newpath
62382.8 39522.5 moveto
61025.3 39522.5 lineto
stroke
newpath
60157.5 39522.5 moveto
59059 39522.5 lineto
stroke
newpath
56772.8 39522.5 moveto
53435.9 39522.5 lineto
stroke
newpath
62382.8 39428 moveto
61025.3 39428 lineto
stroke
newpath
60127.2 39428 moveto
58946.1 39428 lineto
stroke
newpath
56867.3 39428 moveto
53435.9 39428 lineto
stroke
newpath
62382.8 39333.5 moveto
61025.3 39333.5 lineto
stroke
newpath
60032.7 39333.5 moveto
59991.1 39333.5 lineto
stroke
newpath
59106.6 39333.5 moveto
58928.1 39333.5 lineto
stroke
newpath
56961.8 39333.5 moveto
53435.9 39333.5 lineto
stroke
newpath
62382.8 39239.1 moveto
61025.3 39239.1 lineto
stroke
newpath
59075.1 39239.1 moveto
58957.9 39239.1 lineto
stroke
newpath
57056.3 39239.1 moveto
53435.9 39239.1 lineto
stroke
newpath
62382.8 39144.6 moveto
61022.1 39144.6 lineto
stroke
newpath
59074.8 39144.6 moveto
58958.4 39144.6 lineto
stroke
newpath
57150.8 39144.6 moveto
53435.9 39144.6 lineto
stroke
newpath
62382.8 39050.1 moveto
60971.2 39050.1 lineto
stroke
newpath
59074.8 39050.1 moveto
58958.4 39050.1 lineto
stroke
newpath
57165.4 39050.1 moveto
53435.9 39050.1 lineto
stroke
newpath
62130.3 38955.6 moveto
60378.5 38955.6 lineto
stroke
newpath
59074.8 38955.6 moveto
58958.4 38955.6 lineto
stroke
newpath
57165.4 38955.6 moveto
53435.9 38955.6 lineto
stroke
newpath
62072.6 38861.1 moveto
60284 38861.1 lineto
stroke
newpath
59068.1 38861.1 moveto
58958.4 38861.1 lineto
stroke
newpath
57165.4 38861.1 moveto
53435.9 38861.1 lineto
stroke
newpath
62066.9 38766.6 moveto
60182.7 38766.6 lineto
stroke
newpath
58973.6 38766.6 moveto
58958.4 38766.6 lineto
stroke
newpath
57165.4 38766.6 moveto
53435.9 38766.6 lineto
stroke
newpath
62066.9 38672.1 moveto
60012 38672.1 lineto
stroke
newpath
57169.8 38672.1 moveto
53435.9 38672.1 lineto
stroke
newpath
62066.9 38577.6 moveto
59944.2 38577.6 lineto
stroke
newpath
57219.2 38577.6 moveto
53435.9 38577.6 lineto
stroke
newpath
62066.9 38483.1 moveto
59414 38483.1 lineto
stroke
newpath
57753.1 38483.1 moveto
53435.9 38483.1 lineto
stroke
newpath
62066.9 38388.7 moveto
59319.5 38388.7 lineto
stroke
newpath
57847.6 38388.7 moveto
53435.9 38388.7 lineto
stroke
newpath
62066.9 38294.2 moveto
59253.6 38294.2 lineto
stroke
newpath
57942.1 38294.2 moveto
55798.1 38294.2 lineto
stroke
newpath
53613.1 38294.2 moveto
53435.9 38294.2 lineto
stroke
newpath
62066.9 38199.7 moveto
59253.6 38199.7 lineto
stroke
newpath
58042.7 38199.7 moveto
55798.1 38199.7 lineto
stroke
newpath
53613.1 38199.7 moveto
53435.9 38199.7 lineto
stroke
newpath
62090.7 38105.2 moveto
59253.6 38105.2 lineto
stroke
newpath
58741.8 38105.2 moveto
55798.1 38105.2 lineto
stroke
newpath
53613.1 38105.2 moveto
53435.9 38105.2 lineto
stroke
newpath
63101.3 38010.7 moveto
59253.6 38010.7 lineto
stroke
newpath
58741.8 38010.7 moveto
55798.1 38010.7 lineto
stroke
newpath
53613.1 38010.7 moveto
53435.9 38010.7 lineto
stroke
newpath
63101.3 37916.2 moveto
59621.7 37916.2 lineto
stroke
newpath
58371.6 37916.2 moveto
55798.1 37916.2 lineto
stroke
newpath
53613.1 37916.2 moveto
53435.9 37916.2 lineto
stroke
newpath
63101.3 37821.7 moveto
59665 37821.7 lineto
stroke
newpath
58329 37821.7 moveto
55798.1 37821.7 lineto
stroke
newpath
53613.1 37821.7 moveto
53435.9 37821.7 lineto
stroke
newpath
63101.3 37727.2 moveto
59668.3 37727.2 lineto
stroke
newpath
58327.2 37727.2 moveto
55798.1 37727.2 lineto
stroke
newpath
53613.1 37727.2 moveto
53435.9 37727.2 lineto
stroke
newpath
63101.3 37632.8 moveto
59668.3 37632.8 lineto
stroke
newpath
58327.2 37632.8 moveto
55798.1 37632.8 lineto
stroke
newpath
53613.1 37632.8 moveto
53435.9 37632.8 lineto
stroke
newpath
63101.3 37538.3 moveto
59668.3 37538.3 lineto
stroke
newpath
58327.2 37538.3 moveto
55798.1 37538.3 lineto
stroke
newpath
53613.1 37538.3 moveto
53435.9 37538.3 lineto
stroke
newpath
63101.3 37443.8 moveto
59668.3 37443.8 lineto
stroke
newpath
58327.2 37443.8 moveto
55798.1 37443.8 lineto
stroke
newpath
53613.1 37443.8 moveto
53435.9 37443.8 lineto
stroke
newpath
63101.3 37349.3 moveto
59657.6 37349.3 lineto
stroke
newpath
58336.9 37349.3 moveto
55798.1 37349.3 lineto
stroke
newpath
53613.1 37349.3 moveto
53435.9 37349.3 lineto
stroke
newpath
63101.3 37254.8 moveto
59586.1 37254.8 lineto
stroke
newpath
58412.4 37254.8 moveto
55798.1 37254.8 lineto
stroke
newpath
53613.1 37254.8 moveto
53435.9 37254.8 lineto
stroke
newpath
63101.3 37160.3 moveto
55798.1 37160.3 lineto
stroke
newpath
53613.1 37160.3 moveto
53435.9 37160.3 lineto
stroke
newpath
63101.3 37065.8 moveto
55798.1 37065.8 lineto
stroke
newpath
53613.1 37065.8 moveto
53435.9 37065.8 lineto
stroke
newpath
63101.3 36971.3 moveto
55798.1 36971.3 lineto
stroke
newpath
53613.1 36971.3 moveto
53435.9 36971.3 lineto
stroke
newpath
63101.3 36876.9 moveto
55798.1 36876.9 lineto
stroke
newpath
53613.1 36876.9 moveto
53435.9 36876.9 lineto
stroke
newpath
63101.3 36782.4 moveto
59551.1 36782.4 lineto
stroke
newpath
58443.8 36782.4 moveto
55798.1 36782.4 lineto
stroke
newpath
53613.1 36782.4 moveto
53435.9 36782.4 lineto
stroke
newpath
63101.3 36687.9 moveto
59651.5 36687.9 lineto
stroke
newpath
58342.8 36687.9 moveto
55798.1 36687.9 lineto
stroke
newpath
53613.1 36687.9 moveto
53435.9 36687.9 lineto
stroke
newpath
63101.3 36593.4 moveto
60519.6 36593.4 lineto
stroke
newpath
58327.2 36593.4 moveto
55798.1 36593.4 lineto
stroke
newpath
53613.1 36593.4 moveto
53435.9 36593.4 lineto
stroke
newpath
63101.3 36498.9 moveto
60641 36498.9 lineto
stroke
newpath
58327.2 36498.9 moveto
55798.1 36498.9 lineto
stroke
newpath
53613.1 36498.9 moveto
53435.9 36498.9 lineto
stroke
newpath
63101.3 36404.4 moveto
60661.2 36404.4 lineto
stroke
newpath
58327.2 36404.4 moveto
55798.1 36404.4 lineto
stroke
newpath
53613.1 36404.4 moveto
53435.9 36404.4 lineto
stroke
newpath
63101.3 36309.9 moveto
60661.2 36309.9 lineto
stroke
newpath
58327.2 36309.9 moveto
55798.1 36309.9 lineto
stroke
newpath
53613.1 36309.9 moveto
53435.9 36309.9 lineto
stroke
newpath
63101.3 36215.4 moveto
60661.2 36215.4 lineto
stroke
newpath
58328.2 36215.4 moveto
55798.1 36215.4 lineto
stroke
newpath
53613.1 36215.4 moveto
53435.9 36215.4 lineto
stroke
newpath
63101.3 36120.9 moveto
62946.9 36120.9 lineto
stroke
newpath
61072.5 36120.9 moveto
60661.2 36120.9 lineto
stroke
newpath
59813 36120.9 moveto
59634.3 36120.9 lineto
stroke
newpath
58360.4 36120.9 moveto
55798.1 36120.9 lineto
stroke
newpath
53613.1 36120.9 moveto
53435.9 36120.9 lineto
stroke
newpath
63101.3 36026.5 moveto
62974.2 36026.5 lineto
stroke
newpath
61043.3 36026.5 moveto
60697.4 36026.5 lineto
stroke
newpath
59813 36026.5 moveto
55798.1 36026.5 lineto
stroke
newpath
53613.1 36026.5 moveto
53435.9 36026.5 lineto
stroke
newpath
63101.3 35932 moveto
62974.2 35932 lineto
stroke
newpath
61043.3 35932 moveto
60791.9 35932 lineto
stroke
newpath
59813 35932 moveto
55798.1 35932 lineto
stroke
newpath
53613.1 35932 moveto
53435.9 35932 lineto
stroke
newpath
63101.3 35837.5 moveto
62974.2 35837.5 lineto
stroke
newpath
61043.3 35837.5 moveto
60886.4 35837.5 lineto
stroke
newpath
59813 35837.5 moveto
55798.1 35837.5 lineto
stroke
newpath
53613.1 35837.5 moveto
53435.9 35837.5 lineto
stroke
newpath
63101.3 35743 moveto
62974.2 35743 lineto
stroke
newpath
61043.3 35743 moveto
60980.9 35743 lineto
stroke
newpath
59836.7 35743 moveto
55798.1 35743 lineto
stroke
newpath
53613.1 35743 moveto
53435.9 35743 lineto
stroke
newpath
63101.3 35648.5 moveto
62974.2 35648.5 lineto
stroke
newpath
60351.6 35648.5 moveto
55798.1 35648.5 lineto
stroke
newpath
53613.1 35648.5 moveto
53435.9 35648.5 lineto
stroke
newpath
63101.3 35554 moveto
62974.2 35554 lineto
stroke
newpath
60446 35554 moveto
55798.1 35554 lineto
stroke
newpath
53613.1 35554 moveto
53435.9 35554 lineto
stroke
newpath
63101.3 35459.5 moveto
62974.2 35459.5 lineto
stroke
newpath
60540.5 35459.5 moveto
55798.1 35459.5 lineto
stroke
newpath
53613.1 35459.5 moveto
53435.9 35459.5 lineto
stroke
newpath
63101.3 35365 moveto
62974.2 35365 lineto
stroke
newpath
60635 35365 moveto
55798.1 35365 lineto
stroke
newpath
53613.1 35365 moveto
53435.9 35365 lineto
stroke
newpath
63101.3 35270.6 moveto
62974.2 35270.6 lineto
stroke
newpath
60729.5 35270.6 moveto
55798.1 35270.6 lineto
stroke
newpath
53613.1 35270.6 moveto
53435.9 35270.6 lineto
stroke
newpath
63101.3 35176.1 moveto
62974.2 35176.1 lineto
stroke
newpath
60824 35176.1 moveto
55798.1 35176.1 lineto
stroke
newpath
53613.1 35176.1 moveto
53435.9 35176.1 lineto
stroke
newpath
63101.3 35081.6 moveto
62974.2 35081.6 lineto
stroke
newpath
60918.5 35081.6 moveto
55798.1 35081.6 lineto
stroke
newpath
53613.1 35081.6 moveto
53435.9 35081.6 lineto
stroke
newpath
63101.3 34987.1 moveto
62974.2 34987.1 lineto
stroke
newpath
61043.3 34987.1 moveto
55798.1 34987.1 lineto
stroke
newpath
53613.1 34987.1 moveto
53435.9 34987.1 lineto
stroke
newpath
63101.3 34892.6 moveto
62974.2 34892.6 lineto
stroke
newpath
61043.3 34892.6 moveto
55798.1 34892.6 lineto
stroke
newpath
53613.1 34892.6 moveto
53435.9 34892.6 lineto
stroke
newpath
63101.3 34798.1 moveto
62974.2 34798.1 lineto
stroke
newpath
61043.3 34798.1 moveto
55798.1 34798.1 lineto
stroke
newpath
53613.1 34798.1 moveto
53435.9 34798.1 lineto
stroke
newpath
63101.3 34703.6 moveto
62974.2 34703.6 lineto
stroke
newpath
61043.3 34703.6 moveto
53435.9 34703.6 lineto
stroke
newpath
63101.3 34609.1 moveto
62974.2 34609.1 lineto
stroke
newpath
61043.3 34609.1 moveto
53435.9 34609.1 lineto
stroke
newpath
63101.3 34514.6 moveto
62974.2 34514.6 lineto
stroke
newpath
61043.3 34514.6 moveto
53435.9 34514.6 lineto
stroke
newpath
63101.3 34420.2 moveto
62970.9 34420.2 lineto
stroke
newpath
61047.8 34420.2 moveto
53435.9 34420.2 lineto
stroke
newpath
63101.3 34325.7 moveto
62920 34325.7 lineto
stroke
newpath
61097.1 34325.7 moveto
53435.9 34325.7 lineto
stroke
newpath
63101.3 43930 moveto
53435.9 43930 lineto
stroke
newpath
63101.3 43835.5 moveto
53435.9 43835.5 lineto
stroke
newpath
63101.3 43741 moveto
53435.9 43741 lineto
stroke
newpath
63101.3 43646.5 moveto
53435.9 43646.5 lineto
stroke
newpath
63101.3 43552 moveto
53435.9 43552 lineto
stroke
newpath
63101.3 43457.6 moveto
53435.9 43457.6 lineto
stroke
newpath
63101.3 43363.1 moveto
53435.9 43363.1 lineto
stroke
newpath
63101.3 43268.6 moveto
53435.9 43268.6 lineto
stroke
newpath
63101.3 43174.1 moveto
53435.9 43174.1 lineto
stroke
newpath
63101.3 43079.6 moveto
53435.9 43079.6 lineto
stroke
newpath
63101.3 42985.1 moveto
53435.9 42985.1 lineto
stroke
newpath
63101.3 42890.6 moveto
59931.6 42890.6 lineto
stroke
newpath
59084.9 42890.6 moveto
57963.1 42890.6 lineto
stroke
newpath
57116.4 42890.6 moveto
53435.9 42890.6 lineto
stroke
newpath
63101.3 42796.1 moveto
59978.1 42796.1 lineto
stroke
newpath
59037.6 42796.1 moveto
58009.6 42796.1 lineto
stroke
newpath
57069.1 42796.1 moveto
53435.9 42796.1 lineto
stroke
newpath
63101.3 42701.7 moveto
59982 42701.7 lineto
stroke
newpath
59035.4 42701.7 moveto
58013.5 42701.7 lineto
stroke
newpath
57066.9 42701.7 moveto
53435.9 42701.7 lineto
stroke
newpath
63101.3 42607.2 moveto
59982 42607.2 lineto
stroke
newpath
59035.4 42607.2 moveto
58013.5 42607.2 lineto
stroke
newpath
57066.9 42607.2 moveto
53435.9 42607.2 lineto
stroke
newpath
63101.3 42512.7 moveto
59982 42512.7 lineto
stroke
newpath
59035.4 42512.7 moveto
58013.5 42512.7 lineto
stroke
newpath
57066.9 42512.7 moveto
53435.9 42512.7 lineto
stroke
newpath
63101.3 42418.2 moveto
59982 42418.2 lineto
stroke
newpath
59035.4 42418.2 moveto
58013.5 42418.2 lineto
stroke
newpath
57066.9 42418.2 moveto
53435.9 42418.2 lineto
stroke
newpath
63101.3 42323.7 moveto
59982 42323.7 lineto
stroke
newpath
59035.4 42323.7 moveto
58013.5 42323.7 lineto
stroke
newpath
57066.9 42323.7 moveto
53435.9 42323.7 lineto
stroke
newpath
63101.3 42229.2 moveto
59973.9 42229.2 lineto
stroke
newpath
59042.2 42229.2 moveto
58097 42229.2 lineto
stroke
newpath
57073.7 42229.2 moveto
53435.9 42229.2 lineto
stroke
newpath
63101.3 42134.7 moveto
59909.4 42134.7 lineto
stroke
newpath
59108.2 42134.7 moveto
58191.5 42134.7 lineto
stroke
newpath
57139.7 42134.7 moveto
53435.9 42134.7 lineto
stroke
newpath
63101.3 42040.2 moveto
59764.6 42040.2 lineto
stroke
newpath
59252.8 42040.2 moveto
58286 42040.2 lineto
stroke
newpath
57562.2 42040.2 moveto
53435.9 42040.2 lineto
stroke
newpath
63101.3 41945.7 moveto
60880.3 41945.7 lineto
stroke
newpath
60297.8 41945.7 moveto
59764.6 41945.7 lineto
stroke
newpath
59231.5 41945.7 moveto
58380.5 41945.7 lineto
stroke
newpath
57656.7 41945.7 moveto
53435.9 41945.7 lineto
stroke
newpath
63101.3 41851.3 moveto
60996.2 41851.3 lineto
stroke
newpath
60184.9 41851.3 moveto
59763.7 41851.3 lineto
stroke
newpath
58814.6 41851.3 moveto
58475 41851.3 lineto
stroke
newpath
57751.2 41851.3 moveto
53435.9 41851.3 lineto
stroke
newpath
63101.3 41756.8 moveto
61015.5 41756.8 lineto
stroke
newpath
60167.3 41756.8 moveto
59741.7 41756.8 lineto
stroke
newpath
58771.6 41756.8 moveto
58569.1 41756.8 lineto
stroke
newpath
57845.7 41756.8 moveto
53435.9 41756.8 lineto
stroke
newpath
63101.3 41662.3 moveto
61015.5 41662.3 lineto
stroke
newpath
59724.1 41662.3 moveto
59671.8 41662.3 lineto
stroke
newpath
58769.7 41662.3 moveto
58627.1 41662.3 lineto
stroke
newpath
57940.1 41662.3 moveto
57003.7 41662.3 lineto
stroke
newpath
63101.3 41567.8 moveto
61015.5 41567.8 lineto
stroke
newpath
58769.7 41567.8 moveto
58642.6 41567.8 lineto
stroke
newpath
58034.6 41567.8 moveto
57161.2 41567.8 lineto
stroke
newpath
63101.3 41473.3 moveto
61719 41473.3 lineto
stroke
newpath
61557.5 41473.3 moveto
61015.5 41473.3 lineto
stroke
newpath
58769.7 41473.3 moveto
58642.6 41473.3 lineto
stroke
newpath
58077.9 41473.3 moveto
57922.2 41473.3 lineto
stroke
newpath
63101.3 41378.8 moveto
61935.6 41378.8 lineto
stroke
newpath
61342.7 41378.8 moveto
61053.7 41378.8 lineto
stroke
newpath
58771.1 41378.8 moveto
58638.7 41378.8 lineto
stroke
newpath
57983.4 41378.8 moveto
57961.8 41378.8 lineto
stroke
newpath
63101.3 41284.3 moveto
62024.2 41284.3 lineto
stroke
newpath
61252.8 41284.3 moveto
61148.2 41284.3 lineto
stroke
newpath
58769.7 41284.3 moveto
58603.2 41284.3 lineto
stroke
newpath
63101.3 41189.8 moveto
62077.7 41189.8 lineto
stroke
newpath
58771.7 41189.8 moveto
58518.3 41189.8 lineto
stroke
newpath
63101.3 41095.4 moveto
62106.8 41095.4 lineto
stroke
newpath
58808.4 41095.4 moveto
58423.8 41095.4 lineto
stroke
newpath
63101.3 41000.9 moveto
62115.9 41000.9 lineto
stroke
newpath
58785.8 41000.9 moveto
58458.2 41000.9 lineto
stroke
newpath
63101.3 40906.4 moveto
62106.1 40906.4 lineto
stroke
newpath
58769.7 40906.4 moveto
58483.5 40906.4 lineto
stroke
newpath
63101.3 40811.9 moveto
62076.3 40811.9 lineto
stroke
newpath
58755.1 40811.9 moveto
58485.1 40811.9 lineto
stroke
newpath
63101.3 40717.4 moveto
62022.4 40717.4 lineto
stroke
newpath
61256 40717.4 moveto
61242.7 40717.4 lineto
stroke
newpath
58660.6 40717.4 moveto
58485.1 40717.4 lineto
stroke
newpath
63101.3 40622.9 moveto
61928.1 40622.9 lineto
stroke
newpath
61346.8 40622.9 moveto
61337.2 40622.9 lineto
stroke
newpath
58566.1 40622.9 moveto
58485.1 40622.9 lineto
stroke
newpath
63101.3 40528.4 moveto
61703.1 40528.4 lineto
stroke
newpath
61581.2 40528.4 moveto
61431.7 40528.4 lineto
stroke
newpath
63101.3 40433.9 moveto
62845.5 40433.9 lineto
stroke
newpath
62432.8 40433.9 moveto
61526.2 40433.9 lineto
stroke
newpath
63101.3 40339.4 moveto
62976.9 40339.4 lineto
stroke
newpath
62300.4 40339.4 moveto
61620.6 40339.4 lineto
stroke
newpath
63101.3 40245 moveto
63051.2 40245 lineto
stroke
newpath
63101.3 40150.5 moveto
63094.6 40150.5 lineto
stroke
newpath
59945.6 41160.5 moveto
59935.4 41127.6 lineto
59907.9 41085.7 lineto
59869.8 41053.2 lineto
59824.1 41032.6 lineto
59774.5 41025.6 lineto
59627.6 41025.6 lineto
59629.6 41023.3 lineto
59650.2 40977.6 lineto
59657.2 40928 lineto
59657.2 40613.1 lineto
59655 40584.9 lineto
59640.2 40537 lineto
59612.6 40495.2 lineto
59574.5 40462.7 lineto
59528.8 40442.1 lineto
59479.2 40435 lineto
59102.1 40435 lineto
58932.4 40265.4 lineto
58974.6 40252.4 lineto
59016.4 40224.8 lineto
59048.9 40186.7 lineto
59069.5 40141 lineto
59076.5 40091.4 lineto
59076.5 39599.3 lineto
59074.3 39571.1 lineto
59059.5 39523.2 lineto
59031.9 39481.4 lineto
58993.8 39448.9 lineto
58948.1 39428.3 lineto
58898.5 39421.3 lineto
58741 39421.3 lineto
58741 39413.1 lineto
58780.4 39413.1 lineto
58808.6 39410.9 lineto
58856.5 39396.1 lineto
58898.3 39368.5 lineto
58930.8 39330.4 lineto
58951.4 39284.7 lineto
58958.4 39235.1 lineto
58958.4 38751.4 lineto
59074.8 38867.8 lineto
59074.8 39235.1 lineto
59077.1 39263.3 lineto
59091.9 39311.2 lineto
59119.4 39353 lineto
59157.6 39385.5 lineto
59203.2 39406.1 lineto
59252.8 39413.1 lineto
59843.4 39413.1 lineto
59871.6 39410.9 lineto
59919.5 39396.1 lineto
59961.3 39368.5 lineto
59993.8 39330.4 lineto
60004.9 39305.8 lineto
60157.5 39458.4 lineto
60157.5 39766.6 lineto
60159.7 39794.8 lineto
60174.6 39842.7 lineto
60202.1 39884.5 lineto
60240.2 39917 lineto
60285.9 39937.6 lineto
60335.5 39944.6 lineto
60847.3 39944.6 lineto
60875.5 39942.4 lineto
60923.4 39927.6 lineto
60965.2 39900 lineto
60997.7 39861.9 lineto
61018.3 39816.2 lineto
61025.3 39766.6 lineto
61025.3 39176.1 lineto
61023.1 39147.8 lineto
61008.3 39100 lineto
60980.7 39058.2 lineto
60942.6 39025.7 lineto
60896.9 39005.1 lineto
60847.3 38998 lineto
60421 38998 lineto
60221.2 38798.3 lineto
60202.9 38783.3 lineto
60184.8 38768.1 lineto
60183.6 38767.4 lineto
60182.6 38766.6 lineto
60161.8 38755.4 lineto
60141 38744 lineto
60139.8 38743.6 lineto
60138.6 38743 lineto
60116 38736 lineto
60093.4 38728.9 lineto
60092.1 38728.7 lineto
60090.8 38728.4 lineto
60067.3 38726 lineto
60043.8 38723.3 lineto
60041.2 38723.3 lineto
60041.1 38723.3 lineto
60041.1 38723.3 lineto
60040.2 38723.3 lineto
60021.4 38723.3 lineto
60019.2 38695.1 lineto
60004.3 38647.2 lineto
59976.8 38605.4 lineto
59938.7 38572.9 lineto
59893 38552.3 lineto
59843.4 38545.3 lineto
59476.1 38545.3 lineto
59253.6 38322.8 lineto
59253.6 37976.7 lineto
59490.2 37976.7 lineto
59518.4 37974.5 lineto
59566.3 37959.7 lineto
59608.1 37932.1 lineto
59640.6 37894 lineto
59661.2 37848.3 lineto
59668.3 37798.7 lineto
59668.3 37404.7 lineto
59666 37376.5 lineto
59651.2 37328.6 lineto
59623.6 37286.8 lineto
59585.5 37254.3 lineto
59539.8 37233.7 lineto
59490.2 37226.7 lineto
58505.2 37226.7 lineto
58477 37228.9 lineto
58429.2 37243.8 lineto
58387.3 37271.3 lineto
58354.8 37309.4 lineto
58334.3 37355.1 lineto
58327.2 37404.7 lineto
58327.2 37798.7 lineto
58329.5 37826.9 lineto
58344.3 37874.8 lineto
58371.8 37916.6 lineto
58410 37949.1 lineto
58455.6 37969.7 lineto
58505.2 37976.7 lineto
58741.8 37976.7 lineto
58741.8 38152.4 lineto
58189.8 38152.4 lineto
58166.3 38154.7 lineto
58142.8 38156.8 lineto
58141.5 38157.2 lineto
58140.1 38157.3 lineto
58117.5 38164.1 lineto
58094.8 38170.7 lineto
58093.6 38171.4 lineto
58092.3 38171.8 lineto
58071.4 38182.9 lineto
58050.5 38193.7 lineto
58049.4 38194.6 lineto
58048.2 38195.2 lineto
58029.9 38210.1 lineto
58011.4 38224.9 lineto
58009.6 38226.7 lineto
58009.5 38226.8 lineto
58009.5 38226.8 lineto
58008.9 38227.4 lineto
57905.7 38330.5 lineto
55798.1 38330.5 lineto
55798.1 34706.6 lineto
53613.1 34706.6 lineto
53613.1 38330.5 lineto
55798.1 38330.5 lineto
57905.7 38330.5 lineto
57710.7 38525.6 lineto
57343.4 38525.6 lineto
57315.2 38527.8 lineto
57267.3 38542.7 lineto
57225.5 38570.2 lineto
57193 38608.4 lineto
57172.4 38654 lineto
57165.4 38703.6 lineto
57165.4 39130 lineto
56709.7 39585.7 lineto
56694.7 39603.9 lineto
56679.5 39622 lineto
56678.8 39623.2 lineto
56678 39624.3 lineto
56666.8 39645.1 lineto
56655.4 39665.8 lineto
56655 39667.1 lineto
56654.4 39668.3 lineto
56647.5 39690.9 lineto
56640.3 39713.4 lineto
56640.2 39714.7 lineto
56639.8 39716 lineto
56637.4 39739.5 lineto
56634.7 39763 lineto
56634.7 39765.7 lineto
56634.7 39765.7 lineto
56634.7 39765.8 lineto
56634.7 39766.6 lineto
56634.7 40475.3 lineto
56637 40498.8 lineto
56639.1 40522.3 lineto
56639.5 40523.6 lineto
56639.6 40525 lineto
56646.4 40547.6 lineto
56653 40570.3 lineto
56653.6 40571.5 lineto
56654 40572.8 lineto
56665.1 40593.7 lineto
56676 40614.7 lineto
56676.8 40615.7 lineto
56677.5 40616.9 lineto
56692.4 40635.2 lineto
56707.2 40653.7 lineto
56709 40655.6 lineto
56709 40655.6 lineto
56709.1 40655.6 lineto
56709.7 40656.2 lineto
56883.1 40829.6 lineto
53435.9 40829.6 lineto
53435.9 34264.6 lineto
63101.3 34264.6 lineto
63101.3 36026.5 lineto
62974.2 36026.5 lineto
62974.2 34451.7 lineto
62971.9 34423.4 lineto
62957.1 34375.6 lineto
62929.5 34333.8 lineto
62891.4 34301.3 lineto
62845.7 34280.7 lineto
62796.1 34273.6 lineto
61221.3 34273.6 lineto
61193.1 34275.9 lineto
61145.3 34290.7 lineto
61103.4 34318.3 lineto
61071 34356.4 lineto
61050.4 34402.1 lineto
61043.3 34451.7 lineto
61043.3 34997 lineto
61027.9 35001.5 lineto
61026.7 35002.1 lineto
61025.4 35002.5 lineto
61004.5 35013.6 lineto
60983.5 35024.4 lineto
60982.5 35025.3 lineto
60981.3 35025.9 lineto
60963 35040.8 lineto
60944.5 35055.6 lineto
60942.6 35057.4 lineto
60942.6 35057.5 lineto
60942.6 35057.5 lineto
60942 35058.1 lineto
60348.5 35651.6 lineto
59991 35651.6 lineto
59962.8 35653.8 lineto
59915 35668.7 lineto
59873.1 35696.2 lineto
59840.6 35734.3 lineto
59820 35780 lineto
59813 35829.6 lineto
59813 36163.8 lineto
59656.5 36163.8 lineto
59651.2 36146.6 lineto
59623.6 36104.8 lineto
59585.5 36072.3 lineto
59539.8 36051.7 lineto
59490.2 36044.7 lineto
58505.2 36044.7 lineto
58477 36046.9 lineto
58429.2 36061.8 lineto
58387.3 36089.3 lineto
58354.8 36127.4 lineto
58334.3 36173.1 lineto
58327.2 36222.7 lineto
58327.2 36616.7 lineto
58329.5 36644.9 lineto
58344.3 36692.8 lineto
58371.8 36734.6 lineto
58410 36767.1 lineto
58455.6 36787.7 lineto
58505.2 36794.7 lineto
59490.2 36794.7 lineto
59518.4 36792.5 lineto
59566.3 36777.7 lineto
59608.1 36750.1 lineto
59640.6 36712 lineto
59657 36675.6 lineto
59942.3 36675.6 lineto
59965.8 36673.3 lineto
59989.3 36671.2 lineto
59990.6 36670.9 lineto
59992 36670.7 lineto
60014.6 36663.9 lineto
60037.3 36657.3 lineto
60038.5 36656.7 lineto
60039.8 36656.3 lineto
60060.7 36645.2 lineto
60081.6 36634.3 lineto
60082.7 36633.5 lineto
60083.9 36632.9 lineto
60102.2 36617.9 lineto
60120.7 36603.2 lineto
60122.5 36601.3 lineto
60122.6 36601.3 lineto
60122.6 36601.3 lineto
60123.2 36600.7 lineto
60125.7 36598.2 lineto
60483.1 36598.2 lineto
60511.4 36595.9 lineto
60559.2 36581.1 lineto
60601 36553.5 lineto
60633.5 36515.4 lineto
60654.1 36469.8 lineto
60661.2 36420.2 lineto
60661.2 36062.7 lineto
61043.3 35680.6 lineto
61043.3 36026.5 lineto
61045.6 36054.7 lineto
61060.4 36102.5 lineto
61087.9 36144.4 lineto
61126.1 36176.8 lineto
61171.7 36197.4 lineto
61221.3 36204.5 lineto
62796.1 36204.5 lineto
62824.4 36202.2 lineto
62872.2 36187.4 lineto
62914 36159.8 lineto
62946.5 36121.7 lineto
62967.1 36076.1 lineto
62974.2 36026.5 lineto
63101.3 36026.5 lineto
63101.3 38029.5 lineto
63082 38020.8 lineto
63032.4 38013.8 lineto
62245 38013.8 lineto
62216.7 38016 lineto
62168.9 38030.9 lineto
62127.1 38058.4 lineto
62094.6 38096.5 lineto
62074 38142.2 lineto
62066.9 38191.8 lineto
62066.9 38821.7 lineto
62069.2 38849.9 lineto
62084 38897.8 lineto
62111.6 38939.6 lineto
62149.7 38972.1 lineto
62195.4 38992.7 lineto
62245 38999.8 lineto
62382.8 38999.8 lineto
62382.8 39600.1 lineto
62343.5 39625 lineto
62275.7 39689.5 lineto
62235.2 39746.9 lineto
61595.4 39746.9 lineto
61571.8 39749.2 lineto
61548.3 39751.3 lineto
61547 39751.7 lineto
61545.6 39751.8 lineto
61523 39758.6 lineto
61500.3 39765.2 lineto
61499.1 39765.8 lineto
61497.8 39766.2 lineto
61477 39777.3 lineto
61456 39788.2 lineto
61454.9 39789.1 lineto
61453.7 39789.7 lineto
61435.4 39804.6 lineto
61416.9 39819.4 lineto
61415.1 39821.2 lineto
61415 39821.3 lineto
61415 39821.3 lineto
61414.4 39821.9 lineto
61023.3 40213 lineto
61023.1 40210.8 lineto
61008.3 40163 lineto
60980.7 40121.2 lineto
60942.6 40088.7 lineto
60896.9 40068.1 lineto
60847.3 40061 lineto
60335.5 40061 lineto
60307.3 40063.3 lineto
60259.4 40078.1 lineto
60217.6 40105.7 lineto
60185.1 40143.8 lineto
60164.5 40189.5 lineto
60157.5 40239.1 lineto
60157.5 40829.6 lineto
60159.7 40857.8 lineto
60174.6 40905.7 lineto
60202.1 40947.5 lineto
60240.2 40980 lineto
60285.9 41000.6 lineto
60331.3 41007 lineto
60317.1 41008.2 lineto
60269.3 41023 lineto
60227.5 41050.5 lineto
60195 41088.7 lineto
60174.4 41134.3 lineto
60167.3 41183.9 lineto
60167.3 41223.3 lineto
60008.4 41223.3 lineto
59945.6 41160.5 lineto
poly0
newpath
60167.3 41223.3 moveto
60008.4 41223.3 lineto
stroke
newpath
60176.9 41128.8 moveto
59935.8 41128.8 lineto
stroke
newpath
60252.1 41034.3 moveto
59827.8 41034.3 lineto
stroke
newpath
60197.1 40939.8 moveto
59655.6 40939.8 lineto
stroke
newpath
60158.7 40845.4 moveto
59657.2 40845.4 lineto
stroke
newpath
60157.5 40750.9 moveto
59657.2 40750.9 lineto
stroke
newpath
56804.3 40750.9 moveto
53435.9 40750.9 lineto
stroke
newpath
60157.5 40656.4 moveto
59657.2 40656.4 lineto
stroke
newpath
56709.8 40656.4 moveto
53435.9 40656.4 lineto
stroke
newpath
60157.5 40561.9 moveto
59647.9 40561.9 lineto
stroke
newpath
56650.6 40561.9 moveto
53435.9 40561.9 lineto
stroke
newpath
60157.5 40467.4 moveto
59580 40467.4 lineto
stroke
newpath
56634.7 40467.4 moveto
53435.9 40467.4 lineto
stroke
newpath
60157.5 40372.9 moveto
59039.9 40372.9 lineto
stroke
newpath
56634.7 40372.9 moveto
53435.9 40372.9 lineto
stroke
newpath
60157.5 40278.4 moveto
58945.4 40278.4 lineto
stroke
newpath
56634.7 40278.4 moveto
53435.9 40278.4 lineto
stroke
newpath
61052.3 40183.9 moveto
61014.8 40183.9 lineto
stroke
newpath
60167 40183.9 moveto
59050.1 40183.9 lineto
stroke
newpath
56634.7 40183.9 moveto
53435.9 40183.9 lineto
stroke
newpath
61146.8 40089.4 moveto
60943.5 40089.4 lineto
stroke
newpath
60242.2 40089.4 moveto
59076.5 40089.4 lineto
stroke
newpath
56634.7 40089.4 moveto
53435.9 40089.4 lineto
stroke
newpath
61241.3 39995 moveto
59076.5 39995 lineto
stroke
newpath
56634.7 39995 moveto
53435.9 39995 lineto
stroke
newpath
61335.8 39900.5 moveto
60964.5 39900.5 lineto
stroke
newpath
60220.9 39900.5 moveto
59076.5 39900.5 lineto
stroke
newpath
56634.7 39900.5 moveto
53435.9 39900.5 lineto
stroke
newpath
61433.7 39806 moveto
61019.8 39806 lineto
stroke
newpath
60163.2 39806 moveto
59076.5 39806 lineto
stroke
newpath
56634.7 39806 moveto
53435.9 39806 lineto
stroke
newpath
62260.2 39711.5 moveto
61025.3 39711.5 lineto
stroke
newpath
60157.5 39711.5 moveto
59076.5 39711.5 lineto
stroke
newpath
56640.9 39711.5 moveto
53435.9 39711.5 lineto
stroke
newpath
62356.1 39617 moveto
61025.3 39617 lineto
stroke
newpath
60157.5 39617 moveto
59076.5 39617 lineto
stroke
newpath
56683.7 39617 moveto
53435.9 39617 lineto
stroke
newpath
62382.8 39522.5 moveto
61025.3 39522.5 lineto
stroke
newpath
60157.5 39522.5 moveto
59059 39522.5 lineto
stroke
newpath
56772.8 39522.5 moveto
53435.9 39522.5 lineto
stroke
newpath
62382.8 39428 moveto
61025.3 39428 lineto
stroke
newpath
60127.2 39428 moveto
58946.1 39428 lineto
stroke
newpath
56867.3 39428 moveto
53435.9 39428 lineto
stroke
newpath
62382.8 39333.5 moveto
61025.3 39333.5 lineto
stroke
newpath
60032.7 39333.5 moveto
59991.1 39333.5 lineto
stroke
newpath
59106.6 39333.5 moveto
58928.1 39333.5 lineto
stroke
newpath
56961.8 39333.5 moveto
53435.9 39333.5 lineto
stroke
newpath
62382.8 39239.1 moveto
61025.3 39239.1 lineto
stroke
newpath
59075.1 39239.1 moveto
58957.9 39239.1 lineto
stroke
newpath
57056.3 39239.1 moveto
53435.9 39239.1 lineto
stroke
newpath
62382.8 39144.6 moveto
61022.1 39144.6 lineto
stroke
newpath
59074.8 39144.6 moveto
58958.4 39144.6 lineto
stroke
newpath
57150.8 39144.6 moveto
53435.9 39144.6 lineto
stroke
newpath
62382.8 39050.1 moveto
60971.2 39050.1 lineto
stroke
newpath
59074.8 39050.1 moveto
58958.4 39050.1 lineto
stroke
newpath
57165.4 39050.1 moveto
53435.9 39050.1 lineto
stroke
newpath
62130.3 38955.6 moveto
60378.5 38955.6 lineto
stroke
newpath
59074.8 38955.6 moveto
58958.4 38955.6 lineto
stroke
newpath
57165.4 38955.6 moveto
53435.9 38955.6 lineto
stroke
newpath
62072.6 38861.1 moveto
60284 38861.1 lineto
stroke
newpath
59068.1 38861.1 moveto
58958.4 38861.1 lineto
stroke
newpath
57165.4 38861.1 moveto
53435.9 38861.1 lineto
stroke
newpath
62066.9 38766.6 moveto
60182.7 38766.6 lineto
stroke
newpath
58973.6 38766.6 moveto
58958.4 38766.6 lineto
stroke
newpath
57165.4 38766.6 moveto
53435.9 38766.6 lineto
stroke
newpath
62066.9 38672.1 moveto
60012 38672.1 lineto
stroke
newpath
57169.8 38672.1 moveto
53435.9 38672.1 lineto
stroke
newpath
62066.9 38577.6 moveto
59944.2 38577.6 lineto
stroke
newpath
57219.2 38577.6 moveto
53435.9 38577.6 lineto
stroke
newpath
62066.9 38483.1 moveto
59414 38483.1 lineto
stroke
newpath
57753.1 38483.1 moveto
53435.9 38483.1 lineto
stroke
newpath
62066.9 38388.7 moveto
59319.5 38388.7 lineto
stroke
newpath
57847.6 38388.7 moveto
53435.9 38388.7 lineto
stroke
newpath
62066.9 38294.2 moveto
59253.6 38294.2 lineto
stroke
newpath
57942.1 38294.2 moveto
55798.1 38294.2 lineto
stroke
newpath
53613.1 38294.2 moveto
53435.9 38294.2 lineto
stroke
newpath
62066.9 38199.7 moveto
59253.6 38199.7 lineto
stroke
newpath
58042.7 38199.7 moveto
55798.1 38199.7 lineto
stroke
newpath
53613.1 38199.7 moveto
53435.9 38199.7 lineto
stroke
newpath
62090.7 38105.2 moveto
59253.6 38105.2 lineto
stroke
newpath
58741.8 38105.2 moveto
55798.1 38105.2 lineto
stroke
newpath
53613.1 38105.2 moveto
53435.9 38105.2 lineto
stroke
newpath
63101.3 38010.7 moveto
59253.6 38010.7 lineto
stroke
newpath
58741.8 38010.7 moveto
55798.1 38010.7 lineto
stroke
newpath
53613.1 38010.7 moveto
53435.9 38010.7 lineto
stroke
newpath
63101.3 37916.2 moveto
59621.7 37916.2 lineto
stroke
newpath
58371.6 37916.2 moveto
55798.1 37916.2 lineto
stroke
newpath
53613.1 37916.2 moveto
53435.9 37916.2 lineto
stroke
newpath
63101.3 37821.7 moveto
59665 37821.7 lineto
stroke
newpath
58329 37821.7 moveto
55798.1 37821.7 lineto
stroke
newpath
53613.1 37821.7 moveto
53435.9 37821.7 lineto
stroke
newpath
63101.3 37727.2 moveto
59668.3 37727.2 lineto
stroke
newpath
58327.2 37727.2 moveto
55798.1 37727.2 lineto
stroke
newpath
53613.1 37727.2 moveto
53435.9 37727.2 lineto
stroke
newpath
63101.3 37632.8 moveto
59668.3 37632.8 lineto
stroke
newpath
58327.2 37632.8 moveto
55798.1 37632.8 lineto
stroke
newpath
53613.1 37632.8 moveto
53435.9 37632.8 lineto
stroke
newpath
63101.3 37538.3 moveto
59668.3 37538.3 lineto
stroke
newpath
58327.2 37538.3 moveto
55798.1 37538.3 lineto
stroke
newpath
53613.1 37538.3 moveto
53435.9 37538.3 lineto
stroke
newpath
63101.3 37443.8 moveto
59668.3 37443.8 lineto
stroke
newpath
58327.2 37443.8 moveto
55798.1 37443.8 lineto
stroke
newpath
53613.1 37443.8 moveto
53435.9 37443.8 lineto
stroke
newpath
63101.3 37349.3 moveto
59657.6 37349.3 lineto
stroke
newpath
58336.9 37349.3 moveto
55798.1 37349.3 lineto
stroke
newpath
53613.1 37349.3 moveto
53435.9 37349.3 lineto
stroke
newpath
63101.3 37254.8 moveto
59586.1 37254.8 lineto
stroke
newpath
58412.4 37254.8 moveto
55798.1 37254.8 lineto
stroke
newpath
53613.1 37254.8 moveto
53435.9 37254.8 lineto
stroke
newpath
63101.3 37160.3 moveto
55798.1 37160.3 lineto
stroke
newpath
53613.1 37160.3 moveto
53435.9 37160.3 lineto
stroke
newpath
63101.3 37065.8 moveto
55798.1 37065.8 lineto
stroke
newpath
53613.1 37065.8 moveto
53435.9 37065.8 lineto
stroke
newpath
63101.3 36971.3 moveto
55798.1 36971.3 lineto
stroke
newpath
53613.1 36971.3 moveto
53435.9 36971.3 lineto
stroke
newpath
63101.3 36876.9 moveto
55798.1 36876.9 lineto
stroke
newpath
53613.1 36876.9 moveto
53435.9 36876.9 lineto
stroke
newpath
63101.3 36782.4 moveto
59551.1 36782.4 lineto
stroke
newpath
58443.8 36782.4 moveto
55798.1 36782.4 lineto
stroke
newpath
53613.1 36782.4 moveto
53435.9 36782.4 lineto
stroke
newpath
63101.3 36687.9 moveto
59651.5 36687.9 lineto
stroke
newpath
58342.8 36687.9 moveto
55798.1 36687.9 lineto
stroke
newpath
53613.1 36687.9 moveto
53435.9 36687.9 lineto
stroke
newpath
63101.3 36593.4 moveto
60519.6 36593.4 lineto
stroke
newpath
58327.2 36593.4 moveto
55798.1 36593.4 lineto
stroke
newpath
53613.1 36593.4 moveto
53435.9 36593.4 lineto
stroke
newpath
63101.3 36498.9 moveto
60641 36498.9 lineto
stroke
newpath
58327.2 36498.9 moveto
55798.1 36498.9 lineto
stroke
newpath
53613.1 36498.9 moveto
53435.9 36498.9 lineto
stroke
newpath
63101.3 36404.4 moveto
60661.2 36404.4 lineto
stroke
newpath
58327.2 36404.4 moveto
55798.1 36404.4 lineto
stroke
newpath
53613.1 36404.4 moveto
53435.9 36404.4 lineto
stroke
newpath
63101.3 36309.9 moveto
60661.2 36309.9 lineto
stroke
newpath
58327.2 36309.9 moveto
55798.1 36309.9 lineto
stroke
newpath
53613.1 36309.9 moveto
53435.9 36309.9 lineto
stroke
newpath
63101.3 36215.4 moveto
60661.2 36215.4 lineto
stroke
newpath
58328.2 36215.4 moveto
55798.1 36215.4 lineto
stroke
newpath
53613.1 36215.4 moveto
53435.9 36215.4 lineto
stroke
newpath
63101.3 36120.9 moveto
62946.9 36120.9 lineto
stroke
newpath
61072.5 36120.9 moveto
60661.2 36120.9 lineto
stroke
newpath
59813 36120.9 moveto
59634.3 36120.9 lineto
stroke
newpath
58360.4 36120.9 moveto
55798.1 36120.9 lineto
stroke
newpath
53613.1 36120.9 moveto
53435.9 36120.9 lineto
stroke
newpath
63101.3 36026.5 moveto
62974.2 36026.5 lineto
stroke
newpath
61043.3 36026.5 moveto
60697.4 36026.5 lineto
stroke
newpath
59813 36026.5 moveto
55798.1 36026.5 lineto
stroke
newpath
53613.1 36026.5 moveto
53435.9 36026.5 lineto
stroke
newpath
63101.3 35932 moveto
62974.2 35932 lineto
stroke
newpath
61043.3 35932 moveto
60791.9 35932 lineto
stroke
newpath
59813 35932 moveto
55798.1 35932 lineto
stroke
newpath
53613.1 35932 moveto
53435.9 35932 lineto
stroke
newpath
63101.3 35837.5 moveto
62974.2 35837.5 lineto
stroke
newpath
61043.3 35837.5 moveto
60886.4 35837.5 lineto
stroke
newpath
59813 35837.5 moveto
55798.1 35837.5 lineto
stroke
newpath
53613.1 35837.5 moveto
53435.9 35837.5 lineto
stroke
newpath
63101.3 35743 moveto
62974.2 35743 lineto
stroke
newpath
61043.3 35743 moveto
60980.9 35743 lineto
stroke
newpath
59836.7 35743 moveto
55798.1 35743 lineto
stroke
newpath
53613.1 35743 moveto
53435.9 35743 lineto
stroke
newpath
63101.3 35648.5 moveto
62974.2 35648.5 lineto
stroke
newpath
60351.6 35648.5 moveto
55798.1 35648.5 lineto
stroke
newpath
53613.1 35648.5 moveto
53435.9 35648.5 lineto
stroke
newpath
63101.3 35554 moveto
62974.2 35554 lineto
stroke
newpath
60446 35554 moveto
55798.1 35554 lineto
stroke
newpath
53613.1 35554 moveto
53435.9 35554 lineto
stroke
newpath
63101.3 35459.5 moveto
62974.2 35459.5 lineto
stroke
newpath
60540.5 35459.5 moveto
55798.1 35459.5 lineto
stroke
newpath
53613.1 35459.5 moveto
53435.9 35459.5 lineto
stroke
newpath
63101.3 35365 moveto
62974.2 35365 lineto
stroke
newpath
60635 35365 moveto
55798.1 35365 lineto
stroke
newpath
53613.1 35365 moveto
53435.9 35365 lineto
stroke
newpath
63101.3 35270.6 moveto
62974.2 35270.6 lineto
stroke
newpath
60729.5 35270.6 moveto
55798.1 35270.6 lineto
stroke
newpath
53613.1 35270.6 moveto
53435.9 35270.6 lineto
stroke
newpath
63101.3 35176.1 moveto
62974.2 35176.1 lineto
stroke
newpath
60824 35176.1 moveto
55798.1 35176.1 lineto
stroke
newpath
53613.1 35176.1 moveto
53435.9 35176.1 lineto
stroke
newpath
63101.3 35081.6 moveto
62974.2 35081.6 lineto
stroke
newpath
60918.5 35081.6 moveto
55798.1 35081.6 lineto
stroke
newpath
53613.1 35081.6 moveto
53435.9 35081.6 lineto
stroke
newpath
63101.3 34987.1 moveto
62974.2 34987.1 lineto
stroke
newpath
61043.3 34987.1 moveto
55798.1 34987.1 lineto
stroke
newpath
53613.1 34987.1 moveto
53435.9 34987.1 lineto
stroke
newpath
63101.3 34892.6 moveto
62974.2 34892.6 lineto
stroke
newpath
61043.3 34892.6 moveto
55798.1 34892.6 lineto
stroke
newpath
53613.1 34892.6 moveto
53435.9 34892.6 lineto
stroke
newpath
63101.3 34798.1 moveto
62974.2 34798.1 lineto
stroke
newpath
61043.3 34798.1 moveto
55798.1 34798.1 lineto
stroke
newpath
53613.1 34798.1 moveto
53435.9 34798.1 lineto
stroke
newpath
63101.3 34703.6 moveto
62974.2 34703.6 lineto
stroke
newpath
61043.3 34703.6 moveto
53435.9 34703.6 lineto
stroke
newpath
63101.3 34609.1 moveto
62974.2 34609.1 lineto
stroke
newpath
61043.3 34609.1 moveto
53435.9 34609.1 lineto
stroke
newpath
63101.3 34514.6 moveto
62974.2 34514.6 lineto
stroke
newpath
61043.3 34514.6 moveto
53435.9 34514.6 lineto
stroke
newpath
63101.3 34420.2 moveto
62970.9 34420.2 lineto
stroke
newpath
61047.8 34420.2 moveto
53435.9 34420.2 lineto
stroke
newpath
63101.3 34325.7 moveto
62920 34325.7 lineto
stroke
newpath
61097.1 34325.7 moveto
53435.9 34325.7 lineto
stroke
newpath
63101.3 43930 moveto
53435.9 43930 lineto
stroke
newpath
63101.3 43835.5 moveto
53435.9 43835.5 lineto
stroke
newpath
63101.3 43741 moveto
53435.9 43741 lineto
stroke
newpath
63101.3 43646.5 moveto
53435.9 43646.5 lineto
stroke
newpath
63101.3 43552 moveto
53435.9 43552 lineto
stroke
newpath
63101.3 43457.6 moveto
53435.9 43457.6 lineto
stroke
newpath
63101.3 43363.1 moveto
53435.9 43363.1 lineto
stroke
newpath
63101.3 43268.6 moveto
53435.9 43268.6 lineto
stroke
newpath
63101.3 43174.1 moveto
53435.9 43174.1 lineto
stroke
newpath
63101.3 43079.6 moveto
53435.9 43079.6 lineto
stroke
newpath
63101.3 42985.1 moveto
53435.9 42985.1 lineto
stroke
newpath
63101.3 42890.6 moveto
59931.6 42890.6 lineto
stroke
newpath
59084.9 42890.6 moveto
57963.1 42890.6 lineto
stroke
newpath
57116.4 42890.6 moveto
53435.9 42890.6 lineto
stroke
newpath
63101.3 42796.1 moveto
59978.1 42796.1 lineto
stroke
newpath
59037.6 42796.1 moveto
58009.6 42796.1 lineto
stroke
newpath
57069.1 42796.1 moveto
53435.9 42796.1 lineto
stroke
newpath
63101.3 42701.7 moveto
59982 42701.7 lineto
stroke
newpath
59035.4 42701.7 moveto
58013.5 42701.7 lineto
stroke
newpath
57066.9 42701.7 moveto
53435.9 42701.7 lineto
stroke
newpath
63101.3 42607.2 moveto
59982 42607.2 lineto
stroke
newpath
59035.4 42607.2 moveto
58013.5 42607.2 lineto
stroke
newpath
57066.9 42607.2 moveto
53435.9 42607.2 lineto
stroke
newpath
63101.3 42512.7 moveto
59982 42512.7 lineto
stroke
newpath
59035.4 42512.7 moveto
58013.5 42512.7 lineto
stroke
newpath
57066.9 42512.7 moveto
53435.9 42512.7 lineto
stroke
newpath
63101.3 42418.2 moveto
59982 42418.2 lineto
stroke
newpath
59035.4 42418.2 moveto
58013.5 42418.2 lineto
stroke
newpath
57066.9 42418.2 moveto
53435.9 42418.2 lineto
stroke
newpath
63101.3 42323.7 moveto
59982 42323.7 lineto
stroke
newpath
59035.4 42323.7 moveto
58013.5 42323.7 lineto
stroke
newpath
57066.9 42323.7 moveto
53435.9 42323.7 lineto
stroke
newpath
63101.3 42229.2 moveto
59973.9 42229.2 lineto
stroke
newpath
59042.2 42229.2 moveto
58097 42229.2 lineto
stroke
newpath
57073.7 42229.2 moveto
53435.9 42229.2 lineto
stroke
newpath
63101.3 42134.7 moveto
59909.4 42134.7 lineto
stroke
newpath
59108.2 42134.7 moveto
58191.5 42134.7 lineto
stroke
newpath
57139.7 42134.7 moveto
53435.9 42134.7 lineto
stroke
newpath
63101.3 42040.2 moveto
59764.6 42040.2 lineto
stroke
newpath
59252.8 42040.2 moveto
58286 42040.2 lineto
stroke
newpath
57562.2 42040.2 moveto
53435.9 42040.2 lineto
stroke
newpath
63101.3 41945.7 moveto
60880.3 41945.7 lineto
stroke
newpath
60297.8 41945.7 moveto
59764.6 41945.7 lineto
stroke
newpath
59231.5 41945.7 moveto
58380.5 41945.7 lineto
stroke
newpath
57656.7 41945.7 moveto
53435.9 41945.7 lineto
stroke
newpath
63101.3 41851.3 moveto
60996.2 41851.3 lineto
stroke
newpath
60184.9 41851.3 moveto
59763.7 41851.3 lineto
stroke
newpath
58814.6 41851.3 moveto
58475 41851.3 lineto
stroke
newpath
57751.2 41851.3 moveto
53435.9 41851.3 lineto
stroke
newpath
63101.3 41756.8 moveto
61015.5 41756.8 lineto
stroke
newpath
60167.3 41756.8 moveto
59741.7 41756.8 lineto
stroke
newpath
58771.6 41756.8 moveto
58569.1 41756.8 lineto
stroke
newpath
57845.7 41756.8 moveto
53435.9 41756.8 lineto
stroke
newpath
63101.3 41662.3 moveto
61015.5 41662.3 lineto
stroke
newpath
59724.1 41662.3 moveto
59671.8 41662.3 lineto
stroke
newpath
58769.7 41662.3 moveto
58627.1 41662.3 lineto
stroke
newpath
57940.1 41662.3 moveto
57003.7 41662.3 lineto
stroke
newpath
63101.3 41567.8 moveto
61015.5 41567.8 lineto
stroke
newpath
58769.7 41567.8 moveto
58642.6 41567.8 lineto
stroke
newpath
58034.6 41567.8 moveto
57161.2 41567.8 lineto
stroke
newpath
63101.3 41473.3 moveto
61719 41473.3 lineto
stroke
newpath
61557.5 41473.3 moveto
61015.5 41473.3 lineto
stroke
newpath
58769.7 41473.3 moveto
58642.6 41473.3 lineto
stroke
newpath
58077.9 41473.3 moveto
57922.2 41473.3 lineto
stroke
newpath
63101.3 41378.8 moveto
61935.6 41378.8 lineto
stroke
newpath
61342.7 41378.8 moveto
61053.7 41378.8 lineto
stroke
newpath
58771.1 41378.8 moveto
58638.7 41378.8 lineto
stroke
newpath
57983.4 41378.8 moveto
57961.8 41378.8 lineto
stroke
newpath
63101.3 41284.3 moveto
62024.2 41284.3 lineto
stroke
newpath
61252.8 41284.3 moveto
61148.2 41284.3 lineto
stroke
newpath
58769.7 41284.3 moveto
58603.2 41284.3 lineto
stroke
newpath
63101.3 41189.8 moveto
62077.7 41189.8 lineto
stroke
newpath
58771.7 41189.8 moveto
58518.3 41189.8 lineto
stroke
newpath
63101.3 41095.4 moveto
62106.8 41095.4 lineto
stroke
newpath
58808.4 41095.4 moveto
58423.8 41095.4 lineto
stroke
newpath
63101.3 41000.9 moveto
62115.9 41000.9 lineto
stroke
newpath
58785.8 41000.9 moveto
58458.2 41000.9 lineto
stroke
newpath
63101.3 40906.4 moveto
62106.1 40906.4 lineto
stroke
newpath
58769.7 40906.4 moveto
58483.5 40906.4 lineto
stroke
newpath
63101.3 40811.9 moveto
62076.3 40811.9 lineto
stroke
newpath
58755.1 40811.9 moveto
58485.1 40811.9 lineto
stroke
newpath
63101.3 40717.4 moveto
62022.4 40717.4 lineto
stroke
newpath
61256 40717.4 moveto
61242.7 40717.4 lineto
stroke
newpath
58660.6 40717.4 moveto
58485.1 40717.4 lineto
stroke
newpath
63101.3 40622.9 moveto
61928.1 40622.9 lineto
stroke
newpath
61346.8 40622.9 moveto
61337.2 40622.9 lineto
stroke
newpath
58566.1 40622.9 moveto
58485.1 40622.9 lineto
stroke
newpath
63101.3 40528.4 moveto
61703.1 40528.4 lineto
stroke
newpath
61581.2 40528.4 moveto
61431.7 40528.4 lineto
stroke
newpath
63101.3 40433.9 moveto
62845.5 40433.9 lineto
stroke
newpath
62432.8 40433.9 moveto
61526.2 40433.9 lineto
stroke
newpath
63101.3 40339.4 moveto
62976.9 40339.4 lineto
stroke
newpath
62300.4 40339.4 moveto
61620.6 40339.4 lineto
stroke
newpath
63101.3 40245 moveto
63051.2 40245 lineto
stroke
newpath
63101.3 40150.5 moveto
63094.6 40150.5 lineto
stroke
newpath
53435.9 41735.1 moveto
56822.4 41735.1 lineto
56827.3 41735.9 lineto
56834.1 41735.1 lineto
56890.6 41735.1 lineto
56907.1 41732.8 lineto
56922.2 41726 lineto
56934.9 41715.2 lineto
56944 41701.3 lineto
56945.2 41697.4 lineto
57209 41539.1 lineto
57786.3 41539.1 lineto
57814.5 41536.9 lineto
57862.4 41522.1 lineto
57904.2 41494.5 lineto
57936.7 41456.4 lineto
57957.3 41410.7 lineto
57964.3 41361.1 lineto
57964.3 41359.7 lineto
58103.5 41498.9 lineto
57504 42098.4 lineto
57245 42098.4 lineto
57216.7 42100.7 lineto
57168.9 42115.5 lineto
57127.1 42143.1 lineto
57094.6 42181.2 lineto
57074 42226.9 lineto
57066.9 42276.5 lineto
57066.9 42768.6 lineto
57069.2 42796.8 lineto
57084 42844.6 lineto
57111.6 42886.5 lineto
57149.7 42919 lineto
57195.4 42939.6 lineto
57245 42946.6 lineto
57835.5 42946.6 lineto
57863.7 42944.4 lineto
57911.6 42929.5 lineto
57953.4 42902 lineto
57985.9 42863.8 lineto
58006.5 42818.2 lineto
58013.5 42768.6 lineto
58013.5 42312.7 lineto
58567.6 41758.6 lineto
58582.6 41740.3 lineto
58597.8 41722.2 lineto
58598.5 41721 lineto
58599.3 41720 lineto
58610.5 41699.2 lineto
58621.9 41678.4 lineto
58622.3 41677.2 lineto
58622.9 41676 lineto
58629.9 41653.4 lineto
58637 41630.8 lineto
58637.2 41629.5 lineto
58637.5 41628.2 lineto
58639.9 41604.7 lineto
58642.6 41581.2 lineto
58642.6 41578.6 lineto
58642.6 41578.5 lineto
58642.6 41578.5 lineto
58642.6 41577.6 lineto
58642.6 41420.2 lineto
58640.3 41396.6 lineto
58638.2 41373.1 lineto
58637.9 41371.8 lineto
58637.7 41370.5 lineto
58630.9 41347.8 lineto
58624.3 41325.1 lineto
58623.7 41323.9 lineto
58623.3 41322.6 lineto
58612.2 41301.8 lineto
58601.3 41280.8 lineto
58600.5 41279.7 lineto
58599.8 41278.5 lineto
58584.9 41260.2 lineto
58570.2 41241.7 lineto
58568.3 41239.9 lineto
58568.3 41239.8 lineto
58568.2 41239.8 lineto
58567.6 41239.2 lineto
58404.1 41075.7 lineto
58410.2 41069.6 lineto
58425.2 41051.4 lineto
58440.4 41033.2 lineto
58441 41032.1 lineto
58441.9 41031 lineto
58453 41010.2 lineto
58464.4 40989.5 lineto
58464.8 40988.2 lineto
58465.5 40987 lineto
58472.4 40964.4 lineto
58479.5 40941.9 lineto
58479.7 40940.5 lineto
58480.1 40939.2 lineto
58482.5 40915.7 lineto
58485.1 40892.2 lineto
58485.1 40889.6 lineto
58485.1 40889.6 lineto
58485.1 40889.5 lineto
58485.1 40888.7 lineto
58485.1 40541.9 lineto
58769.7 40826.5 lineto
58769.7 40928 lineto
58771.9 40956.2 lineto
58786.8 41004.1 lineto
58814.3 41045.9 lineto
58837.2 41065.4 lineto
58829.8 41070.2 lineto
58797.3 41108.4 lineto
58776.7 41154 lineto
58769.7 41203.6 lineto
58769.7 41361.1 lineto
58771.9 41389.3 lineto
58773.2 41393.4 lineto
58769.7 41418.2 lineto
58769.7 41733.1 lineto
58771.9 41761.4 lineto
58786.8 41809.2 lineto
58814.3 41851 lineto
58852.5 41883.5 lineto
58898.1 41904.1 lineto
58947.7 41911.2 lineto
59196.9 41911.2 lineto
59252.8 41967.1 lineto
59252.8 42098.4 lineto
59213.5 42098.4 lineto
59185.3 42100.7 lineto
59137.4 42115.5 lineto
59095.6 42143.1 lineto
59063.1 42181.2 lineto
59042.5 42226.9 lineto
59035.4 42276.5 lineto
59035.4 42768.6 lineto
59037.7 42796.8 lineto
59052.5 42844.6 lineto
59080.1 42886.5 lineto
59118.2 42919 lineto
59163.9 42939.6 lineto
59213.5 42946.6 lineto
59804 42946.6 lineto
59832.2 42944.4 lineto
59880.1 42929.5 lineto
59921.9 42902 lineto
59954.4 42863.8 lineto
59975 42818.2 lineto
59982 42768.6 lineto
59982 42276.5 lineto
59979.8 42248.2 lineto
59965 42200.4 lineto
59937.4 42158.6 lineto
59899.3 42126.1 lineto
59853.6 42105.5 lineto
59804 42098.4 lineto
59764.6 42098.4 lineto
59764.6 41861.1 lineto
59762.3 41837.6 lineto
59760.3 41814 lineto
59759.9 41812.7 lineto
59759.8 41811.4 lineto
59752.9 41788.8 lineto
59746.3 41766.1 lineto
59745.7 41764.9 lineto
59745.3 41763.6 lineto
59734.2 41742.7 lineto
59723.4 41721.7 lineto
59722.5 41720.7 lineto
59721.9 41719.5 lineto
59706.9 41701.2 lineto
59692.2 41682.7 lineto
59690.4 41680.8 lineto
59690.3 41680.8 lineto
59690.3 41680.8 lineto
59689.7 41680.2 lineto
59657.2 41647.7 lineto
59657.2 41595.9 lineto
59721.5 41660.2 lineto
59739.7 41675.2 lineto
59757.9 41690.4 lineto
59759 41691 lineto
59760.1 41691.9 lineto
59780.9 41703 lineto
59801.6 41714.4 lineto
59802.9 41714.8 lineto
59804.1 41715.5 lineto
59826.7 41722.4 lineto
59849.2 41729.5 lineto
59850.6 41729.7 lineto
59851.9 41730.1 lineto
59875.4 41732.5 lineto
59898.9 41735.1 lineto
59901.5 41735.1 lineto
59901.5 41735.1 lineto
59901.6 41735.1 lineto
59902.4 41735.1 lineto
60167.3 41735.1 lineto
60167.3 41774.5 lineto
60169.6 41802.7 lineto
60184.4 41850.6 lineto
60212 41892.4 lineto
60250.1 41924.9 lineto
60295.8 41945.5 lineto
60345.4 41952.5 lineto
60837.5 41952.5 lineto
60865.7 41950.3 lineto
60913.5 41935.4 lineto
60955.4 41907.9 lineto
60987.9 41869.8 lineto
61008.5 41824.1 lineto
61015.5 41774.5 lineto
61015.5 41417 lineto
61173.8 41258.7 lineto
61235.8 41258.7 lineto
61267.1 41305.9 lineto
61333 41372.3 lineto
61410.6 41424.6 lineto
61496.9 41460.9 lineto
61588.5 41479.7 lineto
61682.1 41480.3 lineto
61774 41462.8 lineto
61860.8 41427.7 lineto
61939.1 41376.5 lineto
62006 41311 lineto
62058.8 41233.8 lineto
62095.7 41147.8 lineto
62115.1 41056.3 lineto
62116.5 40962.7 lineto
62099.6 40870.7 lineto
62065.1 40783.7 lineto
62014.4 40705 lineto
61949.4 40637.7 lineto
61872.6 40584.3 lineto
61786.8 40546.8 lineto
61695.4 40526.7 lineto
61601.9 40524.8 lineto
61509.7 40541 lineto
61422.5 40574.9 lineto
61343.5 40625 lineto
61275.7 40689.5 lineto
61235.2 40746.9 lineto
61206.1 40746.9 lineto
61223.8 40732.5 lineto
61242.3 40717.8 lineto
61244.1 40715.9 lineto
61244.2 40715.9 lineto
61244.2 40715.9 lineto
61244.8 40715.3 lineto
61701.4 40258.7 lineto
62235.8 40258.7 lineto
62267.1 40305.9 lineto
62333 40372.3 lineto
62410.6 40424.6 lineto
62496.9 40460.9 lineto
62588.5 40479.7 lineto
62682.1 40480.3 lineto
62774 40462.8 lineto
62860.8 40427.7 lineto
62939.1 40376.5 lineto
63006 40311 lineto
63058.8 40233.8 lineto
63095.7 40147.8 lineto
63101.3 40121.6 lineto
63101.3 43930 lineto
53435.9 43930 lineto
53435.9 41735.1 lineto
poly0
1 1 1 setrgbcolor
0 setlinewidth
61638.7 41002.8 160 cir1
39.3701 setlinewidth
0 setlinewidth
62638.7 42002.8 160 cir1
39.3701 setlinewidth
0 setlinewidth
62638.7 40002.8 160 cir1
39.3701 setlinewidth
0 setlinewidth
62008.7 37207.6 177.165 cir1
39.3701 setlinewidth
0 0 0 setrgbcolor
showpage
grestore
%%EOF
