EESchema Schematic File Version 2
LIBS:max2750_ol_2-rescue
LIBS:power
LIBS:device
LIBS:transistors
LIBS:conn
LIBS:linear
LIBS:regul
LIBS:74xx
LIBS:cmos4000
LIBS:adc-dac
LIBS:memory
LIBS:xilinx
LIBS:microcontrollers
LIBS:dsp
LIBS:microchip
LIBS:analog_switches
LIBS:motorola
LIBS:texas
LIBS:intel
LIBS:audio
LIBS:interface
LIBS:digital-audio
LIBS:philips
LIBS:display
LIBS:cypress
LIBS:siliconi
LIBS:opto
LIBS:atmel
LIBS:contrib
LIBS:valves
LIBS:max2750
LIBS:sma
LIBS:max2750_ol_2-cache
EELAYER 25 0
EELAYER END
$Descr A4 11693 8268
encoding utf-8
Sheet 1 1
Title ""
Date ""
Rev ""
Comp ""
Comment1 ""
Comment2 ""
Comment3 ""
Comment4 ""
$EndDescr
$Comp
L C C5
U 1 1 5836F7EA
P 6100 4250
F 0 "C5" H 6125 4350 50  0000 L CNN
F 1 "100p" H 6125 4150 50  0000 L CNN
F 2 "Capacitors_SMD:C_0805_HandSoldering" H 6138 4100 50  0001 C CNN
F 3 "" H 6100 4250 50  0000 C CNN
	1    6100 4250
	1    0    0    -1  
$EndComp
$Comp
L MAX2750 U2
U 1 1 583807BB
P 5500 3700
F 0 "U2" H 5500 3700 60  0000 C CNN
F 1 "MAX2750" H 5500 3600 60  0000 C CNN
F 2 "Librairie:µMAX" H 5500 3700 60  0001 C CNN
F 3 "" H 5500 3700 60  0001 C CNN
	1    5500 3700
	1    0    0    -1  
$EndComp
$Comp
L C C2
U 1 1 583809C6
P 3800 3650
F 0 "C2" H 3825 3750 50  0000 L CNN
F 1 "100n" H 3825 3550 50  0000 L CNN
F 2 "Capacitors_SMD:C_0805_HandSoldering" H 3838 3500 50  0001 C CNN
F 3 "" H 3800 3650 50  0000 C CNN
	1    3800 3650
	1    0    0    -1  
$EndComp
$Comp
L GND #PWR01
U 1 1 58380A71
P 4750 4100
F 0 "#PWR01" H 4750 3850 50  0001 C CNN
F 1 "GND" H 4750 3950 50  0000 C CNN
F 2 "" H 4750 4100 50  0000 C CNN
F 3 "" H 4750 4100 50  0000 C CNN
	1    4750 4100
	1    0    0    -1  
$EndComp
$Comp
L GND #PWR02
U 1 1 58380AAD
P 4150 1450
F 0 "#PWR02" H 4150 1200 50  0001 C CNN
F 1 "GND" H 4150 1300 50  0000 C CNN
F 2 "" H 4150 1450 50  0000 C CNN
F 3 "" H 4150 1450 50  0000 C CNN
	1    4150 1450
	1    0    0    -1  
$EndComp
$Comp
L VCC #PWR03
U 1 1 58380ACB
P 3550 1050
F 0 "#PWR03" H 3550 900 50  0001 C CNN
F 1 "VCC" H 3550 1200 50  0000 C CNN
F 2 "" H 3550 1050 50  0000 C CNN
F 3 "" H 3550 1050 50  0000 C CNN
	1    3550 1050
	1    0    0    -1  
$EndComp
Text Label 4900 3650 2    60   ~ 12
Tune
$Comp
L R R1
U 1 1 58380B81
P 4250 3750
F 0 "R1" V 4330 3750 50  0000 C CNN
F 1 "10k" V 4250 3750 50  0000 C CNN
F 2 "Resistors_SMD:R_0805_HandSoldering" V 4180 3750 50  0001 C CNN
F 3 "" H 4250 3750 50  0000 C CNN
	1    4250 3750
	1    0    0    -1  
$EndComp
Wire Wire Line
	4900 3950 4250 3950
Wire Wire Line
	4250 3950 4250 3900
Wire Wire Line
	4250 3200 4250 3600
Wire Wire Line
	3800 3500 4900 3500
Wire Wire Line
	4750 4100 4750 3800
Wire Wire Line
	4750 3800 4900 3800
$Comp
L GND #PWR04
U 1 1 58380C66
P 3800 3900
F 0 "#PWR04" H 3800 3650 50  0001 C CNN
F 1 "GND" H 3800 3750 50  0000 C CNN
F 2 "" H 3800 3900 50  0000 C CNN
F 3 "" H 3800 3900 50  0000 C CNN
	1    3800 3900
	1    0    0    -1  
$EndComp
$Comp
L C C1
U 1 1 58380D4F
P 4250 4100
F 0 "C1" H 4275 4200 50  0000 L CNN
F 1 "100p" H 4275 4000 50  0000 L CNN
F 2 "Capacitors_SMD:C_0805_HandSoldering" H 4288 3950 50  0001 C CNN
F 3 "" H 4250 4100 50  0000 C CNN
	1    4250 4100
	1    0    0    -1  
$EndComp
$Comp
L GND #PWR05
U 1 1 58380DE1
P 4250 4250
F 0 "#PWR05" H 4250 4000 50  0001 C CNN
F 1 "GND" H 4250 4100 50  0000 C CNN
F 2 "" H 4250 4250 50  0000 C CNN
F 3 "" H 4250 4250 50  0000 C CNN
	1    4250 4250
	1    0    0    -1  
$EndComp
Wire Wire Line
	6550 3950 6050 3950
Wire Wire Line
	6550 3200 6550 3950
$Comp
L R R2
U 1 1 58380FCC
P 6300 3800
F 0 "R2" V 6380 3800 50  0000 C CNN
F 1 "10R" V 6300 3800 50  0000 C CNN
F 2 "Resistors_SMD:R_0805_HandSoldering" V 6230 3800 50  0001 C CNN
F 3 "" H 6300 3800 50  0000 C CNN
	1    6300 3800
	0    1    1    0   
$EndComp
Wire Wire Line
	6050 3800 6150 3800
Wire Wire Line
	6450 3800 6550 3800
Connection ~ 6550 3800
Wire Wire Line
	6100 4100 6100 3800
Connection ~ 6100 3800
$Comp
L GND #PWR06
U 1 1 583812D0
P 6100 4400
F 0 "#PWR06" H 6100 4150 50  0001 C CNN
F 1 "GND" H 6100 4250 50  0000 C CNN
F 2 "" H 6100 4400 50  0000 C CNN
F 3 "" H 6100 4400 50  0000 C CNN
	1    6100 4400
	1    0    0    -1  
$EndComp
$Comp
L GND #PWR07
U 1 1 5838133E
P 6400 3500
F 0 "#PWR07" H 6400 3250 50  0001 C CNN
F 1 "GND" H 6400 3350 50  0001 C CNN
F 2 "" H 6400 3500 50  0000 C CNN
F 3 "" H 6400 3500 50  0000 C CNN
	1    6400 3500
	1    0    0    -1  
$EndComp
Wire Wire Line
	6050 3500 6400 3500
Wire Wire Line
	6050 3650 7300 3650
$Comp
L GND #PWR08
U 1 1 5838182C
P 7350 3900
F 0 "#PWR08" H 7350 3650 50  0001 C CNN
F 1 "GND" H 7350 3750 50  0000 C CNN
F 2 "" H 7350 3900 50  0000 C CNN
F 3 "" H 7350 3900 50  0000 C CNN
	1    7350 3900
	1    0    0    -1  
$EndComp
Wire Wire Line
	3550 1100 3750 1100
Wire Wire Line
	3550 1100 3550 1050
Wire Wire Line
	4150 1450 4150 1400
$Comp
L POT-RESCUE-max2750_ol_2 RV1
U 1 1 58381D65
P 1850 4050
F 0 "RV1" H 1850 3970 50  0000 C CNN
F 1 "100k" H 1850 4050 50  0000 C CNN
F 2 "Potentiometers:Potentiometer_Bourns_3296Z_3-8Zoll_Angular_ScrewFront" H 1850 4050 50  0001 C CNN
F 3 "" H 1850 4050 50  0000 C CNN
	1    1850 4050
	0    1    1    0   
$EndComp
$Comp
L GND #PWR09
U 1 1 58381E2D
P 1850 4300
F 0 "#PWR09" H 1850 4050 50  0001 C CNN
F 1 "GND" H 1850 4150 50  0000 C CNN
F 2 "" H 1850 4300 50  0000 C CNN
F 3 "" H 1850 4300 50  0000 C CNN
	1    1850 4300
	1    0    0    -1  
$EndComp
Wire Wire Line
	1850 4300 1850 4200
$Comp
L R R3
U 1 1 58381F27
P 1850 3450
F 0 "R3" V 1930 3450 50  0000 C CNN
F 1 "66k" V 1850 3450 50  0000 C CNN
F 2 "Resistors_SMD:R_0805_HandSoldering" V 1780 3450 50  0001 C CNN
F 3 "" H 1850 3450 50  0000 C CNN
	1    1850 3450
	1    0    0    -1  
$EndComp
Wire Wire Line
	1850 3300 1850 3150
Wire Wire Line
	1850 3600 1850 3900
$Comp
L C C4
U 1 1 583821D6
P 2200 4200
F 0 "C4" H 2225 4300 50  0000 L CNN
F 1 "100p" H 2225 4100 50  0000 L CNN
F 2 "Capacitors_SMD:C_0805_HandSoldering" H 2238 4050 50  0001 C CNN
F 3 "" H 2200 4200 50  0000 C CNN
	1    2200 4200
	1    0    0    -1  
$EndComp
$Comp
L GND #PWR010
U 1 1 58382221
P 2200 4350
F 0 "#PWR010" H 2200 4100 50  0001 C CNN
F 1 "GND" H 2200 4200 50  0000 C CNN
F 2 "" H 2200 4350 50  0000 C CNN
F 3 "" H 2200 4350 50  0000 C CNN
	1    2200 4350
	1    0    0    -1  
$EndComp
Wire Wire Line
	2000 4050 2200 4050
$Comp
L C C3
U 1 1 5838228B
P 1450 3850
F 0 "C3" H 1475 3950 50  0000 L CNN
F 1 "1u" H 1475 3750 50  0000 L CNN
F 2 "Capacitors_SMD:C_1206_HandSoldering" H 1488 3700 50  0001 C CNN
F 3 "" H 1450 3850 50  0000 C CNN
	1    1450 3850
	1    0    0    -1  
$EndComp
Wire Wire Line
	1450 3700 1850 3700
Connection ~ 1850 3700
$Comp
L GND #PWR011
U 1 1 583823B5
P 1450 4000
F 0 "#PWR011" H 1450 3750 50  0001 C CNN
F 1 "GND" H 1450 3850 50  0000 C CNN
F 2 "" H 1450 4000 50  0000 C CNN
F 3 "" H 1450 4000 50  0000 C CNN
	1    1450 4000
	1    0    0    -1  
$EndComp
Text Label 2200 4050 0    60   ~ 12
Tune
$Comp
L CONN_01X02 P1
U 1 1 58382B2F
P 900 1150
F 0 "P1" H 900 1300 50  0000 C CNN
F 1 "CONN_01X02" V 1000 1150 50  0000 C CNN
F 2 "sma_connectors:Alim_CMS_Trav" H 900 1150 50  0001 C CNN
F 3 "" H 900 1150 50  0000 C CNN
	1    900  1150
	-1   0    0    -1  
$EndComp
$Comp
L VCC #PWR012
U 1 1 58382C5B
P 1950 950
F 0 "#PWR012" H 1950 800 50  0001 C CNN
F 1 "VCC" H 1950 1100 50  0000 C CNN
F 2 "" H 1950 950 50  0000 C CNN
F 3 "" H 1950 950 50  0000 C CNN
	1    1950 950 
	1    0    0    -1  
$EndComp
$Comp
L GND #PWR013
U 1 1 58382C90
P 1400 1300
F 0 "#PWR013" H 1400 1050 50  0001 C CNN
F 1 "GND" H 1400 1150 50  0000 C CNN
F 2 "" H 1400 1300 50  0000 C CNN
F 3 "" H 1400 1300 50  0000 C CNN
	1    1400 1300
	1    0    0    -1  
$EndComp
Wire Wire Line
	1400 1300 1400 1200
Wire Wire Line
	1400 1200 1100 1200
Wire Wire Line
	1100 1100 1950 1100
Wire Wire Line
	1950 1100 1950 950 
$Comp
L C C6
U 1 1 58382D2E
P 1950 1250
F 0 "C6" H 1975 1350 50  0000 L CNN
F 1 "1u" H 1975 1150 50  0000 L CNN
F 2 "Capacitors_SMD:C_0805_HandSoldering" H 1988 1100 50  0001 C CNN
F 3 "" H 1950 1250 50  0000 C CNN
	1    1950 1250
	1    0    0    -1  
$EndComp
$Comp
L GND #PWR014
U 1 1 58382DA1
P 1950 1450
F 0 "#PWR014" H 1950 1200 50  0001 C CNN
F 1 "GND" H 1950 1300 50  0000 C CNN
F 2 "" H 1950 1450 50  0000 C CNN
F 3 "" H 1950 1450 50  0000 C CNN
	1    1950 1450
	1    0    0    -1  
$EndComp
Wire Wire Line
	1950 1400 1950 1450
Connection ~ 1950 1100
$Comp
L +5V #PWR015
U 1 1 58383D4E
P 4700 1100
F 0 "#PWR015" H 4700 950 50  0001 C CNN
F 1 "+5V" H 4700 1240 50  0000 C CNN
F 2 "" H 4700 1100 50  0000 C CNN
F 3 "" H 4700 1100 50  0000 C CNN
	1    4700 1100
	1    0    0    -1  
$EndComp
Wire Wire Line
	4550 1100 4700 1100
Wire Wire Line
	4250 3200 6550 3200
$Comp
L +5V #PWR016
U 1 1 58383E8E
P 5350 3150
F 0 "#PWR016" H 5350 3000 50  0001 C CNN
F 1 "+5V" H 5350 3290 50  0000 C CNN
F 2 "" H 5350 3150 50  0000 C CNN
F 3 "" H 5350 3150 50  0000 C CNN
	1    5350 3150
	1    0    0    -1  
$EndComp
Wire Wire Line
	5350 3150 5350 3200
Connection ~ 5350 3200
$Comp
L +5V #PWR017
U 1 1 58383F52
P 1850 3150
F 0 "#PWR017" H 1850 3000 50  0001 C CNN
F 1 "+5V" H 1850 3290 50  0000 C CNN
F 2 "" H 1850 3150 50  0000 C CNN
F 3 "" H 1850 3150 50  0000 C CNN
	1    1850 3150
	1    0    0    -1  
$EndComp
Wire Notes Line
	3000 650  5100 650 
Wire Notes Line
	5100 650  5100 1850
Wire Notes Line
	5100 1850 3000 1850
Wire Notes Line
	3000 1850 3000 650 
Wire Notes Line
	600  600  2450 600 
Wire Notes Line
	2450 600  2450 1900
Wire Notes Line
	2450 1900 600  1900
Wire Notes Line
	600  1900 600  600 
Wire Notes Line
	950  2800 2650 2800
Wire Notes Line
	2650 2800 2650 4600
Wire Notes Line
	2650 4600 950  4600
Wire Notes Line
	950  4600 950  2800
Wire Notes Line
	3650 2800 8050 2800
Wire Notes Line
	8050 2800 8050 4650
Wire Notes Line
	8050 4650 3650 4650
Wire Notes Line
	3650 4650 3650 2800
Text Notes 700  4750 0    60   ~ 0
Variation de la tension de commande de 0V à 3V\n
Wire Wire Line
	3800 3900 3800 3800
$Comp
L SMA J1
U 1 1 583C30FC
P 7450 3950
F 0 "J1" H 7575 4265 60  0000 C CNN
F 1 "SMA" H 7640 4190 60  0000 C CNN
F 2 "sma_connectors:SMA" H 7625 4120 50  0000 C CNN
F 3 "" H 7450 3950 60  0001 C CNN
	1    7450 3950
	1    0    0    -1  
$EndComp
Wire Wire Line
	7350 3900 7350 3850
Wire Wire Line
	7350 3850 7500 3850
Connection ~ 7400 3850
Connection ~ 7450 3850
$Comp
L MC78L05ACH U1
U 1 1 585114A2
P 4150 1150
F 0 "U1" H 3950 1350 50  0000 C CNN
F 1 "MC78L05ACH" H 4150 1350 50  0000 L CNN
F 2 "TO_SOT_Packages_SMD:SOT89-3_Housing_Handsoldering" H 4150 1250 50  0000 C CIN
F 3 "" H 4150 1150 50  0000 C CNN
	1    4150 1150
	1    0    0    -1  
$EndComp
$EndSCHEMATC
