EESchema Schematic File Version 2
LIBS:power
LIBS:device
LIBS:switches
LIBS:relays
LIBS:motors
LIBS:transistors
LIBS:conn
LIBS:linear
LIBS:regul
LIBS:74xx
LIBS:cmos4000
LIBS:adc-dac
LIBS:memory
LIBS:xilinx
LIBS:microcontrollers
LIBS:dsp
LIBS:microchip
LIBS:analog_switches
LIBS:motorola
LIBS:texas
LIBS:intel
LIBS:audio
LIBS:interface
LIBS:digital-audio
LIBS:philips
LIBS:display
LIBS:cypress
LIBS:siliconi
LIBS:opto
LIBS:atmel
LIBS:contrib
LIBS:valves
LIBS:adf4350
LIBS:fox-hc536r
LIBS:sma
LIBS:adp150
LIBS:ADF4350-cache
EELAYER 25 0
EELAYER END
$Descr A4 11693 8268
encoding utf-8
Sheet 1 1
Title ""
Date ""
Rev ""
Comp ""
Comment1 ""
Comment2 ""
Comment3 ""
Comment4 ""
$EndDescr
$Comp
L ADF4350 U3
U 1 1 59DCC363
P 3000 3250
F 0 "U3" H 3000 3250 60  0000 C CNN
F 1 "ADF4350" H 3000 3400 60  0000 C CNN
F 2 "Librairie:LFCSP_VQ_CP32-2" H 3000 3250 60  0001 C CNN
F 3 "" H 3000 3250 60  0001 C CNN
	1    3000 3250
	1    0    0    -1  
$EndComp
$Comp
L GND #PWR01
U 1 1 59DCC38E
P 2550 4200
F 0 "#PWR01" H 2550 3950 50  0001 C CNN
F 1 "GND" H 2550 4050 50  0000 C CNN
F 2 "" H 2550 4200 50  0001 C CNN
F 3 "" H 2550 4200 50  0001 C CNN
	1    2550 4200
	1    0    0    -1  
$EndComp
$Comp
L GND #PWR02
U 1 1 59DCC3A3
P 2650 4350
F 0 "#PWR02" H 2650 4100 50  0001 C CNN
F 1 "GND" H 2650 4200 50  0000 C CNN
F 2 "" H 2650 4350 50  0001 C CNN
F 3 "" H 2650 4350 50  0001 C CNN
	1    2650 4350
	1    0    0    -1  
$EndComp
$Comp
L GND #PWR03
U 1 1 59DCC3B2
P 2750 4200
F 0 "#PWR03" H 2750 3950 50  0001 C CNN
F 1 "GND" H 2750 4050 50  0000 C CNN
F 2 "" H 2750 4200 50  0001 C CNN
F 3 "" H 2750 4200 50  0001 C CNN
	1    2750 4200
	1    0    0    -1  
$EndComp
$Comp
L GND #PWR04
U 1 1 59DCC3C0
P 2850 4350
F 0 "#PWR04" H 2850 4100 50  0001 C CNN
F 1 "GND" H 2850 4200 50  0000 C CNN
F 2 "" H 2850 4350 50  0001 C CNN
F 3 "" H 2850 4350 50  0001 C CNN
	1    2850 4350
	1    0    0    -1  
$EndComp
$Comp
L GND #PWR05
U 1 1 59DCC3CE
P 2950 4200
F 0 "#PWR05" H 2950 3950 50  0001 C CNN
F 1 "GND" H 2950 4050 50  0000 C CNN
F 2 "" H 2950 4200 50  0001 C CNN
F 3 "" H 2950 4200 50  0001 C CNN
	1    2950 4200
	1    0    0    -1  
$EndComp
$Comp
L GND #PWR06
U 1 1 59DCC3DC
P 3050 4350
F 0 "#PWR06" H 3050 4100 50  0001 C CNN
F 1 "GND" H 3050 4200 50  0000 C CNN
F 2 "" H 3050 4350 50  0001 C CNN
F 3 "" H 3050 4350 50  0001 C CNN
	1    3050 4350
	1    0    0    -1  
$EndComp
$Comp
L GND #PWR07
U 1 1 59DCC3EA
P 3150 4200
F 0 "#PWR07" H 3150 3950 50  0001 C CNN
F 1 "GND" H 3150 4050 50  0000 C CNN
F 2 "" H 3150 4200 50  0001 C CNN
F 3 "" H 3150 4200 50  0001 C CNN
	1    3150 4200
	1    0    0    -1  
$EndComp
$Comp
L R R6
U 1 1 59DCC471
P 1050 3250
F 0 "R6" V 1130 3250 50  0000 C CNN
F 1 "560R" V 1050 3250 50  0000 C CNN
F 2 "Resistors_SMD:R_1206_HandSoldering" V 980 3250 50  0001 C CNN
F 3 "" H 1050 3250 50  0001 C CNN
	1    1050 3250
	0    1    1    0   
$EndComp
$Comp
L R R7
U 1 1 59DCC4BE
P 1350 3350
F 0 "R7" V 1430 3350 50  0000 C CNN
F 1 "560R" V 1350 3350 50  0000 C CNN
F 2 "Resistors_SMD:R_1206_HandSoldering" V 1280 3350 50  0001 C CNN
F 3 "" H 1350 3350 50  0001 C CNN
	1    1350 3350
	0    1    1    0   
$EndComp
$Comp
L R R10
U 1 1 59DCC843
P 2000 4000
F 0 "R10" V 2080 4000 50  0000 C CNN
F 1 "1K" V 2000 4000 50  0000 C CNN
F 2 "Resistors_SMD:R_1206_HandSoldering" V 1930 4000 50  0001 C CNN
F 3 "" H 2000 4000 50  0001 C CNN
	1    2000 4000
	1    0    0    -1  
$EndComp
$Comp
L R R11
U 1 1 59DCC9B0
P 2200 4000
F 0 "R11" V 2280 4000 50  0000 C CNN
F 1 "1K" V 2200 4000 50  0000 C CNN
F 2 "Resistors_SMD:R_1206_HandSoldering" V 2130 4000 50  0001 C CNN
F 3 "" H 2200 4000 50  0001 C CNN
	1    2200 4000
	1    0    0    -1  
$EndComp
$Comp
L C C10
U 1 1 59DCCE80
P 2600 1900
F 0 "C10" H 2625 2000 50  0000 L CNN
F 1 "10p" H 2625 1800 50  0000 L CNN
F 2 "Capacitors_SMD:C_0603_HandSoldering" H 2638 1750 50  0001 C CNN
F 3 "" H 2600 1900 50  0001 C CNN
	1    2600 1900
	0    1    1    0   
$EndComp
$Comp
L C C8
U 1 1 59DCCF82
P 2600 1650
F 0 "C8" H 2625 1750 50  0000 L CNN
F 1 "100n" H 2625 1550 50  0000 L CNN
F 2 "Capacitors_SMD:C_0603_HandSoldering" H 2638 1500 50  0001 C CNN
F 3 "" H 2600 1650 50  0001 C CNN
	1    2600 1650
	0    1    1    0   
$EndComp
$Comp
L C C6
U 1 1 59DCD07A
P 2700 1300
F 0 "C6" H 2725 1400 50  0000 L CNN
F 1 "10p" H 2725 1200 50  0000 L CNN
F 2 "Capacitors_SMD:C_0603_HandSoldering" H 2738 1150 50  0001 C CNN
F 3 "" H 2700 1300 50  0001 C CNN
	1    2700 1300
	0    1    1    0   
$EndComp
$Comp
L C C4
U 1 1 59DCD080
P 2700 1050
F 0 "C4" H 2725 1150 50  0000 L CNN
F 1 "100n" H 2725 950 50  0000 L CNN
F 2 "Capacitors_SMD:C_0603_HandSoldering" H 2738 900 50  0001 C CNN
F 3 "" H 2700 1050 50  0001 C CNN
	1    2700 1050
	0    1    1    0   
$EndComp
$Comp
L C C11
U 1 1 59DCD1E9
P 3200 1900
F 0 "C11" H 3225 2000 50  0000 L CNN
F 1 "10p" H 3225 1800 50  0000 L CNN
F 2 "Capacitors_SMD:C_0603_HandSoldering" H 3238 1750 50  0001 C CNN
F 3 "" H 3200 1900 50  0001 C CNN
	1    3200 1900
	0    -1   1    0   
$EndComp
$Comp
L C C9
U 1 1 59DCD1EF
P 3200 1650
F 0 "C9" H 3225 1750 50  0000 L CNN
F 1 "100n" H 3225 1550 50  0000 L CNN
F 2 "Capacitors_SMD:C_0603_HandSoldering" H 3238 1500 50  0001 C CNN
F 3 "" H 3200 1650 50  0001 C CNN
	1    3200 1650
	0    -1   1    0   
$EndComp
$Comp
L C C7
U 1 1 59DCD1F5
P 3100 1300
F 0 "C7" H 3125 1400 50  0000 L CNN
F 1 "10p" H 3125 1200 50  0000 L CNN
F 2 "Capacitors_SMD:C_0603_HandSoldering" H 3138 1150 50  0001 C CNN
F 3 "" H 3100 1300 50  0001 C CNN
	1    3100 1300
	0    -1   1    0   
$EndComp
$Comp
L C C5
U 1 1 59DCD1FB
P 3100 1050
F 0 "C5" H 3125 1150 50  0000 L CNN
F 1 "100n" H 3125 950 50  0000 L CNN
F 2 "Capacitors_SMD:C_0603_HandSoldering" H 3138 900 50  0001 C CNN
F 3 "" H 3100 1050 50  0001 C CNN
	1    3100 1050
	0    -1   1    0   
$EndComp
$Comp
L GND #PWR08
U 1 1 59DCD76B
P 3500 1800
F 0 "#PWR08" H 3500 1550 50  0001 C CNN
F 1 "GND" H 3500 1650 50  0000 C CNN
F 2 "" H 3500 1800 50  0001 C CNN
F 3 "" H 3500 1800 50  0001 C CNN
	1    3500 1800
	0    -1   -1   0   
$EndComp
$Comp
L GND #PWR09
U 1 1 59DCD7AA
P 3450 1200
F 0 "#PWR09" H 3450 950 50  0001 C CNN
F 1 "GND" H 3450 1050 50  0000 C CNN
F 2 "" H 3450 1200 50  0001 C CNN
F 3 "" H 3450 1200 50  0001 C CNN
	1    3450 1200
	0    -1   -1   0   
$EndComp
$Comp
L GND #PWR010
U 1 1 59DCD81E
P 2250 1800
F 0 "#PWR010" H 2250 1550 50  0001 C CNN
F 1 "GND" H 2250 1650 50  0000 C CNN
F 2 "" H 2250 1800 50  0001 C CNN
F 3 "" H 2250 1800 50  0001 C CNN
	1    2250 1800
	0    1    1    0   
$EndComp
$Comp
L GND #PWR011
U 1 1 59DCD856
P 2250 1200
F 0 "#PWR011" H 2250 950 50  0001 C CNN
F 1 "GND" H 2250 1050 50  0000 C CNN
F 2 "" H 2250 1200 50  0001 C CNN
F 3 "" H 2250 1200 50  0001 C CNN
	1    2250 1200
	0    1    1    0   
$EndComp
$Comp
L R R3
U 1 1 59DCDA31
P 3500 2150
F 0 "R3" V 3580 2150 50  0000 C CNN
F 1 "4K7" V 3500 2150 50  0000 C CNN
F 2 "Resistors_SMD:R_1206_HandSoldering" V 3430 2150 50  0001 C CNN
F 3 "" H 3500 2150 50  0001 C CNN
	1    3500 2150
	0    1    1    0   
$EndComp
$Comp
L GND #PWR012
U 1 1 59DCDB63
P 3700 2150
F 0 "#PWR012" H 3700 1900 50  0001 C CNN
F 1 "GND" H 3700 2000 50  0000 C CNN
F 2 "" H 3700 2150 50  0001 C CNN
F 3 "" H 3700 2150 50  0001 C CNN
	1    3700 2150
	0    -1   -1   0   
$EndComp
$Comp
L C C34
U 1 1 59DCDF74
P 2300 6600
F 0 "C34" H 2325 6700 50  0000 L CNN
F 1 "1n" H 2325 6500 50  0000 L CNN
F 2 "Capacitors_SMD:C_0603_HandSoldering" H 2338 6450 50  0001 C CNN
F 3 "" H 2300 6600 50  0001 C CNN
	1    2300 6600
	0    1    1    0   
$EndComp
Text GLabel 2500 6600 2    60   Input ~ 0
REFIN
$Comp
L FOX-HC536R U4
U 1 1 59DCE255
P 1200 6450
F 0 "U4" H 1200 6500 60  0000 C CNN
F 1 "FOX-HC536R" H 1200 6400 60  0000 C CNN
F 2 "Librairie:FOX924" H 1200 6450 60  0001 C CNN
F 3 "" H 1200 6450 60  0001 C CNN
	1    1200 6450
	1    0    0    -1  
$EndComp
$Comp
L VDDA #PWR013
U 1 1 59DCE44F
P 2100 5400
F 0 "#PWR013" H 2100 5250 50  0001 C CNN
F 1 "VDDA" H 2100 5550 50  0000 C CNN
F 2 "" H 2100 5400 50  0001 C CNN
F 3 "" H 2100 5400 50  0001 C CNN
	1    2100 5400
	1    0    0    -1  
$EndComp
$Comp
L L L5
U 1 1 59DCE487
P 2100 5600
F 0 "L5" V 2050 5600 50  0000 C CNN
F 1 "L" V 2175 5600 50  0000 C CNN
F 2 "Inductors_SMD:L_0603_HandSoldering" H 2100 5600 50  0001 C CNN
F 3 "" H 2100 5600 50  0001 C CNN
	1    2100 5600
	1    0    0    -1  
$EndComp
$Comp
L C C32
U 1 1 59DCE4E3
P 2100 6000
F 0 "C32" H 2125 6100 50  0000 L CNN
F 1 "1u" H 2125 5900 50  0000 L CNN
F 2 "Capacitors_SMD:C_1210_HandSoldering" H 2138 5850 50  0001 C CNN
F 3 "" H 2100 6000 50  0001 C CNN
	1    2100 6000
	1    0    0    -1  
$EndComp
$Comp
L C C33
U 1 1 59DCE550
P 2350 6000
F 0 "C33" H 2375 6100 50  0000 L CNN
F 1 "0.1u" H 2375 5900 50  0000 L CNN
F 2 "Capacitors_SMD:C_0603_HandSoldering" H 2388 5850 50  0001 C CNN
F 3 "" H 2350 6000 50  0001 C CNN
	1    2350 6000
	1    0    0    -1  
$EndComp
$Comp
L GND #PWR014
U 1 1 59DCE872
P 2250 6200
F 0 "#PWR014" H 2250 5950 50  0001 C CNN
F 1 "GND" H 2250 6050 50  0000 C CNN
F 2 "" H 2250 6200 50  0001 C CNN
F 3 "" H 2250 6200 50  0001 C CNN
	1    2250 6200
	1    0    0    -1  
$EndComp
$Comp
L GND #PWR015
U 1 1 59DCEA32
P 650 6700
F 0 "#PWR015" H 650 6450 50  0001 C CNN
F 1 "GND" H 650 6550 50  0000 C CNN
F 2 "" H 650 6700 50  0001 C CNN
F 3 "" H 650 6700 50  0001 C CNN
	1    650  6700
	1    0    0    -1  
$EndComp
$Comp
L SMA J7
U 1 1 59DCED96
P 850 7400
F 0 "J7" H 975 7715 60  0000 C CNN
F 1 "SMA" H 1040 7640 60  0000 C CNN
F 2 "sma_connectors:SMA" H 1025 7570 50  0000 C CNN
F 3 "" H 850 7400 60  0001 C CNN
	1    850  7400
	-1   0    0    -1  
$EndComp
$Comp
L R R13
U 1 1 59DCEFFF
P 1350 7100
F 0 "R13" V 1430 7100 50  0000 C CNN
F 1 "0R" V 1350 7100 50  0000 C CNN
F 2 "Resistors_SMD:R_1206_HandSoldering" V 1280 7100 50  0001 C CNN
F 3 "" H 1350 7100 50  0001 C CNN
	1    1350 7100
	0    1    1    0   
$EndComp
$Comp
L GND #PWR016
U 1 1 59DCF517
P 900 7450
F 0 "#PWR016" H 900 7200 50  0001 C CNN
F 1 "GND" H 900 7300 50  0000 C CNN
F 2 "" H 900 7450 50  0001 C CNN
F 3 "" H 900 7450 50  0001 C CNN
	1    900  7450
	1    0    0    -1  
$EndComp
$Comp
L R R1
U 1 1 59DD0190
P 4350 1900
F 0 "R1" V 4430 1900 50  0000 C CNN
F 1 "180R" V 4350 1900 50  0000 C CNN
F 2 "Resistors_SMD:R_0805_HandSoldering" V 4280 1900 50  0001 C CNN
F 3 "" H 4350 1900 50  0001 C CNN
	1    4350 1900
	0    1    1    0   
$EndComp
$Comp
L LED D2
U 1 1 59DD030E
P 4800 1900
F 0 "D2" H 4800 2000 50  0000 C CNN
F 1 "LED" H 4800 1800 50  0000 C CNN
F 2 "Librairie:HSMS_C110" H 4800 1900 50  0001 C CNN
F 3 "" H 4800 1900 50  0001 C CNN
	1    4800 1900
	-1   0    0    1   
$EndComp
$Comp
L GND #PWR017
U 1 1 59DD03AF
P 5000 1900
F 0 "#PWR017" H 5000 1650 50  0001 C CNN
F 1 "GND" H 5000 1750 50  0000 C CNN
F 2 "" H 5000 1900 50  0001 C CNN
F 3 "" H 5000 1900 50  0001 C CNN
	1    5000 1900
	0    -1   -1   0   
$EndComp
$Comp
L VDDA #PWR018
U 1 1 59DD0AA9
P 2750 1600
F 0 "#PWR018" H 2750 1450 50  0001 C CNN
F 1 "VDDA" H 2750 1750 50  0000 C CNN
F 2 "" H 2750 1600 50  0001 C CNN
F 3 "" H 2750 1600 50  0001 C CNN
	1    2750 1600
	1    0    0    -1  
$EndComp
$Comp
L VDDA #PWR019
U 1 1 59DD0AFC
P 2850 1000
F 0 "#PWR019" H 2850 850 50  0001 C CNN
F 1 "VDDA" H 2850 1150 50  0000 C CNN
F 2 "" H 2850 1000 50  0001 C CNN
F 3 "" H 2850 1000 50  0001 C CNN
	1    2850 1000
	1    0    0    -1  
$EndComp
$Comp
L VDDA #PWR020
U 1 1 59DD0B4F
P 2950 750
F 0 "#PWR020" H 2950 600 50  0001 C CNN
F 1 "VDDA" H 2950 900 50  0000 C CNN
F 2 "" H 2950 750 50  0001 C CNN
F 3 "" H 2950 750 50  0001 C CNN
	1    2950 750 
	1    0    0    -1  
$EndComp
$Comp
L VDDA #PWR021
U 1 1 59DD0BA2
P 3050 1600
F 0 "#PWR021" H 3050 1450 50  0001 C CNN
F 1 "VDDA" H 3050 1750 50  0000 C CNN
F 2 "" H 3050 1600 50  0001 C CNN
F 3 "" H 3050 1600 50  0001 C CNN
	1    3050 1600
	1    0    0    -1  
$EndComp
$Comp
L C C14
U 1 1 59DD0EDF
P 5950 2150
F 0 "C14" H 5975 2250 50  0000 L CNN
F 1 "2.2nF" H 5975 2050 50  0000 L CNN
F 2 "Capacitors_SMD:C_0603_HandSoldering" H 5988 2000 50  0001 C CNN
F 3 "" H 5950 2150 50  0001 C CNN
	1    5950 2150
	1    0    0    -1  
$EndComp
$Comp
L C C15
U 1 1 59DD0F4F
P 6500 2150
F 0 "C15" H 6525 2250 50  0000 L CNN
F 1 "47nF" H 6525 2050 50  0000 L CNN
F 2 "Capacitors_SMD:C_0603_HandSoldering" H 6538 2000 50  0001 C CNN
F 3 "" H 6500 2150 50  0001 C CNN
	1    6500 2150
	1    0    0    -1  
$EndComp
$Comp
L C C16
U 1 1 59DD0FBF
P 7450 2150
F 0 "C16" H 7475 2250 50  0000 L CNN
F 1 "680pF" H 7475 2050 50  0000 L CNN
F 2 "Capacitors_SMD:C_0603_HandSoldering" H 7488 2000 50  0001 C CNN
F 3 "" H 7450 2150 50  0001 C CNN
	1    7450 2150
	1    0    0    -1  
$EndComp
$Comp
L R R2
U 1 1 59DD10A5
P 7050 1950
F 0 "R2" V 7130 1950 50  0000 C CNN
F 1 "1K" V 7050 1950 50  0000 C CNN
F 2 "Resistors_SMD:R_0805_HandSoldering" V 6980 1950 50  0001 C CNN
F 3 "" H 7050 1950 50  0001 C CNN
	1    7050 1950
	0    1    1    0   
$EndComp
$Comp
L R R4
U 1 1 59DD1199
P 6500 2500
F 0 "R4" V 6580 2500 50  0000 C CNN
F 1 "380R" V 6500 2500 50  0000 C CNN
F 2 "Resistors_SMD:R_1206_HandSoldering" V 6430 2500 50  0001 C CNN
F 3 "" H 6500 2500 50  0001 C CNN
	1    6500 2500
	-1   0    0    1   
$EndComp
$Comp
L GND #PWR022
U 1 1 59DD14BA
P 5950 2400
F 0 "#PWR022" H 5950 2150 50  0001 C CNN
F 1 "GND" H 5950 2250 50  0000 C CNN
F 2 "" H 5950 2400 50  0001 C CNN
F 3 "" H 5950 2400 50  0001 C CNN
	1    5950 2400
	1    0    0    -1  
$EndComp
$Comp
L GND #PWR023
U 1 1 59DD151C
P 6500 2700
F 0 "#PWR023" H 6500 2450 50  0001 C CNN
F 1 "GND" H 6500 2550 50  0000 C CNN
F 2 "" H 6500 2700 50  0001 C CNN
F 3 "" H 6500 2700 50  0001 C CNN
	1    6500 2700
	1    0    0    -1  
$EndComp
$Comp
L GND #PWR024
U 1 1 59DD157E
P 7450 2350
F 0 "#PWR024" H 7450 2100 50  0001 C CNN
F 1 "GND" H 7450 2200 50  0000 C CNN
F 2 "" H 7450 2350 50  0001 C CNN
F 3 "" H 7450 2350 50  0001 C CNN
	1    7450 2350
	1    0    0    -1  
$EndComp
$Comp
L Jumper JP1
U 1 1 59DD18B5
P 7800 2450
F 0 "JP1" H 7800 2600 50  0000 C CNN
F 1 "Jumper" H 7800 2370 50  0000 C CNN
F 2 "Pin_Headers:Pin_Header_Straight_1x02_Pitch2.54mm" H 7800 2450 50  0001 C CNN
F 3 "" H 7800 2450 50  0001 C CNN
	1    7800 2450
	0    1    1    0   
$EndComp
$Comp
L TEST_2P J2
U 1 1 59DD1B1D
P 8150 2150
F 0 "J2" H 8150 2210 50  0000 C CNN
F 1 "TEST_2P" H 8150 2050 50  0000 C CNN
F 2 "Pin_Headers:Pin_Header_Straight_1x02_Pitch1.27mm" H 8150 2150 50  0001 C CNN
F 3 "" H 8150 2150 50  0001 C CNN
	1    8150 2150
	0    1    1    0   
$EndComp
$Comp
L GND #PWR025
U 1 1 59DD1D6A
P 8150 2450
F 0 "#PWR025" H 8150 2200 50  0001 C CNN
F 1 "GND" H 8150 2300 50  0000 C CNN
F 2 "" H 8150 2450 50  0001 C CNN
F 3 "" H 8150 2450 50  0001 C CNN
	1    8150 2450
	1    0    0    -1  
$EndComp
$Comp
L C C22
U 1 1 59DD2B84
P 6250 3650
F 0 "C22" H 6275 3750 50  0000 L CNN
F 1 "0.1u" H 6275 3550 50  0000 L CNN
F 2 "Capacitors_SMD:C_0603_HandSoldering" H 6288 3500 50  0001 C CNN
F 3 "" H 6250 3650 50  0001 C CNN
	1    6250 3650
	1    0    0    -1  
$EndComp
$Comp
L C C23
U 1 1 59DD2C07
P 6500 3650
F 0 "C23" H 6525 3750 50  0000 L CNN
F 1 "100p" H 6525 3550 50  0000 L CNN
F 2 "Capacitors_SMD:C_0603_HandSoldering" H 6538 3500 50  0001 C CNN
F 3 "" H 6500 3650 50  0001 C CNN
	1    6500 3650
	1    0    0    -1  
$EndComp
$Comp
L C C19
U 1 1 59DD2CF8
P 5600 3000
F 0 "C19" H 5625 3100 50  0000 L CNN
F 1 "0.1n" H 5625 2900 50  0000 L CNN
F 2 "Capacitors_SMD:C_0603_HandSoldering" H 5638 2850 50  0001 C CNN
F 3 "" H 5600 3000 50  0001 C CNN
	1    5600 3000
	1    0    0    -1  
$EndComp
$Comp
L VDDA #PWR026
U 1 1 59DD32BF
P 5600 2750
F 0 "#PWR026" H 5600 2600 50  0001 C CNN
F 1 "VDDA" H 5600 2900 50  0000 C CNN
F 2 "" H 5600 2750 50  0001 C CNN
F 3 "" H 5600 2750 50  0001 C CNN
	1    5600 2750
	1    0    0    -1  
$EndComp
$Comp
L GND #PWR027
U 1 1 59DD3319
P 5800 3150
F 0 "#PWR027" H 5800 2900 50  0001 C CNN
F 1 "GND" H 5800 3000 50  0000 C CNN
F 2 "" H 5800 3150 50  0001 C CNN
F 3 "" H 5800 3150 50  0001 C CNN
	1    5800 3150
	0    -1   -1   0   
$EndComp
$Comp
L C C20
U 1 1 59DD3DD1
P 6800 3550
F 0 "C20" H 6825 3650 50  0000 L CNN
F 1 "0.1u" H 6825 3450 50  0000 L CNN
F 2 "Capacitors_SMD:C_0603_HandSoldering" H 6838 3400 50  0001 C CNN
F 3 "" H 6800 3550 50  0001 C CNN
	1    6800 3550
	1    0    0    -1  
$EndComp
$Comp
L C C21
U 1 1 59DD3DD7
P 7050 3550
F 0 "C21" H 7075 3650 50  0000 L CNN
F 1 "100p" H 7075 3450 50  0000 L CNN
F 2 "Capacitors_SMD:C_0603_HandSoldering" H 7088 3400 50  0001 C CNN
F 3 "" H 7050 3550 50  0001 C CNN
	1    7050 3550
	1    0    0    -1  
$EndComp
$Comp
L C C24
U 1 1 59DD3EDD
P 5700 3750
F 0 "C24" H 5725 3850 50  0000 L CNN
F 1 "0.1u" H 5725 3650 50  0000 L CNN
F 2 "Capacitors_SMD:C_0603_HandSoldering" H 5738 3600 50  0001 C CNN
F 3 "" H 5700 3750 50  0001 C CNN
	1    5700 3750
	1    0    0    -1  
$EndComp
$Comp
L C C25
U 1 1 59DD3EE3
P 5950 3750
F 0 "C25" H 5975 3850 50  0000 L CNN
F 1 "100p" H 5975 3650 50  0000 L CNN
F 2 "Capacitors_SMD:C_0603_HandSoldering" H 5988 3600 50  0001 C CNN
F 3 "" H 5950 3750 50  0001 C CNN
	1    5950 3750
	1    0    0    -1  
$EndComp
$Comp
L GND #PWR028
U 1 1 59DD49E1
P 5850 3950
F 0 "#PWR028" H 5850 3700 50  0001 C CNN
F 1 "GND" H 5850 3800 50  0000 C CNN
F 2 "" H 5850 3950 50  0001 C CNN
F 3 "" H 5850 3950 50  0001 C CNN
	1    5850 3950
	1    0    0    -1  
$EndComp
$Comp
L GND #PWR029
U 1 1 59DD4A65
P 6400 3850
F 0 "#PWR029" H 6400 3600 50  0001 C CNN
F 1 "GND" H 6400 3700 50  0000 C CNN
F 2 "" H 6400 3850 50  0001 C CNN
F 3 "" H 6400 3850 50  0001 C CNN
	1    6400 3850
	1    0    0    -1  
$EndComp
$Comp
L GND #PWR030
U 1 1 59DD4AE2
P 6950 3750
F 0 "#PWR030" H 6950 3500 50  0001 C CNN
F 1 "GND" H 6950 3600 50  0000 C CNN
F 2 "" H 6950 3750 50  0001 C CNN
F 3 "" H 6950 3750 50  0001 C CNN
	1    6950 3750
	1    0    0    -1  
$EndComp
$Comp
L C C17
U 1 1 59DD4FC2
P 4800 3000
F 0 "C17" H 4825 3100 50  0000 L CNN
F 1 "0.1u" H 4825 2900 50  0000 L CNN
F 2 "Capacitors_SMD:C_0603_HandSoldering" H 4838 2850 50  0001 C CNN
F 3 "" H 4800 3000 50  0001 C CNN
	1    4800 3000
	1    0    0    -1  
$EndComp
$Comp
L C C18
U 1 1 59DD4FC8
P 5050 3000
F 0 "C18" H 5075 3100 50  0000 L CNN
F 1 "100p" H 5075 2900 50  0000 L CNN
F 2 "Capacitors_SMD:C_0603_HandSoldering" H 5088 2850 50  0001 C CNN
F 3 "" H 5050 3000 50  0001 C CNN
	1    5050 3000
	1    0    0    -1  
$EndComp
$Comp
L L L3
U 1 1 59DD5CB9
P 3650 4450
F 0 "L3" V 3600 4450 50  0000 C CNN
F 1 "33nH" V 3725 4450 50  0000 C CNN
F 2 "Inductors_SMD:L_0603_HandSoldering" H 3650 4450 50  0001 C CNN
F 3 "" H 3650 4450 50  0001 C CNN
	1    3650 4450
	1    0    0    -1  
$EndComp
$Comp
L C C29
U 1 1 59DD5D5B
P 3650 4850
F 0 "C29" H 3675 4950 50  0000 L CNN
F 1 "100p" H 3675 4750 50  0000 L CNN
F 2 "Capacitors_SMD:C_0603_HandSoldering" H 3688 4700 50  0001 C CNN
F 3 "" H 3650 4850 50  0001 C CNN
	1    3650 4850
	1    0    0    -1  
$EndComp
Wire Wire Line
	2550 4150 2550 4200
Wire Wire Line
	2650 4150 2650 4350
Wire Wire Line
	2750 4150 2750 4200
Wire Wire Line
	2950 4150 2950 4200
Wire Wire Line
	3150 4150 3150 4200
Wire Wire Line
	3050 4150 3050 4350
Wire Wire Line
	2850 4350 2850 4150
Wire Wire Line
	2000 2600 2200 2600
Wire Wire Line
	2750 1600 2750 2150
Connection ~ 2750 1900
Wire Wire Line
	2850 1000 2850 2150
Connection ~ 2850 1300
Wire Wire Line
	2950 750  2950 2150
Connection ~ 2950 1300
Wire Wire Line
	3050 1600 3050 2150
Connection ~ 3050 1900
Wire Wire Line
	2450 1650 2450 1900
Wire Wire Line
	2550 1050 2550 1300
Wire Wire Line
	3250 1050 3250 1300
Wire Wire Line
	3350 1650 3350 1900
Wire Wire Line
	2250 1800 2450 1800
Connection ~ 2450 1800
Wire Wire Line
	2250 1200 2550 1200
Connection ~ 2550 1200
Wire Wire Line
	3500 1800 3350 1800
Connection ~ 3350 1800
Wire Wire Line
	3450 1200 3250 1200
Connection ~ 3250 1200
Wire Wire Line
	3150 2150 3350 2150
Wire Wire Line
	3650 2150 3700 2150
Wire Wire Line
	2450 6600 2500 6600
Wire Wire Line
	2100 5400 2100 5450
Wire Wire Line
	2100 5750 2100 5850
Wire Wire Line
	2100 6150 2350 6150
Wire Wire Line
	2250 6200 2250 6150
Connection ~ 2250 6150
Wire Wire Line
	650  6300 650  6700
Connection ~ 650  6600
Wire Wire Line
	1200 7100 1000 7100
Wire Wire Line
	800  7300 950  7300
Connection ~ 850  7300
Connection ~ 900  7300
Wire Wire Line
	900  7300 900  7450
Wire Wire Line
	900  3250 900  3250
Wire Wire Line
	900  3350 1200 3350
Wire Wire Line
	1200 3250 2200 3250
Wire Wire Line
	1500 3350 2200 3350
Wire Wire Line
	900  3550 2200 3550
Wire Wire Line
	4050 1900 4050 2550
Wire Wire Line
	4050 1900 4200 1900
Wire Wire Line
	4500 1900 4650 1900
Wire Wire Line
	5000 1900 4950 1900
Wire Wire Line
	5250 1950 6900 1950
Connection ~ 3050 1650
Connection ~ 2750 1650
Connection ~ 2850 1050
Connection ~ 2950 1050
Wire Wire Line
	5950 1950 5950 2000
Connection ~ 5950 1950
Wire Wire Line
	6500 2000 6500 1950
Connection ~ 6500 1950
Wire Wire Line
	7450 1950 7450 2000
Connection ~ 7450 1950
Wire Wire Line
	6500 2350 6500 2300
Wire Wire Line
	7450 2350 7450 2300
Wire Wire Line
	6500 2650 6500 2700
Wire Wire Line
	5950 2400 5950 2300
Wire Wire Line
	8150 2350 8150 2450
Wire Wire Line
	7800 1950 7800 2150
Connection ~ 7800 1950
Wire Wire Line
	7800 2750 7800 3250
Wire Wire Line
	3800 2850 3800 2950
Wire Wire Line
	5250 2650 5250 1950
Wire Wire Line
	5500 2850 5600 2850
Wire Wire Line
	5600 2850 5600 2750
Connection ~ 5600 3150
Wire Wire Line
	4550 3250 4550 3050
Wire Wire Line
	4550 3050 3800 3050
Wire Wire Line
	3800 3150 4450 3150
Wire Wire Line
	4450 3350 7050 3350
Wire Wire Line
	3800 3250 4350 3250
Wire Wire Line
	4350 3450 6500 3450
Wire Wire Line
	4250 3550 5950 3550
Wire Wire Line
	4250 3350 3800 3350
Wire Wire Line
	7050 3350 7050 3400
Wire Wire Line
	6800 3400 6800 3350
Connection ~ 6800 3350
Wire Wire Line
	6500 3450 6500 3500
Wire Wire Line
	6250 3500 6250 3450
Connection ~ 6250 3450
Wire Wire Line
	5950 3550 5950 3600
Wire Wire Line
	5700 3600 5700 3550
Connection ~ 5700 3550
Wire Wire Line
	5700 3900 5950 3900
Wire Wire Line
	6250 3800 6500 3800
Wire Wire Line
	6800 3700 7050 3700
Connection ~ 6950 3700
Connection ~ 6400 3800
Connection ~ 5850 3900
Wire Wire Line
	4800 3150 5800 3150
Connection ~ 5050 3150
Wire Wire Line
	4450 3150 4450 3350
Wire Wire Line
	4350 3250 4350 3450
Wire Wire Line
	4250 3550 4250 3350
Wire Wire Line
	3800 3450 4150 3450
Wire Wire Line
	3800 3550 4050 3550
Wire Wire Line
	3800 3650 3900 3650
Wire Wire Line
	3650 4600 3650 4700
Connection ~ 3650 4650
$Comp
L GND #PWR031
U 1 1 59DD61AE
P 3650 5050
F 0 "#PWR031" H 3650 4800 50  0001 C CNN
F 1 "GND" H 3650 4900 50  0000 C CNN
F 2 "" H 3650 5050 50  0001 C CNN
F 3 "" H 3650 5050 50  0001 C CNN
	1    3650 5050
	1    0    0    -1  
$EndComp
Wire Wire Line
	3650 5050 3650 5000
Wire Wire Line
	3800 2850 5200 2850
Connection ~ 4800 2850
$Comp
L L L1
U 1 1 59DD6720
P 5350 2850
F 0 "L1" V 5300 2850 50  0000 C CNN
F 1 "33nH" V 5425 2850 50  0000 C CNN
F 2 "Inductors_SMD:L_0603_HandSoldering" H 5350 2850 50  0001 C CNN
F 3 "" H 5350 2850 50  0001 C CNN
	1    5350 2850
	0    -1   -1   0   
$EndComp
Connection ~ 5050 2850
$Comp
L VDDA #PWR032
U 1 1 59DD6D45
P 3650 4250
F 0 "#PWR032" H 3650 4100 50  0001 C CNN
F 1 "VDDA" H 3650 4400 50  0000 C CNN
F 2 "" H 3650 4250 50  0001 C CNN
F 3 "" H 3650 4250 50  0001 C CNN
	1    3650 4250
	1    0    0    -1  
$EndComp
Wire Wire Line
	3650 4300 3650 4250
$Comp
L SMA J5
U 1 1 59DD7101
P 6950 4500
F 0 "J5" H 7075 4815 60  0000 C CNN
F 1 "SMA" H 7140 4740 60  0000 C CNN
F 2 "sma_connectors:SMA" H 7125 4670 50  0000 C CNN
F 3 "" H 6950 4500 60  0001 C CNN
	1    6950 4500
	1    0    0    -1  
$EndComp
$Comp
L SMA J6
U 1 1 59DD7248
P 6950 5350
F 0 "J6" H 7075 5665 60  0000 C CNN
F 1 "SMA" H 7140 5590 60  0000 C CNN
F 2 "sma_connectors:SMA" H 7125 5520 50  0000 C CNN
F 3 "" H 6950 5350 60  0001 C CNN
	1    6950 5350
	1    0    0    -1  
$EndComp
$Comp
L C C26
U 1 1 59DD7382
P 6300 4200
F 0 "C26" H 6325 4300 50  0000 L CNN
F 1 "1nF" H 6325 4100 50  0000 L CNN
F 2 "Capacitors_SMD:C_0603_HandSoldering" H 6338 4050 50  0001 C CNN
F 3 "" H 6300 4200 50  0001 C CNN
	1    6300 4200
	0    1    1    0   
$EndComp
Wire Wire Line
	6450 4200 6800 4200
Wire Wire Line
	6850 4400 7000 4400
Connection ~ 6900 4400
Connection ~ 6950 4400
Wire Wire Line
	6850 5250 7000 5250
Connection ~ 6900 5250
Connection ~ 6950 5250
Wire Wire Line
	7000 5250 7000 5300
Wire Wire Line
	7000 4400 7000 4450
$Comp
L C C31
U 1 1 59DD7D81
P 6300 5050
F 0 "C31" H 6325 5150 50  0000 L CNN
F 1 "1nF" H 6325 4950 50  0000 L CNN
F 2 "Capacitors_SMD:C_0603_HandSoldering" H 6338 4900 50  0001 C CNN
F 3 "" H 6300 5050 50  0001 C CNN
	1    6300 5050
	0    1    1    0   
$EndComp
Wire Wire Line
	6450 5050 6800 5050
Wire Wire Line
	3650 4650 3900 4650
Wire Wire Line
	3900 4650 3900 3650
$Comp
L GND #PWR033
U 1 1 59DD8162
P 7000 4450
F 0 "#PWR033" H 7000 4200 50  0001 C CNN
F 1 "GND" H 7000 4300 50  0000 C CNN
F 2 "" H 7000 4450 50  0001 C CNN
F 3 "" H 7000 4450 50  0001 C CNN
	1    7000 4450
	1    0    0    -1  
$EndComp
$Comp
L GND #PWR034
U 1 1 59DD8200
P 7000 5300
F 0 "#PWR034" H 7000 5050 50  0001 C CNN
F 1 "GND" H 7000 5150 50  0000 C CNN
F 2 "" H 7000 5300 50  0001 C CNN
F 3 "" H 7000 5300 50  0001 C CNN
	1    7000 5300
	1    0    0    -1  
$EndComp
$Comp
L L L2
U 1 1 59DD8300
P 4750 4400
F 0 "L2" V 4700 4400 50  0000 C CNN
F 1 "3.9nH" V 4825 4400 50  0000 C CNN
F 2 "Inductors_SMD:L_0603_HandSoldering" H 4750 4400 50  0001 C CNN
F 3 "" H 4750 4400 50  0001 C CNN
	1    4750 4400
	1    0    0    -1  
$EndComp
$Comp
L L L4
U 1 1 59DD840A
P 4750 4850
F 0 "L4" V 4700 4850 50  0000 C CNN
F 1 "3.9nH" V 4825 4850 50  0000 C CNN
F 2 "Inductors_SMD:L_0603_HandSoldering" H 4750 4850 50  0001 C CNN
F 3 "" H 4750 4850 50  0001 C CNN
	1    4750 4850
	1    0    0    -1  
$EndComp
Wire Wire Line
	4750 4250 4750 4200
Connection ~ 4750 4200
Wire Wire Line
	4750 5000 4750 5050
Connection ~ 4750 5050
$Comp
L C C27
U 1 1 59DD89A6
P 5350 4450
F 0 "C27" H 5375 4550 50  0000 L CNN
F 1 "120p" H 5375 4350 50  0000 L CNN
F 2 "Capacitors_SMD:C_0603_HandSoldering" H 5388 4300 50  0001 C CNN
F 3 "" H 5350 4450 50  0001 C CNN
	1    5350 4450
	0    1    1    0   
$EndComp
$Comp
L C C28
U 1 1 59DD8A6D
P 5350 4650
F 0 "C28" H 5375 4750 50  0000 L CNN
F 1 "0.1u" H 5375 4550 50  0000 L CNN
F 2 "Capacitors_SMD:C_0603_HandSoldering" H 5388 4500 50  0001 C CNN
F 3 "" H 5350 4650 50  0001 C CNN
	1    5350 4650
	0    1    1    0   
$EndComp
$Comp
L C C30
U 1 1 59DD8B20
P 5350 4850
F 0 "C30" H 5375 4950 50  0000 L CNN
F 1 "120p" H 5375 4750 50  0000 L CNN
F 2 "Capacitors_SMD:C_0603_HandSoldering" H 5388 4700 50  0001 C CNN
F 3 "" H 5350 4850 50  0001 C CNN
	1    5350 4850
	0    1    1    0   
$EndComp
Wire Wire Line
	5200 4400 5200 4850
Connection ~ 5200 4650
Wire Wire Line
	4750 4550 4750 4700
Wire Wire Line
	4750 4600 5200 4600
Connection ~ 5200 4600
Connection ~ 4750 4600
Connection ~ 5200 4450
Wire Wire Line
	5500 4450 5500 4850
Connection ~ 5500 4650
Wire Wire Line
	5500 4850 5700 4850
$Comp
L GND #PWR035
U 1 1 59DD941D
P 5700 4850
F 0 "#PWR035" H 5700 4600 50  0001 C CNN
F 1 "GND" H 5700 4700 50  0000 C CNN
F 2 "" H 5700 4850 50  0001 C CNN
F 3 "" H 5700 4850 50  0001 C CNN
	1    5700 4850
	0    -1   -1   0   
$EndComp
Wire Wire Line
	1950 5800 2350 5800
Connection ~ 2100 5800
Wire Wire Line
	1950 5800 1950 6300
Wire Wire Line
	2350 5800 2350 5850
Wire Notes Line
	550  7650 550  5100
Wire Notes Line
	550  5100 2900 5100
Wire Notes Line
	2900 5100 2900 7650
Wire Notes Line
	2900 7650 550  7650
Text Notes 750  5350 0    60   ~ 0
REFERENCE FREQ
Wire Wire Line
	6950 3750 6950 3700
Wire Wire Line
	6400 3850 6400 3800
Wire Wire Line
	5850 3950 5850 3900
Wire Wire Line
	4150 3450 4150 4200
Wire Wire Line
	4050 3550 4050 5050
Wire Wire Line
	4050 5050 6150 5050
Wire Wire Line
	4150 4200 6150 4200
Wire Wire Line
	7200 1950 8150 1950
Wire Wire Line
	7800 3250 4550 3250
$Comp
L Conn_01x02 J1
U 1 1 59DDF3C6
P 7300 850
F 0 "J1" H 7300 950 50  0000 C CNN
F 1 "Conn_01x02" H 7300 650 50  0000 C CNN
F 2 "Pin_Headers:Pin_Header_Straight_1x02_Pitch2.54mm" H 7300 850 50  0001 C CNN
F 3 "" H 7300 850 50  0001 C CNN
	1    7300 850 
	-1   0    0    -1  
$EndComp
Wire Wire Line
	7500 950  7500 1500
$Comp
L GND #PWR036
U 1 1 59DDF66B
P 7500 1500
F 0 "#PWR036" H 7500 1250 50  0001 C CNN
F 1 "GND" H 7500 1350 50  0000 C CNN
F 2 "" H 7500 1500 50  0001 C CNN
F 3 "" H 7500 1500 50  0001 C CNN
	1    7500 1500
	1    0    0    -1  
$EndComp
$Comp
L C C2
U 1 1 59DDF83D
P 9000 1000
F 0 "C2" H 9025 1100 50  0000 L CNN
F 1 "1u" H 9025 900 50  0000 L CNN
F 2 "Capacitors_SMD:C_1210_HandSoldering" H 9038 850 50  0001 C CNN
F 3 "" H 9000 1000 50  0001 C CNN
	1    9000 1000
	1    0    0    -1  
$EndComp
$Comp
L C C3
U 1 1 59DDF8FE
P 10700 1000
F 0 "C3" H 10725 1100 50  0000 L CNN
F 1 "1u" H 10725 900 50  0000 L CNN
F 2 "Capacitors_SMD:C_1210_HandSoldering" H 10738 850 50  0001 C CNN
F 3 "" H 10700 1000 50  0001 C CNN
	1    10700 1000
	1    0    0    -1  
$EndComp
Wire Wire Line
	10700 850  10550 850 
$Comp
L VDDA #PWR037
U 1 1 59DDFB90
P 10700 750
F 0 "#PWR037" H 10700 600 50  0001 C CNN
F 1 "VDDA" H 10700 900 50  0000 C CNN
F 2 "" H 10700 750 50  0001 C CNN
F 3 "" H 10700 750 50  0001 C CNN
	1    10700 750 
	1    0    0    -1  
$EndComp
Wire Wire Line
	10700 750  10700 850 
$Comp
L GND #PWR038
U 1 1 59DE0065
P 9000 1200
F 0 "#PWR038" H 9000 950 50  0001 C CNN
F 1 "GND" H 9000 1050 50  0000 C CNN
F 2 "" H 9000 1200 50  0001 C CNN
F 3 "" H 9000 1200 50  0001 C CNN
	1    9000 1200
	1    0    0    -1  
$EndComp
$Comp
L GND #PWR039
U 1 1 59DE011B
P 10700 1200
F 0 "#PWR039" H 10700 950 50  0001 C CNN
F 1 "GND" H 10700 1050 50  0000 C CNN
F 2 "" H 10700 1200 50  0001 C CNN
F 3 "" H 10700 1200 50  0001 C CNN
	1    10700 1200
	1    0    0    -1  
$EndComp
Wire Wire Line
	10700 1200 10700 1150
Wire Wire Line
	9000 1200 9000 1150
Connection ~ 9000 850 
$Comp
L D_Zener D1
U 1 1 59DE0925
P 7700 1050
F 0 "D1" H 7700 1150 50  0000 C CNN
F 1 "6.8V" H 7700 950 50  0000 C CNN
F 2 "Diodes_SMD:D_SOD-123" H 7700 1050 50  0001 C CNN
F 3 "" H 7700 1050 50  0001 C CNN
	1    7700 1050
	0    1    1    0   
$EndComp
Wire Wire Line
	7700 900  7700 850 
Connection ~ 7700 850 
$Comp
L GND #PWR040
U 1 1 59DE115F
P 7700 1250
F 0 "#PWR040" H 7700 1000 50  0001 C CNN
F 1 "GND" H 7700 1100 50  0000 C CNN
F 2 "" H 7700 1250 50  0001 C CNN
F 3 "" H 7700 1250 50  0001 C CNN
	1    7700 1250
	1    0    0    -1  
$EndComp
Wire Wire Line
	7700 1250 7700 1200
Wire Wire Line
	7500 850  7850 850 
Wire Wire Line
	8250 850  9650 850 
$Comp
L C C1
U 1 1 59DE1E36
P 8400 1000
F 0 "C1" H 8425 1100 50  0000 L CNN
F 1 "22u" H 8425 900 50  0000 L CNN
F 2 "Capacitors_Tantalum_SMD:CP_Tantalum_Case-C_EIA-6032-28_Hand" H 8438 850 50  0001 C CNN
F 3 "" H 8400 1000 50  0001 C CNN
	1    8400 1000
	1    0    0    -1  
$EndComp
$Comp
L GND #PWR041
U 1 1 59DE1E3C
P 8400 1200
F 0 "#PWR041" H 8400 950 50  0001 C CNN
F 1 "GND" H 8400 1050 50  0000 C CNN
F 2 "" H 8400 1200 50  0001 C CNN
F 3 "" H 8400 1200 50  0001 C CNN
	1    8400 1200
	1    0    0    -1  
$EndComp
Wire Wire Line
	8400 1200 8400 1150
Connection ~ 8400 850 
$Comp
L VDDA #PWR042
U 1 1 59DE2218
P 10050 2850
F 0 "#PWR042" H 10050 2700 50  0001 C CNN
F 1 "VDDA" H 10050 3000 50  0000 C CNN
F 2 "" H 10050 2850 50  0001 C CNN
F 3 "" H 10050 2850 50  0001 C CNN
	1    10050 2850
	1    0    0    -1  
$EndComp
Wire Wire Line
	10050 2850 10050 2950
$Comp
L GND #PWR043
U 1 1 59DE221F
P 10050 3700
F 0 "#PWR043" H 10050 3450 50  0001 C CNN
F 1 "GND" H 10050 3550 50  0000 C CNN
F 2 "" H 10050 3700 50  0001 C CNN
F 3 "" H 10050 3700 50  0001 C CNN
	1    10050 3700
	1    0    0    -1  
$EndComp
Wire Wire Line
	10050 3600 10050 3700
$Comp
L R R5
U 1 1 59DE231B
P 10050 3100
F 0 "R5" V 10130 3100 50  0000 C CNN
F 1 "1K" V 10050 3100 50  0000 C CNN
F 2 "Resistors_SMD:R_0805_HandSoldering" V 9980 3100 50  0001 C CNN
F 3 "" H 10050 3100 50  0001 C CNN
	1    10050 3100
	1    0    0    -1  
$EndComp
$Comp
L LED D3
U 1 1 59DE257F
P 10050 3450
F 0 "D3" H 10050 3550 50  0000 C CNN
F 1 "LED" H 10050 3350 50  0000 C CNN
F 2 "Librairie:HSMS_C110" H 10050 3450 50  0001 C CNN
F 3 "" H 10050 3450 50  0001 C CNN
	1    10050 3450
	0    -1   -1   0   
$EndComp
Wire Wire Line
	10050 3300 10050 3250
$Comp
L Jumper JP2
U 1 1 59DE6745
P 4700 2650
F 0 "JP2" H 4700 2800 50  0000 C CNN
F 1 "Jumper" H 4700 2570 50  0000 C CNN
F 2 "Pin_Headers:Pin_Header_Straight_1x02_Pitch2.54mm" H 4700 2650 50  0001 C CNN
F 3 "" H 4700 2650 50  0001 C CNN
	1    4700 2650
	1    0    0    -1  
$EndComp
$Comp
L TEST_2P J3
U 1 1 59DE674B
P 4400 2300
F 0 "J3" H 4400 2360 50  0000 C CNN
F 1 "TEST_2P" H 4400 2200 50  0000 C CNN
F 2 "Pin_Headers:Pin_Header_Straight_1x02_Pitch1.27mm" H 4400 2300 50  0001 C CNN
F 3 "" H 4400 2300 50  0001 C CNN
	1    4400 2300
	1    0    0    -1  
$EndComp
$Comp
L GND #PWR044
U 1 1 59DE6751
P 4700 2300
F 0 "#PWR044" H 4700 2050 50  0001 C CNN
F 1 "GND" H 4700 2150 50  0000 C CNN
F 2 "" H 4700 2300 50  0001 C CNN
F 3 "" H 4700 2300 50  0001 C CNN
	1    4700 2300
	0    -1   -1   0   
$EndComp
Wire Wire Line
	4600 2300 4700 2300
Wire Wire Line
	3800 2650 4400 2650
Connection ~ 4200 2650
Wire Wire Line
	4200 2650 4200 2300
Wire Wire Line
	5000 2650 5250 2650
Text Notes 9450 600  0    60   ~ 0
REGUL 3.3V
$Comp
L R R12
U 1 1 5A007ACE
P 1950 6600
F 0 "R12" V 2030 6600 50  0000 C CNN
F 1 "0R" V 1950 6600 50  0000 C CNN
F 2 "Resistors_SMD:R_1206_HandSoldering" V 1880 6600 50  0001 C CNN
F 3 "" H 1950 6600 50  0001 C CNN
	1    1950 6600
	0    1    1    0   
$EndComp
Wire Wire Line
	1950 6300 1750 6300
Wire Wire Line
	1750 6600 1800 6600
Wire Wire Line
	2100 6600 2150 6600
Wire Wire Line
	2150 6600 2150 7100
Wire Wire Line
	2150 7100 1500 7100
Text GLabel 2000 2600 0    60   Input ~ 0
REFIN
$Comp
L SW_SPST SW1
U 1 1 5A008F75
P 8050 850
F 0 "SW1" H 8050 975 50  0000 C CNN
F 1 "SW_SPST" H 8050 750 50  0000 C CNN
F 2 "Pin_Headers:Pin_Header_Straight_1x02_Pitch2.54mm" H 8050 850 50  0001 C CNN
F 3 "" H 8050 850 50  0001 C CNN
	1    8050 850 
	1    0    0    -1  
$EndComp
$Comp
L ADP150 U1
U 1 1 5A00976D
P 10100 1000
F 0 "U1" H 10100 1100 60  0000 C CNN
F 1 "ADP150" H 10100 800 60  0000 C CNN
F 2 "Librairie:TSOT-23_5pin" H 10100 1000 60  0001 C CNN
F 3 "" H 10100 1000 60  0001 C CNN
	1    10100 1000
	1    0    0    -1  
$EndComp
Wire Wire Line
	9250 1150 9650 1150
$Comp
L GND #PWR045
U 1 1 5A00ABCD
P 9550 1000
F 0 "#PWR045" H 9550 750 50  0001 C CNN
F 1 "GND" H 9550 850 50  0000 C CNN
F 2 "" H 9550 1000 50  0001 C CNN
F 3 "" H 9550 1000 50  0001 C CNN
	1    9550 1000
	1    0    0    -1  
$EndComp
Wire Wire Line
	9650 1000 9550 1000
Wire Wire Line
	9250 850  9250 1150
Connection ~ 9250 850 
$Comp
L C C12
U 1 1 5A019EF8
P 9000 2000
F 0 "C12" H 9025 2100 50  0000 L CNN
F 1 "1u" H 9025 1900 50  0000 L CNN
F 2 "Capacitors_SMD:C_1210_HandSoldering" H 9038 1850 50  0001 C CNN
F 3 "" H 9000 2000 50  0001 C CNN
	1    9000 2000
	1    0    0    -1  
$EndComp
$Comp
L C C13
U 1 1 5A019EFE
P 10700 2000
F 0 "C13" H 10725 2100 50  0000 L CNN
F 1 "1u" H 10725 1900 50  0000 L CNN
F 2 "Capacitors_SMD:C_1210_HandSoldering" H 10738 1850 50  0001 C CNN
F 3 "" H 10700 2000 50  0001 C CNN
	1    10700 2000
	1    0    0    -1  
$EndComp
Wire Wire Line
	10700 1850 10550 1850
Wire Wire Line
	10700 1750 10700 1850
$Comp
L GND #PWR046
U 1 1 5A019F0C
P 9000 2200
F 0 "#PWR046" H 9000 1950 50  0001 C CNN
F 1 "GND" H 9000 2050 50  0000 C CNN
F 2 "" H 9000 2200 50  0001 C CNN
F 3 "" H 9000 2200 50  0001 C CNN
	1    9000 2200
	1    0    0    -1  
$EndComp
$Comp
L GND #PWR047
U 1 1 5A019F12
P 10700 2200
F 0 "#PWR047" H 10700 1950 50  0001 C CNN
F 1 "GND" H 10700 2050 50  0000 C CNN
F 2 "" H 10700 2200 50  0001 C CNN
F 3 "" H 10700 2200 50  0001 C CNN
	1    10700 2200
	1    0    0    -1  
$EndComp
Wire Wire Line
	10700 2200 10700 2150
Wire Wire Line
	9000 2200 9000 2150
Connection ~ 9000 1850
Wire Wire Line
	8750 1850 9650 1850
Text Notes 9450 1600 0    60   ~ 0
REGUL 3.3V
$Comp
L ADP150 U2
U 1 1 5A019F1D
P 10100 2000
F 0 "U2" H 10100 2100 60  0000 C CNN
F 1 "ADP150" H 10100 1800 60  0000 C CNN
F 2 "Librairie:TSOT-23_5pin" H 10100 2000 60  0001 C CNN
F 3 "" H 10100 2000 60  0001 C CNN
	1    10100 2000
	1    0    0    -1  
$EndComp
Wire Wire Line
	9250 2150 9650 2150
$Comp
L GND #PWR048
U 1 1 5A019F24
P 9550 2000
F 0 "#PWR048" H 9550 1750 50  0001 C CNN
F 1 "GND" H 9550 1850 50  0000 C CNN
F 2 "" H 9550 2000 50  0001 C CNN
F 3 "" H 9550 2000 50  0001 C CNN
	1    9550 2000
	1    0    0    -1  
$EndComp
Wire Wire Line
	9650 2000 9550 2000
Wire Wire Line
	9250 1850 9250 2150
Connection ~ 9250 1850
Wire Wire Line
	8750 1850 8750 850 
Connection ~ 8750 850 
$Comp
L VDD #PWR049
U 1 1 5A01A600
P 10700 1750
F 0 "#PWR049" H 10700 1600 50  0001 C CNN
F 1 "VDD" H 10700 1900 50  0000 C CNN
F 2 "" H 10700 1750 50  0001 C CNN
F 3 "" H 10700 1750 50  0001 C CNN
	1    10700 1750
	1    0    0    -1  
$EndComp
$Comp
L VDD #PWR050
U 1 1 5A01A6DB
P 5200 4400
F 0 "#PWR050" H 5200 4250 50  0001 C CNN
F 1 "VDD" H 5200 4550 50  0000 C CNN
F 2 "" H 5200 4400 50  0001 C CNN
F 3 "" H 5200 4400 50  0001 C CNN
	1    5200 4400
	1    0    0    -1  
$EndComp
$Comp
L R R9
U 1 1 5A01D3DB
P 1800 4000
F 0 "R9" V 1880 4000 50  0000 C CNN
F 1 "1K" V 1800 4000 50  0000 C CNN
F 2 "Resistors_SMD:R_1206_HandSoldering" V 1730 4000 50  0001 C CNN
F 3 "" H 1800 4000 50  0001 C CNN
	1    1800 4000
	1    0    0    -1  
$EndComp
$Comp
L R R8
U 1 1 5A01D6FF
P 1600 3450
F 0 "R8" V 1680 3450 50  0000 C CNN
F 1 "560R" V 1600 3450 50  0000 C CNN
F 2 "Resistors_SMD:R_1206_HandSoldering" V 1530 3450 50  0001 C CNN
F 3 "" H 1600 3450 50  0001 C CNN
	1    1600 3450
	0    1    1    0   
$EndComp
Wire Wire Line
	1750 3450 2200 3450
Wire Wire Line
	1450 3450 900  3450
Wire Wire Line
	1800 3850 1800 3250
Connection ~ 1800 3250
Wire Wire Line
	2000 3850 2000 3350
Connection ~ 2000 3350
Wire Wire Line
	2200 3450 2200 3850
Wire Wire Line
	1800 4150 2200 4150
Connection ~ 2000 4150
Wire Wire Line
	2000 4150 2000 4250
$Comp
L GND #PWR051
U 1 1 5A01E3F2
P 2000 4250
F 0 "#PWR051" H 2000 4000 50  0001 C CNN
F 1 "GND" H 2000 4100 50  0000 C CNN
F 2 "" H 2000 4250 50  0001 C CNN
F 3 "" H 2000 4250 50  0001 C CNN
	1    2000 4250
	1    0    0    -1  
$EndComp
Wire Wire Line
	4050 2550 3800 2550
$Comp
L Conn_01x05 J4
U 1 1 5A0975D3
P 700 3450
F 0 "J4" H 700 3750 50  0000 C CNN
F 1 "Conn_01x05" H 700 3150 50  0000 C CNN
F 2 "Pin_Headers:Pin_Header_Straight_1x05_Pitch2.54mm" H 700 3450 50  0001 C CNN
F 3 "" H 700 3450 50  0001 C CNN
	1    700  3450
	-1   0    0    -1  
$EndComp
$Comp
L GND #PWR052
U 1 1 5A097859
P 1050 3800
F 0 "#PWR052" H 1050 3550 50  0001 C CNN
F 1 "GND" H 1050 3650 50  0000 C CNN
F 2 "" H 1050 3800 50  0001 C CNN
F 3 "" H 1050 3800 50  0001 C CNN
	1    1050 3800
	1    0    0    -1  
$EndComp
Wire Wire Line
	900  3650 1050 3650
Wire Wire Line
	1050 3650 1050 3800
$EndSCHEMATC
